<mxfile host="app.diagrams.net" agent="Mozilla/5.0 (Macintosh; Intel Mac OS X 10_15_7) AppleWebKit/537.36 (KHTML, like Gecko) Chrome/127.0.0.0 Safari/537.36" version="24.7.7">
  <diagram name="Page-1" id="NmSBZLfzPDTxuvx5KQk2">
    <mxGraphModel dx="3883" dy="4480" grid="1" gridSize="10" guides="1" tooltips="1" connect="1" arrows="1" fold="1" page="1" pageScale="1" pageWidth="850" pageHeight="1100" math="0" shadow="0">
      <root>
        <mxCell id="0" />
        <mxCell id="1" parent="0" />
        <mxCell id="zBE7G29B3W7qB8N71hoa-89" value="" style="rounded=0;whiteSpace=wrap;html=1;" vertex="1" parent="1">
          <mxGeometry x="570" y="-2950" width="1270" height="890" as="geometry" />
        </mxCell>
        <mxCell id="eXHiG-xwAYl2vfAZOKIz-87" value="" style="rounded=0;whiteSpace=wrap;html=1;" parent="1" vertex="1">
          <mxGeometry x="-1290" y="-1154.5" width="1530" height="524.5" as="geometry" />
        </mxCell>
        <mxCell id="eXHiG-xwAYl2vfAZOKIz-161" value="" style="rounded=0;whiteSpace=wrap;html=1;" parent="1" vertex="1">
          <mxGeometry x="1850" y="-810" width="430" height="325" as="geometry" />
        </mxCell>
        <mxCell id="eXHiG-xwAYl2vfAZOKIz-162" value="" style="rounded=0;whiteSpace=wrap;html=1;" parent="1" vertex="1">
          <mxGeometry x="1910" y="-739.5" width="350" height="150.5" as="geometry" />
        </mxCell>
        <mxCell id="eXHiG-xwAYl2vfAZOKIz-151" value="" style="rounded=0;whiteSpace=wrap;html=1;" parent="1" vertex="1">
          <mxGeometry x="1040" y="-1079" width="430" height="325" as="geometry" />
        </mxCell>
        <mxCell id="eXHiG-xwAYl2vfAZOKIz-150" value="" style="rounded=0;whiteSpace=wrap;html=1;" parent="1" vertex="1">
          <mxGeometry x="1040" y="-554" width="430" height="467" as="geometry" />
        </mxCell>
        <mxCell id="eXHiG-xwAYl2vfAZOKIz-122" value="" style="rounded=0;whiteSpace=wrap;html=1;" parent="1" vertex="1">
          <mxGeometry x="-822" y="1150" width="1682" height="1120" as="geometry" />
        </mxCell>
        <mxCell id="eXHiG-xwAYl2vfAZOKIz-119" value="" style="rounded=0;whiteSpace=wrap;html=1;" parent="1" vertex="1">
          <mxGeometry x="-821.96" y="-120" width="1691" height="1170" as="geometry" />
        </mxCell>
        <mxCell id="eXHiG-xwAYl2vfAZOKIz-116" value="" style="rounded=0;whiteSpace=wrap;html=1;" parent="1" vertex="1">
          <mxGeometry x="-748.96" y="-1112.25" width="370" height="440" as="geometry" />
        </mxCell>
        <mxCell id="eXHiG-xwAYl2vfAZOKIz-113" value="" style="rounded=0;whiteSpace=wrap;html=1;" parent="1" vertex="1">
          <mxGeometry x="-140" y="-1111" width="370" height="440" as="geometry" />
        </mxCell>
        <mxCell id="eXHiG-xwAYl2vfAZOKIz-22" value="" style="rounded=0;whiteSpace=wrap;html=1;" parent="1" vertex="1">
          <mxGeometry x="-72" y="160" width="402" height="410" as="geometry" />
        </mxCell>
        <mxCell id="eXHiG-xwAYl2vfAZOKIz-85" value="" style="rounded=0;whiteSpace=wrap;html=1;dashed=1;" parent="1" vertex="1">
          <mxGeometry x="-41.46" y="210" width="311.46" height="210" as="geometry" />
        </mxCell>
        <mxCell id="eXHiG-xwAYl2vfAZOKIz-83" style="edgeStyle=orthogonalEdgeStyle;rounded=0;orthogonalLoop=1;jettySize=auto;html=1;" parent="1" source="eXHiG-xwAYl2vfAZOKIz-81" target="eXHiG-xwAYl2vfAZOKIz-62" edge="1">
          <mxGeometry relative="1" as="geometry">
            <Array as="points">
              <mxPoint x="390" y="1395" />
              <mxPoint x="390" y="1880" />
              <mxPoint x="301" y="1880" />
            </Array>
          </mxGeometry>
        </mxCell>
        <mxCell id="eXHiG-xwAYl2vfAZOKIz-81" value="" style="rounded=0;whiteSpace=wrap;html=1;" parent="1" vertex="1">
          <mxGeometry x="-30" y="1320" width="360" height="150" as="geometry" />
        </mxCell>
        <mxCell id="eXHiG-xwAYl2vfAZOKIz-38" value="" style="rounded=0;whiteSpace=wrap;html=1;" parent="1" vertex="1">
          <mxGeometry x="-640" y="360" width="215" height="300" as="geometry" />
        </mxCell>
        <mxCell id="eXHiG-xwAYl2vfAZOKIz-46" style="edgeStyle=orthogonalEdgeStyle;rounded=0;orthogonalLoop=1;jettySize=auto;html=1;exitX=0.5;exitY=1;exitDx=0;exitDy=0;" parent="1" source="eXHiG-xwAYl2vfAZOKIz-22" target="eXHiG-xwAYl2vfAZOKIz-18" edge="1">
          <mxGeometry relative="1" as="geometry">
            <Array as="points">
              <mxPoint x="129" y="700" />
              <mxPoint x="291" y="700" />
            </Array>
          </mxGeometry>
        </mxCell>
        <mxCell id="eXHiG-xwAYl2vfAZOKIz-11" value="" style="rounded=0;whiteSpace=wrap;html=1;" parent="1" vertex="1">
          <mxGeometry x="-640" y="20" width="215" height="300" as="geometry" />
        </mxCell>
        <mxCell id="eXHiG-xwAYl2vfAZOKIz-3" value="" style="image;html=1;image=img/lib/clip_art/computers/Virtual_Application_128x128.png" parent="1" vertex="1">
          <mxGeometry x="-535" y="80" width="50" height="50" as="geometry" />
        </mxCell>
        <mxCell id="eXHiG-xwAYl2vfAZOKIz-4" value="Dataload" style="text;html=1;align=center;verticalAlign=middle;resizable=0;points=[];autosize=1;strokeColor=none;fillColor=none;" parent="1" vertex="1">
          <mxGeometry x="-615" y="90" width="70" height="30" as="geometry" />
        </mxCell>
        <mxCell id="eXHiG-xwAYl2vfAZOKIz-6" value="LRT" style="text;html=1;align=center;verticalAlign=middle;resizable=0;points=[];autosize=1;strokeColor=none;fillColor=none;" parent="1" vertex="1">
          <mxGeometry x="-605" y="160" width="50" height="30" as="geometry" />
        </mxCell>
        <mxCell id="eXHiG-xwAYl2vfAZOKIz-7" value="" style="image;html=1;image=img/lib/clip_art/computers/Virtual_Application_128x128.png" parent="1" vertex="1">
          <mxGeometry x="-535" y="150" width="50" height="50" as="geometry" />
        </mxCell>
        <mxCell id="eXHiG-xwAYl2vfAZOKIz-8" value="DMT" style="text;html=1;align=center;verticalAlign=middle;resizable=0;points=[];autosize=1;strokeColor=none;fillColor=none;" parent="1" vertex="1">
          <mxGeometry x="-605" y="230" width="50" height="30" as="geometry" />
        </mxCell>
        <mxCell id="eXHiG-xwAYl2vfAZOKIz-9" value="" style="image;html=1;image=img/lib/clip_art/computers/Virtual_Application_128x128.png" parent="1" vertex="1">
          <mxGeometry x="-535" y="220" width="50" height="50" as="geometry" />
        </mxCell>
        <mxCell id="eXHiG-xwAYl2vfAZOKIz-10" value="" style="aspect=fixed;sketch=0;html=1;dashed=0;whitespace=wrap;verticalLabelPosition=bottom;verticalAlign=top;fillColor=#2875E2;strokeColor=#ffffff;points=[[0.005,0.63,0],[0.1,0.2,0],[0.9,0.2,0],[0.5,0,0],[0.995,0.63,0],[0.72,0.99,0],[0.5,1,0],[0.28,0.99,0]];shape=mxgraph.kubernetes.icon2;prIcon=api" parent="1" vertex="1">
          <mxGeometry x="-22.5" y="240" width="52.08" height="50" as="geometry" />
        </mxCell>
        <mxCell id="eXHiG-xwAYl2vfAZOKIz-12" value="Internal clients" style="text;html=1;align=center;verticalAlign=middle;resizable=0;points=[];autosize=1;strokeColor=none;fillColor=none;" parent="1" vertex="1">
          <mxGeometry x="-770" y="170" width="100" height="30" as="geometry" />
        </mxCell>
        <mxCell id="eXHiG-xwAYl2vfAZOKIz-13" value="" style="image;aspect=fixed;perimeter=ellipsePerimeter;html=1;align=center;shadow=0;dashed=0;spacingTop=3;image=img/lib/active_directory/vista_client.svg;" parent="1" vertex="1">
          <mxGeometry x="-560" y="413.1" width="38" height="50" as="geometry" />
        </mxCell>
        <mxCell id="eXHiG-xwAYl2vfAZOKIz-14" value="External clients" style="text;html=1;align=center;verticalAlign=middle;resizable=0;points=[];autosize=1;strokeColor=none;fillColor=none;" parent="1" vertex="1">
          <mxGeometry x="-770" y="490.7" width="100" height="30" as="geometry" />
        </mxCell>
        <mxCell id="eXHiG-xwAYl2vfAZOKIz-17" value="Rest WebApp" style="text;html=1;align=center;verticalAlign=middle;resizable=0;points=[];autosize=1;strokeColor=#666666;fillColor=#f5f5f5;fontColor=#333333;" parent="1" vertex="1">
          <mxGeometry x="230" y="160" width="100" height="30" as="geometry" />
        </mxCell>
        <mxCell id="eXHiG-xwAYl2vfAZOKIz-18" value="" style="dashed=0;outlineConnect=0;html=1;align=center;labelPosition=center;verticalLabelPosition=bottom;verticalAlign=top;shape=mxgraph.webicons.oracle;fillColor=#FA3743;gradientColor=#E10E11" parent="1" vertex="1">
          <mxGeometry x="240" y="840" width="102.4" height="102.4" as="geometry" />
        </mxCell>
        <mxCell id="eXHiG-xwAYl2vfAZOKIz-19" value="Database" style="text;html=1;align=center;verticalAlign=middle;resizable=0;points=[];autosize=1;strokeColor=none;fillColor=none;" parent="1" vertex="1">
          <mxGeometry x="256.2" y="962.4" width="70" height="30" as="geometry" />
        </mxCell>
        <mxCell id="eXHiG-xwAYl2vfAZOKIz-21" value="" style="aspect=fixed;sketch=0;html=1;dashed=0;whitespace=wrap;verticalLabelPosition=bottom;verticalAlign=top;fillColor=#2875E2;strokeColor=#ffffff;points=[[0.005,0.63,0],[0.1,0.2,0],[0.9,0.2,0],[0.5,0,0],[0.995,0.63,0],[0.72,0.99,0],[0.5,1,0],[0.28,0.99,0]];shape=mxgraph.kubernetes.icon2;kubernetesLabel=1;prIcon=api" parent="1" vertex="1">
          <mxGeometry x="150" y="242" width="50" height="48" as="geometry" />
        </mxCell>
        <mxCell id="eXHiG-xwAYl2vfAZOKIz-23" value="" style="aspect=fixed;sketch=0;html=1;dashed=0;whitespace=wrap;verticalLabelPosition=bottom;verticalAlign=top;fillColor=#2875E2;strokeColor=#ffffff;points=[[0.005,0.63,0],[0.1,0.2,0],[0.9,0.2,0],[0.5,0,0],[0.995,0.63,0],[0.72,0.99,0],[0.5,1,0],[0.28,0.99,0]];shape=mxgraph.kubernetes.icon2;prIcon=api" parent="1" vertex="1">
          <mxGeometry x="-12.5" y="250" width="52.08" height="50" as="geometry" />
        </mxCell>
        <mxCell id="eXHiG-xwAYl2vfAZOKIz-24" value="" style="aspect=fixed;sketch=0;html=1;dashed=0;whitespace=wrap;verticalLabelPosition=bottom;verticalAlign=top;fillColor=#2875E2;strokeColor=#ffffff;points=[[0.005,0.63,0],[0.1,0.2,0],[0.9,0.2,0],[0.5,0,0],[0.995,0.63,0],[0.72,0.99,0],[0.5,1,0],[0.28,0.99,0]];shape=mxgraph.kubernetes.icon2;prIcon=api" parent="1" vertex="1">
          <mxGeometry x="-2.5" y="260" width="52.08" height="50" as="geometry" />
        </mxCell>
        <mxCell id="eXHiG-xwAYl2vfAZOKIz-25" value="Public endpoints" style="text;html=1;align=center;verticalAlign=middle;resizable=0;points=[];autosize=1;strokeColor=none;fillColor=none;" parent="1" vertex="1">
          <mxGeometry x="-31.460000000000008" y="320" width="110" height="30" as="geometry" />
        </mxCell>
        <mxCell id="eXHiG-xwAYl2vfAZOKIz-26" value="" style="aspect=fixed;sketch=0;html=1;dashed=0;whitespace=wrap;verticalLabelPosition=bottom;verticalAlign=top;fillColor=#2875E2;strokeColor=#ffffff;points=[[0.005,0.63,0],[0.1,0.2,0],[0.9,0.2,0],[0.5,0,0],[0.995,0.63,0],[0.72,0.99,0],[0.5,1,0],[0.28,0.99,0]];shape=mxgraph.kubernetes.icon2;kubernetesLabel=1;prIcon=api" parent="1" vertex="1">
          <mxGeometry x="160" y="252" width="50" height="48" as="geometry" />
        </mxCell>
        <mxCell id="eXHiG-xwAYl2vfAZOKIz-27" value="" style="aspect=fixed;sketch=0;html=1;dashed=0;whitespace=wrap;verticalLabelPosition=bottom;verticalAlign=top;fillColor=#2875E2;strokeColor=#ffffff;points=[[0.005,0.63,0],[0.1,0.2,0],[0.9,0.2,0],[0.5,0,0],[0.995,0.63,0],[0.72,0.99,0],[0.5,1,0],[0.28,0.99,0]];shape=mxgraph.kubernetes.icon2;kubernetesLabel=1;prIcon=api" parent="1" vertex="1">
          <mxGeometry x="170" y="262" width="50" height="48" as="geometry" />
        </mxCell>
        <mxCell id="eXHiG-xwAYl2vfAZOKIz-29" value="Internal endpoints" style="text;html=1;align=center;verticalAlign=middle;resizable=0;points=[];autosize=1;strokeColor=none;fillColor=none;" parent="1" vertex="1">
          <mxGeometry x="140" y="320" width="120" height="30" as="geometry" />
        </mxCell>
        <mxCell id="eXHiG-xwAYl2vfAZOKIz-45" style="edgeStyle=orthogonalEdgeStyle;rounded=0;orthogonalLoop=1;jettySize=auto;html=1;" parent="1" source="eXHiG-xwAYl2vfAZOKIz-31" target="eXHiG-xwAYl2vfAZOKIz-18" edge="1">
          <mxGeometry relative="1" as="geometry">
            <Array as="points">
              <mxPoint x="682" y="700" />
              <mxPoint x="291" y="700" />
            </Array>
          </mxGeometry>
        </mxCell>
        <mxCell id="eXHiG-xwAYl2vfAZOKIz-31" value="" style="image;aspect=fixed;html=1;points=[];align=center;fontSize=12;image=img/lib/azure2/storage/Import_Export_Jobs.svg;" parent="1" vertex="1">
          <mxGeometry x="650" y="320" width="64" height="67" as="geometry" />
        </mxCell>
        <mxCell id="eXHiG-xwAYl2vfAZOKIz-32" value="Import engine" style="text;html=1;align=center;verticalAlign=middle;resizable=0;points=[];autosize=1;strokeColor=none;fillColor=none;" parent="1" vertex="1">
          <mxGeometry x="740" y="338.5" width="100" height="30" as="geometry" />
        </mxCell>
        <mxCell id="eXHiG-xwAYl2vfAZOKIz-34" value="" style="image;aspect=fixed;perimeter=ellipsePerimeter;html=1;align=center;shadow=0;dashed=0;spacingTop=3;image=img/lib/active_directory/vista_client.svg;" parent="1" vertex="1">
          <mxGeometry x="-560" y="480.70000000000005" width="38" height="50" as="geometry" />
        </mxCell>
        <mxCell id="eXHiG-xwAYl2vfAZOKIz-35" value="" style="image;aspect=fixed;perimeter=ellipsePerimeter;html=1;align=center;shadow=0;dashed=0;spacingTop=3;image=img/lib/active_directory/vista_client.svg;" parent="1" vertex="1">
          <mxGeometry x="-556.5" y="556.9" width="38" height="50" as="geometry" />
        </mxCell>
        <mxCell id="eXHiG-xwAYl2vfAZOKIz-41" value="" style="shape=flexArrow;endArrow=classic;startArrow=classic;html=1;rounded=0;" parent="1" edge="1">
          <mxGeometry width="100" height="100" relative="1" as="geometry">
            <mxPoint x="-400" y="200" as="sourcePoint" />
            <mxPoint x="-132" y="270" as="targetPoint" />
          </mxGeometry>
        </mxCell>
        <mxCell id="eXHiG-xwAYl2vfAZOKIz-42" value="Bulk mode" style="text;html=1;align=center;verticalAlign=middle;resizable=0;points=[];autosize=1;strokeColor=#82b366;fillColor=#d5e8d4;" parent="1" vertex="1">
          <mxGeometry x="-280" y="190" width="80" height="30" as="geometry" />
        </mxCell>
        <mxCell id="eXHiG-xwAYl2vfAZOKIz-43" value="" style="shape=flexArrow;endArrow=classic;startArrow=classic;html=1;rounded=0;" parent="1" edge="1">
          <mxGeometry width="100" height="100" relative="1" as="geometry">
            <mxPoint x="-400" y="486.9" as="sourcePoint" />
            <mxPoint x="-120" y="410" as="targetPoint" />
          </mxGeometry>
        </mxCell>
        <mxCell id="eXHiG-xwAYl2vfAZOKIz-44" value="" style="shape=flexArrow;endArrow=classic;startArrow=classic;html=1;rounded=0;" parent="1" edge="1">
          <mxGeometry width="100" height="100" relative="1" as="geometry">
            <mxPoint x="440" y="349" as="sourcePoint" />
            <mxPoint x="590" y="349" as="targetPoint" />
          </mxGeometry>
        </mxCell>
        <mxCell id="eXHiG-xwAYl2vfAZOKIz-47" value="" style="rounded=0;whiteSpace=wrap;html=1;" parent="1" vertex="1">
          <mxGeometry x="-630" y="1540" width="215" height="300" as="geometry" />
        </mxCell>
        <mxCell id="eXHiG-xwAYl2vfAZOKIz-48" style="edgeStyle=orthogonalEdgeStyle;rounded=0;orthogonalLoop=1;jettySize=auto;html=1;exitX=0.5;exitY=1;exitDx=0;exitDy=0;" parent="1" source="eXHiG-xwAYl2vfAZOKIz-49" target="eXHiG-xwAYl2vfAZOKIz-62" edge="1">
          <mxGeometry relative="1" as="geometry">
            <Array as="points">
              <mxPoint x="139" y="1880" />
              <mxPoint x="301" y="1880" />
            </Array>
          </mxGeometry>
        </mxCell>
        <mxCell id="eXHiG-xwAYl2vfAZOKIz-49" value="" style="rounded=0;whiteSpace=wrap;html=1;" parent="1" vertex="1">
          <mxGeometry x="-20" y="1600" width="360" height="150" as="geometry" />
        </mxCell>
        <mxCell id="eXHiG-xwAYl2vfAZOKIz-50" value="" style="rounded=0;whiteSpace=wrap;html=1;" parent="1" vertex="1">
          <mxGeometry x="-630" y="1200" width="215" height="300" as="geometry" />
        </mxCell>
        <mxCell id="eXHiG-xwAYl2vfAZOKIz-51" value="" style="image;html=1;image=img/lib/clip_art/computers/Virtual_Application_128x128.png" parent="1" vertex="1">
          <mxGeometry x="-525" y="1260" width="50" height="50" as="geometry" />
        </mxCell>
        <mxCell id="eXHiG-xwAYl2vfAZOKIz-52" value="Dataload" style="text;html=1;align=center;verticalAlign=middle;resizable=0;points=[];autosize=1;strokeColor=none;fillColor=none;" parent="1" vertex="1">
          <mxGeometry x="-605" y="1270" width="70" height="30" as="geometry" />
        </mxCell>
        <mxCell id="eXHiG-xwAYl2vfAZOKIz-53" value="LRT" style="text;html=1;align=center;verticalAlign=middle;resizable=0;points=[];autosize=1;strokeColor=none;fillColor=none;" parent="1" vertex="1">
          <mxGeometry x="-595" y="1340" width="50" height="30" as="geometry" />
        </mxCell>
        <mxCell id="eXHiG-xwAYl2vfAZOKIz-54" value="" style="image;html=1;image=img/lib/clip_art/computers/Virtual_Application_128x128.png" parent="1" vertex="1">
          <mxGeometry x="-525" y="1330" width="50" height="50" as="geometry" />
        </mxCell>
        <mxCell id="eXHiG-xwAYl2vfAZOKIz-55" value="DMT" style="text;html=1;align=center;verticalAlign=middle;resizable=0;points=[];autosize=1;strokeColor=none;fillColor=none;" parent="1" vertex="1">
          <mxGeometry x="-595" y="1410" width="50" height="30" as="geometry" />
        </mxCell>
        <mxCell id="eXHiG-xwAYl2vfAZOKIz-56" value="" style="image;html=1;image=img/lib/clip_art/computers/Virtual_Application_128x128.png" parent="1" vertex="1">
          <mxGeometry x="-525" y="1400" width="50" height="50" as="geometry" />
        </mxCell>
        <mxCell id="eXHiG-xwAYl2vfAZOKIz-57" value="" style="aspect=fixed;sketch=0;html=1;dashed=0;whitespace=wrap;verticalLabelPosition=bottom;verticalAlign=top;fillColor=#2875E2;strokeColor=#ffffff;points=[[0.005,0.63,0],[0.1,0.2,0],[0.9,0.2,0],[0.5,0,0],[0.995,0.63,0],[0.72,0.99,0],[0.5,1,0],[0.28,0.99,0]];shape=mxgraph.kubernetes.icon2;prIcon=api" parent="1" vertex="1">
          <mxGeometry x="98.96" y="1626.9" width="52.08" height="50" as="geometry" />
        </mxCell>
        <mxCell id="eXHiG-xwAYl2vfAZOKIz-58" value="Internal clients" style="text;html=1;align=center;verticalAlign=middle;resizable=0;points=[];autosize=1;strokeColor=none;fillColor=none;" parent="1" vertex="1">
          <mxGeometry x="-760" y="1350" width="100" height="30" as="geometry" />
        </mxCell>
        <mxCell id="eXHiG-xwAYl2vfAZOKIz-59" value="" style="image;aspect=fixed;perimeter=ellipsePerimeter;html=1;align=center;shadow=0;dashed=0;spacingTop=3;image=img/lib/active_directory/vista_client.svg;" parent="1" vertex="1">
          <mxGeometry x="-550" y="1593.1" width="38" height="50" as="geometry" />
        </mxCell>
        <mxCell id="eXHiG-xwAYl2vfAZOKIz-60" value="External clients" style="text;html=1;align=center;verticalAlign=middle;resizable=0;points=[];autosize=1;strokeColor=none;fillColor=none;" parent="1" vertex="1">
          <mxGeometry x="-760" y="1670.7" width="100" height="30" as="geometry" />
        </mxCell>
        <mxCell id="eXHiG-xwAYl2vfAZOKIz-61" value="Public Rest WebApp" style="text;html=1;align=center;verticalAlign=middle;resizable=0;points=[];autosize=1;strokeColor=#666666;fillColor=#f5f5f5;fontColor=#333333;" parent="1" vertex="1">
          <mxGeometry x="210" y="1600" width="130" height="30" as="geometry" />
        </mxCell>
        <mxCell id="eXHiG-xwAYl2vfAZOKIz-62" value="" style="dashed=0;outlineConnect=0;html=1;align=center;labelPosition=center;verticalLabelPosition=bottom;verticalAlign=top;shape=mxgraph.webicons.oracle;fillColor=#FA3743;gradientColor=#E10E11" parent="1" vertex="1">
          <mxGeometry x="250" y="2020" width="102.4" height="102.4" as="geometry" />
        </mxCell>
        <mxCell id="eXHiG-xwAYl2vfAZOKIz-63" value="Database" style="text;html=1;align=center;verticalAlign=middle;resizable=0;points=[];autosize=1;strokeColor=none;fillColor=none;" parent="1" vertex="1">
          <mxGeometry x="266.2" y="2142.4" width="70" height="30" as="geometry" />
        </mxCell>
        <mxCell id="eXHiG-xwAYl2vfAZOKIz-64" value="" style="aspect=fixed;sketch=0;html=1;dashed=0;whitespace=wrap;verticalLabelPosition=bottom;verticalAlign=top;fillColor=#2875E2;strokeColor=#ffffff;points=[[0.005,0.63,0],[0.1,0.2,0],[0.9,0.2,0],[0.5,0,0],[0.995,0.63,0],[0.72,0.99,0],[0.5,1,0],[0.28,0.99,0]];shape=mxgraph.kubernetes.icon2;kubernetesLabel=1;prIcon=api" parent="1" vertex="1">
          <mxGeometry x="95" y="1342" width="50" height="48" as="geometry" />
        </mxCell>
        <mxCell id="eXHiG-xwAYl2vfAZOKIz-65" value="" style="aspect=fixed;sketch=0;html=1;dashed=0;whitespace=wrap;verticalLabelPosition=bottom;verticalAlign=top;fillColor=#2875E2;strokeColor=#ffffff;points=[[0.005,0.63,0],[0.1,0.2,0],[0.9,0.2,0],[0.5,0,0],[0.995,0.63,0],[0.72,0.99,0],[0.5,1,0],[0.28,0.99,0]];shape=mxgraph.kubernetes.icon2;prIcon=api" parent="1" vertex="1">
          <mxGeometry x="108.96" y="1636.9" width="52.08" height="50" as="geometry" />
        </mxCell>
        <mxCell id="eXHiG-xwAYl2vfAZOKIz-66" value="" style="aspect=fixed;sketch=0;html=1;dashed=0;whitespace=wrap;verticalLabelPosition=bottom;verticalAlign=top;fillColor=#2875E2;strokeColor=#ffffff;points=[[0.005,0.63,0],[0.1,0.2,0],[0.9,0.2,0],[0.5,0,0],[0.995,0.63,0],[0.72,0.99,0],[0.5,1,0],[0.28,0.99,0]];shape=mxgraph.kubernetes.icon2;prIcon=api" parent="1" vertex="1">
          <mxGeometry x="118.96" y="1646.9" width="52.08" height="50" as="geometry" />
        </mxCell>
        <mxCell id="eXHiG-xwAYl2vfAZOKIz-67" value="Public endpoints" style="text;html=1;align=center;verticalAlign=middle;resizable=0;points=[];autosize=1;strokeColor=none;fillColor=none;" parent="1" vertex="1">
          <mxGeometry x="89.99999999999999" y="1706.9" width="110" height="30" as="geometry" />
        </mxCell>
        <mxCell id="eXHiG-xwAYl2vfAZOKIz-68" value="" style="aspect=fixed;sketch=0;html=1;dashed=0;whitespace=wrap;verticalLabelPosition=bottom;verticalAlign=top;fillColor=#2875E2;strokeColor=#ffffff;points=[[0.005,0.63,0],[0.1,0.2,0],[0.9,0.2,0],[0.5,0,0],[0.995,0.63,0],[0.72,0.99,0],[0.5,1,0],[0.28,0.99,0]];shape=mxgraph.kubernetes.icon2;kubernetesLabel=1;prIcon=api" parent="1" vertex="1">
          <mxGeometry x="105" y="1352" width="50" height="48" as="geometry" />
        </mxCell>
        <mxCell id="eXHiG-xwAYl2vfAZOKIz-69" value="" style="aspect=fixed;sketch=0;html=1;dashed=0;whitespace=wrap;verticalLabelPosition=bottom;verticalAlign=top;fillColor=#2875E2;strokeColor=#ffffff;points=[[0.005,0.63,0],[0.1,0.2,0],[0.9,0.2,0],[0.5,0,0],[0.995,0.63,0],[0.72,0.99,0],[0.5,1,0],[0.28,0.99,0]];shape=mxgraph.kubernetes.icon2;kubernetesLabel=1;prIcon=api" parent="1" vertex="1">
          <mxGeometry x="115" y="1362" width="50" height="48" as="geometry" />
        </mxCell>
        <mxCell id="eXHiG-xwAYl2vfAZOKIz-70" value="Internal endpoints" style="text;html=1;align=center;verticalAlign=middle;resizable=0;points=[];autosize=1;strokeColor=none;fillColor=none;" parent="1" vertex="1">
          <mxGeometry x="85" y="1420" width="120" height="30" as="geometry" />
        </mxCell>
        <mxCell id="eXHiG-xwAYl2vfAZOKIz-71" style="edgeStyle=orthogonalEdgeStyle;rounded=0;orthogonalLoop=1;jettySize=auto;html=1;" parent="1" source="eXHiG-xwAYl2vfAZOKIz-72" target="eXHiG-xwAYl2vfAZOKIz-62" edge="1">
          <mxGeometry relative="1" as="geometry">
            <Array as="points">
              <mxPoint x="692" y="1880" />
              <mxPoint x="301" y="1880" />
            </Array>
          </mxGeometry>
        </mxCell>
        <mxCell id="eXHiG-xwAYl2vfAZOKIz-72" value="" style="image;aspect=fixed;html=1;points=[];align=center;fontSize=12;image=img/lib/azure2/storage/Import_Export_Jobs.svg;" parent="1" vertex="1">
          <mxGeometry x="660" y="1500" width="64" height="67" as="geometry" />
        </mxCell>
        <mxCell id="eXHiG-xwAYl2vfAZOKIz-73" value="Import engine" style="text;html=1;align=center;verticalAlign=middle;resizable=0;points=[];autosize=1;strokeColor=none;fillColor=none;" parent="1" vertex="1">
          <mxGeometry x="750" y="1518.5" width="100" height="30" as="geometry" />
        </mxCell>
        <mxCell id="eXHiG-xwAYl2vfAZOKIz-74" value="" style="image;aspect=fixed;perimeter=ellipsePerimeter;html=1;align=center;shadow=0;dashed=0;spacingTop=3;image=img/lib/active_directory/vista_client.svg;" parent="1" vertex="1">
          <mxGeometry x="-550" y="1660.7" width="38" height="50" as="geometry" />
        </mxCell>
        <mxCell id="eXHiG-xwAYl2vfAZOKIz-75" value="" style="image;aspect=fixed;perimeter=ellipsePerimeter;html=1;align=center;shadow=0;dashed=0;spacingTop=3;image=img/lib/active_directory/vista_client.svg;" parent="1" vertex="1">
          <mxGeometry x="-546.5" y="1736.9" width="38" height="50" as="geometry" />
        </mxCell>
        <mxCell id="eXHiG-xwAYl2vfAZOKIz-76" value="" style="shape=flexArrow;endArrow=classic;startArrow=classic;html=1;rounded=0;" parent="1" edge="1">
          <mxGeometry width="100" height="100" relative="1" as="geometry">
            <mxPoint x="-365" y="1380" as="sourcePoint" />
            <mxPoint x="-75" y="1380" as="targetPoint" />
          </mxGeometry>
        </mxCell>
        <mxCell id="eXHiG-xwAYl2vfAZOKIz-77" value="Bulk mode" style="text;html=1;align=center;verticalAlign=middle;resizable=0;points=[];autosize=1;strokeColor=#82b366;fillColor=#d5e8d4;" parent="1" vertex="1">
          <mxGeometry x="-250" y="1335" width="80" height="30" as="geometry" />
        </mxCell>
        <mxCell id="eXHiG-xwAYl2vfAZOKIz-78" value="" style="shape=flexArrow;endArrow=classic;startArrow=classic;html=1;rounded=0;" parent="1" edge="1">
          <mxGeometry width="100" height="100" relative="1" as="geometry">
            <mxPoint x="-362" y="1676.9" as="sourcePoint" />
            <mxPoint x="-72" y="1680" as="targetPoint" />
          </mxGeometry>
        </mxCell>
        <mxCell id="eXHiG-xwAYl2vfAZOKIz-79" value="" style="shape=flexArrow;endArrow=classic;startArrow=classic;html=1;rounded=0;" parent="1" edge="1">
          <mxGeometry width="100" height="100" relative="1" as="geometry">
            <mxPoint x="420" y="1533" as="sourcePoint" />
            <mxPoint x="570" y="1533" as="targetPoint" />
          </mxGeometry>
        </mxCell>
        <mxCell id="eXHiG-xwAYl2vfAZOKIz-82" value="Internal Rest WebApp" style="text;html=1;align=center;verticalAlign=middle;resizable=0;points=[];autosize=1;strokeColor=#666666;fillColor=#f5f5f5;fontColor=#333333;" parent="1" vertex="1">
          <mxGeometry x="190" y="1320" width="140" height="30" as="geometry" />
        </mxCell>
        <mxCell id="eXHiG-xwAYl2vfAZOKIz-86" value="Enable bulk mode in session" style="text;html=1;align=center;verticalAlign=middle;resizable=0;points=[];autosize=1;strokeColor=#d79b00;fillColor=#ffe6cc;" parent="1" vertex="1">
          <mxGeometry x="24.269999999999982" y="383.1" width="180" height="30" as="geometry" />
        </mxCell>
        <mxCell id="eXHiG-xwAYl2vfAZOKIz-88" value="Bulk mode" style="text;html=1;align=center;verticalAlign=middle;resizable=0;points=[];autosize=1;strokeColor=#666666;fillColor=#f5f5f5;fontColor=#333333;" parent="1" vertex="1">
          <mxGeometry x="160" y="-1155" width="80" height="30" as="geometry" />
        </mxCell>
        <mxCell id="eXHiG-xwAYl2vfAZOKIz-89" value="" style="shape=cylinder3;whiteSpace=wrap;html=1;boundedLbl=1;backgroundOutline=1;size=15;rotation=90;" parent="1" vertex="1">
          <mxGeometry x="59.03999999999999" y="-1093.5" width="60" height="140" as="geometry" />
        </mxCell>
        <mxCell id="eXHiG-xwAYl2vfAZOKIz-90" value="Global transaction queue" style="text;html=1;align=center;verticalAlign=middle;resizable=0;points=[];autosize=1;strokeColor=none;fillColor=none;" parent="1" vertex="1">
          <mxGeometry x="11.040000000000006" y="-983.5" width="160" height="30" as="geometry" />
        </mxCell>
        <mxCell id="eXHiG-xwAYl2vfAZOKIz-91" value="" style="shape=cylinder3;whiteSpace=wrap;html=1;boundedLbl=1;backgroundOutline=1;size=15;rotation=90;" parent="1" vertex="1">
          <mxGeometry x="58" y="-936.5" width="60" height="140" as="geometry" />
        </mxCell>
        <mxCell id="eXHiG-xwAYl2vfAZOKIz-92" value="Bulk mode transaction queue" style="text;html=1;align=center;verticalAlign=middle;resizable=0;points=[];autosize=1;strokeColor=none;fillColor=none;" parent="1" vertex="1">
          <mxGeometry x="20" y="-826.5" width="180" height="30" as="geometry" />
        </mxCell>
        <mxCell id="eXHiG-xwAYl2vfAZOKIz-96" value="" style="sketch=0;pointerEvents=1;shadow=0;dashed=0;html=1;strokeColor=none;fillColor=#505050;labelPosition=center;verticalLabelPosition=bottom;outlineConnect=0;verticalAlign=top;align=center;shape=mxgraph.office.clouds.cloud_service_request;" parent="1" vertex="1">
          <mxGeometry x="-1078.96" y="-891.5" width="70" height="50" as="geometry" />
        </mxCell>
        <mxCell id="eXHiG-xwAYl2vfAZOKIz-97" value="Requests from Dataload/ LRT/ DMT" style="text;html=1;align=center;verticalAlign=middle;resizable=0;points=[];autosize=1;strokeColor=none;fillColor=none;" parent="1" vertex="1">
          <mxGeometry x="-1138.96" y="-826.5" width="210" height="30" as="geometry" />
        </mxCell>
        <mxCell id="eXHiG-xwAYl2vfAZOKIz-103" style="edgeStyle=orthogonalEdgeStyle;rounded=0;orthogonalLoop=1;jettySize=auto;html=1;exitX=0.995;exitY=0.63;exitDx=0;exitDy=0;exitPerimeter=0;" parent="1" source="eXHiG-xwAYl2vfAZOKIz-98" target="eXHiG-xwAYl2vfAZOKIz-91" edge="1">
          <mxGeometry relative="1" as="geometry">
            <mxPoint x="-238.96" y="-883.5" as="targetPoint" />
          </mxGeometry>
        </mxCell>
        <mxCell id="eXHiG-xwAYl2vfAZOKIz-98" value="" style="aspect=fixed;sketch=0;html=1;dashed=0;whitespace=wrap;verticalLabelPosition=bottom;verticalAlign=top;fillColor=#2875E2;strokeColor=#ffffff;points=[[0.005,0.63,0],[0.1,0.2,0],[0.9,0.2,0],[0.5,0,0],[0.995,0.63,0],[0.72,0.99,0],[0.5,1,0],[0.28,0.99,0]];shape=mxgraph.kubernetes.icon2;prIcon=api" parent="1" vertex="1">
          <mxGeometry x="-598.96" y="-896.5" width="50" height="48" as="geometry" />
        </mxCell>
        <mxCell id="eXHiG-xwAYl2vfAZOKIz-99" style="edgeStyle=orthogonalEdgeStyle;rounded=0;orthogonalLoop=1;jettySize=auto;html=1;entryX=0.005;entryY=0.63;entryDx=0;entryDy=0;entryPerimeter=0;" parent="1" source="eXHiG-xwAYl2vfAZOKIz-96" target="eXHiG-xwAYl2vfAZOKIz-98" edge="1">
          <mxGeometry relative="1" as="geometry" />
        </mxCell>
        <mxCell id="eXHiG-xwAYl2vfAZOKIz-100" value="Rest API" style="text;html=1;align=center;verticalAlign=middle;resizable=0;points=[];autosize=1;strokeColor=none;fillColor=none;" parent="1" vertex="1">
          <mxGeometry x="-608.96" y="-841.5" width="70" height="30" as="geometry" />
        </mxCell>
        <mxCell id="eXHiG-xwAYl2vfAZOKIz-102" value="bulk mode = true" style="text;html=1;align=center;verticalAlign=middle;resizable=0;points=[];autosize=1;strokeColor=none;fillColor=none;" parent="1" vertex="1">
          <mxGeometry x="-863.96" y="-896.5" width="110" height="30" as="geometry" />
        </mxCell>
        <mxCell id="eXHiG-xwAYl2vfAZOKIz-106" value="" style="sketch=0;pointerEvents=1;shadow=0;dashed=0;html=1;strokeColor=none;fillColor=#505050;labelPosition=center;verticalLabelPosition=bottom;outlineConnect=0;verticalAlign=top;align=center;shape=mxgraph.office.clouds.cloud_service_request;" parent="1" vertex="1">
          <mxGeometry x="-1078.96" y="-1048.5" width="70" height="50" as="geometry" />
        </mxCell>
        <mxCell id="eXHiG-xwAYl2vfAZOKIz-107" value="Request from customer" style="text;html=1;align=center;verticalAlign=middle;resizable=0;points=[];autosize=1;strokeColor=none;fillColor=none;" parent="1" vertex="1">
          <mxGeometry x="-1123.96" y="-990.5" width="150" height="30" as="geometry" />
        </mxCell>
        <mxCell id="eXHiG-xwAYl2vfAZOKIz-108" style="edgeStyle=orthogonalEdgeStyle;rounded=0;orthogonalLoop=1;jettySize=auto;html=1;exitX=0.995;exitY=0.63;exitDx=0;exitDy=0;exitPerimeter=0;" parent="1" source="eXHiG-xwAYl2vfAZOKIz-109" edge="1">
          <mxGeometry relative="1" as="geometry">
            <mxPoint x="18.00000000000003" y="-1023.5" as="targetPoint" />
          </mxGeometry>
        </mxCell>
        <mxCell id="eXHiG-xwAYl2vfAZOKIz-109" value="" style="aspect=fixed;sketch=0;html=1;dashed=0;whitespace=wrap;verticalLabelPosition=bottom;verticalAlign=top;fillColor=#2875E2;strokeColor=#ffffff;points=[[0.005,0.63,0],[0.1,0.2,0],[0.9,0.2,0],[0.5,0,0],[0.995,0.63,0],[0.72,0.99,0],[0.5,1,0],[0.28,0.99,0]];shape=mxgraph.kubernetes.icon2;prIcon=api" parent="1" vertex="1">
          <mxGeometry x="-598.96" y="-1053.5" width="50" height="48" as="geometry" />
        </mxCell>
        <mxCell id="eXHiG-xwAYl2vfAZOKIz-110" style="edgeStyle=orthogonalEdgeStyle;rounded=0;orthogonalLoop=1;jettySize=auto;html=1;entryX=0.005;entryY=0.63;entryDx=0;entryDy=0;entryPerimeter=0;" parent="1" source="eXHiG-xwAYl2vfAZOKIz-106" target="eXHiG-xwAYl2vfAZOKIz-109" edge="1">
          <mxGeometry relative="1" as="geometry" />
        </mxCell>
        <mxCell id="eXHiG-xwAYl2vfAZOKIz-111" value="Rest API" style="text;html=1;align=center;verticalAlign=middle;resizable=0;points=[];autosize=1;strokeColor=none;fillColor=none;" parent="1" vertex="1">
          <mxGeometry x="-608.96" y="-998.5" width="70" height="30" as="geometry" />
        </mxCell>
        <mxCell id="eXHiG-xwAYl2vfAZOKIz-112" value="bulk mode = false" style="text;html=1;align=center;verticalAlign=middle;resizable=0;points=[];autosize=1;strokeColor=none;fillColor=none;" parent="1" vertex="1">
          <mxGeometry x="-868.96" y="-1053.5" width="120" height="30" as="geometry" />
        </mxCell>
        <mxCell id="eXHiG-xwAYl2vfAZOKIz-114" value="Database" style="text;html=1;align=center;verticalAlign=middle;resizable=0;points=[];autosize=1;strokeColor=#6c8ebf;fillColor=#dae8fc;" parent="1" vertex="1">
          <mxGeometry x="11.039999999999985" y="-734" width="70" height="30" as="geometry" />
        </mxCell>
        <mxCell id="eXHiG-xwAYl2vfAZOKIz-117" value="Rest WebApp" style="text;html=1;align=center;verticalAlign=middle;resizable=0;points=[];autosize=1;strokeColor=#6c8ebf;fillColor=#dae8fc;" parent="1" vertex="1">
          <mxGeometry x="-625" y="-734" width="100" height="30" as="geometry" />
        </mxCell>
        <mxCell id="eXHiG-xwAYl2vfAZOKIz-118" value="Open bulk mode in session" style="text;html=1;align=center;verticalAlign=middle;resizable=0;points=[];autosize=1;strokeColor=#d79b00;fillColor=#ffe6cc;" parent="1" vertex="1">
          <mxGeometry x="-563.96" y="-913.5" width="170" height="30" as="geometry" />
        </mxCell>
        <mxCell id="eXHiG-xwAYl2vfAZOKIz-120" value="Current System Architecture" style="text;html=1;align=center;verticalAlign=middle;resizable=0;points=[];autosize=1;strokeColor=#666666;fillColor=#f5f5f5;fontColor=#333333;" parent="1" vertex="1">
          <mxGeometry x="699.04" y="-120" width="170" height="30" as="geometry" />
        </mxCell>
        <mxCell id="eXHiG-xwAYl2vfAZOKIz-121" value="New System Architecture" style="text;html=1;align=center;verticalAlign=middle;resizable=0;points=[];autosize=1;strokeColor=#666666;fillColor=#f5f5f5;fontColor=#333333;" parent="1" vertex="1">
          <mxGeometry x="699.04" y="1150" width="160" height="30" as="geometry" />
        </mxCell>
        <mxCell id="eXHiG-xwAYl2vfAZOKIz-123" value="Pros:&lt;div&gt;1. Isolate requests from customers (External) and solution architects(Internal), customers&#39; requests would&amp;nbsp;&lt;br&gt;not be impacted by solution architects&#39; large number implementation data&lt;/div&gt;&lt;div&gt;2. Do not need to add bulk mode logic for all the public apis&lt;/div&gt;&lt;div&gt;3. Decouple internal apis from public apis&lt;br&gt;4. Internal apis are only used to implement customer data, we can skip some unnecessary check like acs check.&lt;/div&gt;&lt;div&gt;5. We can have more flexibility to deploy the internal api service&lt;/div&gt;" style="text;html=1;align=left;verticalAlign=middle;resizable=0;points=[];autosize=1;strokeColor=#82b366;fillColor=#d5e8d4;" parent="1" vertex="1">
          <mxGeometry x="-1481.5" y="1720" width="620" height="110" as="geometry" />
        </mxCell>
        <mxCell id="eXHiG-xwAYl2vfAZOKIz-124" value="Decouple internal api" style="text;html=1;align=center;verticalAlign=middle;resizable=0;points=[];autosize=1;strokeColor=#666666;fillColor=#f5f5f5;fontColor=#333333;" parent="1" vertex="1">
          <mxGeometry x="1580" y="-689" width="140" height="30" as="geometry" />
        </mxCell>
        <mxCell id="eXHiG-xwAYl2vfAZOKIz-125" value="" style="rounded=0;whiteSpace=wrap;html=1;" parent="1" vertex="1">
          <mxGeometry x="1100" y="-1006" width="350" height="150.5" as="geometry" />
        </mxCell>
        <mxCell id="eXHiG-xwAYl2vfAZOKIz-129" value="" style="shape=image;html=1;verticalAlign=top;verticalLabelPosition=bottom;labelBackgroundColor=#ffffff;imageAspect=0;aspect=fixed;image=https://cdn1.iconfinder.com/data/icons/hawcons/32/700036-icon-78-document-file-java-128.png" parent="1" vertex="1">
          <mxGeometry x="1190" y="-973" width="63" height="63" as="geometry" />
        </mxCell>
        <mxCell id="eXHiG-xwAYl2vfAZOKIz-130" value="Pulic" style="text;html=1;align=center;verticalAlign=middle;resizable=0;points=[];autosize=1;strokeColor=none;fillColor=none;" parent="1" vertex="1">
          <mxGeometry x="1190" y="-910" width="50" height="30" as="geometry" />
        </mxCell>
        <mxCell id="eXHiG-xwAYl2vfAZOKIz-131" value="" style="shape=image;html=1;verticalAlign=top;verticalLabelPosition=bottom;labelBackgroundColor=#ffffff;imageAspect=0;aspect=fixed;image=https://cdn1.iconfinder.com/data/icons/hawcons/32/700036-icon-78-document-file-java-128.png" parent="1" vertex="1">
          <mxGeometry x="1320" y="-973" width="63" height="63" as="geometry" />
        </mxCell>
        <mxCell id="eXHiG-xwAYl2vfAZOKIz-132" value="Internal" style="text;html=1;align=center;verticalAlign=middle;resizable=0;points=[];autosize=1;strokeColor=none;fillColor=none;" parent="1" vertex="1">
          <mxGeometry x="1321.5" y="-910" width="60" height="30" as="geometry" />
        </mxCell>
        <mxCell id="eXHiG-xwAYl2vfAZOKIz-134" value="Service" style="text;html=1;align=center;verticalAlign=middle;resizable=0;points=[];autosize=1;strokeColor=#6c8ebf;fillColor=#dae8fc;" parent="1" vertex="1">
          <mxGeometry x="1070" y="-940" width="60" height="30" as="geometry" />
        </mxCell>
        <mxCell id="eXHiG-xwAYl2vfAZOKIz-136" value="" style="rounded=0;whiteSpace=wrap;html=1;" parent="1" vertex="1">
          <mxGeometry x="1100" y="-514" width="360" height="143" as="geometry" />
        </mxCell>
        <mxCell id="eXHiG-xwAYl2vfAZOKIz-137" value="" style="shape=image;html=1;verticalAlign=top;verticalLabelPosition=bottom;labelBackgroundColor=#ffffff;imageAspect=0;aspect=fixed;image=https://cdn1.iconfinder.com/data/icons/hawcons/32/700036-icon-78-document-file-java-128.png" parent="1" vertex="1">
          <mxGeometry x="1190" y="-481" width="63" height="63" as="geometry" />
        </mxCell>
        <mxCell id="eXHiG-xwAYl2vfAZOKIz-138" value="Pulic" style="text;html=1;align=center;verticalAlign=middle;resizable=0;points=[];autosize=1;strokeColor=none;fillColor=none;" parent="1" vertex="1">
          <mxGeometry x="1190" y="-418" width="50" height="30" as="geometry" />
        </mxCell>
        <mxCell id="eXHiG-xwAYl2vfAZOKIz-139" value="" style="shape=image;html=1;verticalAlign=top;verticalLabelPosition=bottom;labelBackgroundColor=#ffffff;imageAspect=0;aspect=fixed;image=https://cdn1.iconfinder.com/data/icons/hawcons/32/700036-icon-78-document-file-java-128.png" parent="1" vertex="1">
          <mxGeometry x="1320" y="-481" width="63" height="63" as="geometry" />
        </mxCell>
        <mxCell id="eXHiG-xwAYl2vfAZOKIz-140" value="Internal" style="text;html=1;align=center;verticalAlign=middle;resizable=0;points=[];autosize=1;strokeColor=none;fillColor=none;" parent="1" vertex="1">
          <mxGeometry x="1321.5" y="-418" width="60" height="30" as="geometry" />
        </mxCell>
        <mxCell id="eXHiG-xwAYl2vfAZOKIz-141" value="Controller" style="text;html=1;align=center;verticalAlign=middle;resizable=0;points=[];autosize=1;strokeColor=#6c8ebf;fillColor=#dae8fc;" parent="1" vertex="1">
          <mxGeometry x="1060" y="-448" width="80" height="30" as="geometry" />
        </mxCell>
        <mxCell id="eXHiG-xwAYl2vfAZOKIz-142" value="rest webapp" style="text;html=1;align=center;verticalAlign=middle;resizable=0;points=[];autosize=1;strokeColor=#666666;fillColor=#f5f5f5;fontColor=#333333;" parent="1" vertex="1">
          <mxGeometry x="1380" y="-554" width="90" height="30" as="geometry" />
        </mxCell>
        <mxCell id="eXHiG-xwAYl2vfAZOKIz-143" value="" style="rounded=0;whiteSpace=wrap;html=1;" parent="1" vertex="1">
          <mxGeometry x="1100" y="-324" width="360" height="143" as="geometry" />
        </mxCell>
        <mxCell id="eXHiG-xwAYl2vfAZOKIz-144" value="" style="shape=image;html=1;verticalAlign=top;verticalLabelPosition=bottom;labelBackgroundColor=#ffffff;imageAspect=0;aspect=fixed;image=https://cdn1.iconfinder.com/data/icons/hawcons/32/700036-icon-78-document-file-java-128.png" parent="1" vertex="1">
          <mxGeometry x="1190" y="-291" width="63" height="63" as="geometry" />
        </mxCell>
        <mxCell id="eXHiG-xwAYl2vfAZOKIz-145" value="Pulic" style="text;html=1;align=center;verticalAlign=middle;resizable=0;points=[];autosize=1;strokeColor=none;fillColor=none;" parent="1" vertex="1">
          <mxGeometry x="1190" y="-228" width="50" height="30" as="geometry" />
        </mxCell>
        <mxCell id="eXHiG-xwAYl2vfAZOKIz-146" value="" style="shape=image;html=1;verticalAlign=top;verticalLabelPosition=bottom;labelBackgroundColor=#ffffff;imageAspect=0;aspect=fixed;image=https://cdn1.iconfinder.com/data/icons/hawcons/32/700036-icon-78-document-file-java-128.png" parent="1" vertex="1">
          <mxGeometry x="1320" y="-291" width="63" height="63" as="geometry" />
        </mxCell>
        <mxCell id="eXHiG-xwAYl2vfAZOKIz-147" value="Internal" style="text;html=1;align=center;verticalAlign=middle;resizable=0;points=[];autosize=1;strokeColor=none;fillColor=none;" parent="1" vertex="1">
          <mxGeometry x="1321.5" y="-228" width="60" height="30" as="geometry" />
        </mxCell>
        <mxCell id="eXHiG-xwAYl2vfAZOKIz-148" value="Service" style="text;html=1;align=center;verticalAlign=middle;resizable=0;points=[];autosize=1;strokeColor=#6c8ebf;fillColor=#dae8fc;" parent="1" vertex="1">
          <mxGeometry x="1070" y="-258" width="60" height="30" as="geometry" />
        </mxCell>
        <mxCell id="eXHiG-xwAYl2vfAZOKIz-149" value="plm-core" style="text;html=1;align=center;verticalAlign=middle;resizable=0;points=[];autosize=1;strokeColor=#666666;fillColor=#f5f5f5;fontColor=#333333;" parent="1" vertex="1">
          <mxGeometry x="1400" y="-1079" width="70" height="30" as="geometry" />
        </mxCell>
        <mxCell id="eXHiG-xwAYl2vfAZOKIz-152" value="" style="shape=flexArrow;endArrow=classic;html=1;rounded=0;" parent="1" edge="1">
          <mxGeometry width="50" height="50" relative="1" as="geometry">
            <mxPoint x="1274.5" y="-617" as="sourcePoint" />
            <mxPoint x="1274.5" y="-719" as="targetPoint" />
          </mxGeometry>
        </mxCell>
        <mxCell id="eXHiG-xwAYl2vfAZOKIz-153" value="" style="rounded=0;whiteSpace=wrap;html=1;" parent="1" vertex="1">
          <mxGeometry x="1850" y="-1262.5" width="430" height="325" as="geometry" />
        </mxCell>
        <mxCell id="eXHiG-xwAYl2vfAZOKIz-154" value="" style="rounded=0;whiteSpace=wrap;html=1;" parent="1" vertex="1">
          <mxGeometry x="1910" y="-1189.5" width="350" height="150.5" as="geometry" />
        </mxCell>
        <mxCell id="eXHiG-xwAYl2vfAZOKIz-155" value="" style="shape=image;html=1;verticalAlign=top;verticalLabelPosition=bottom;labelBackgroundColor=#ffffff;imageAspect=0;aspect=fixed;image=https://cdn1.iconfinder.com/data/icons/hawcons/32/700036-icon-78-document-file-java-128.png" parent="1" vertex="1">
          <mxGeometry x="2000" y="-1156.5" width="63" height="63" as="geometry" />
        </mxCell>
        <mxCell id="eXHiG-xwAYl2vfAZOKIz-156" value="Pulic" style="text;html=1;align=center;verticalAlign=middle;resizable=0;points=[];autosize=1;strokeColor=none;fillColor=none;" parent="1" vertex="1">
          <mxGeometry x="2000" y="-1093.5" width="50" height="30" as="geometry" />
        </mxCell>
        <mxCell id="eXHiG-xwAYl2vfAZOKIz-158" value="Internal" style="text;html=1;align=center;verticalAlign=middle;resizable=0;points=[];autosize=1;strokeColor=none;fillColor=none;" parent="1" vertex="1">
          <mxGeometry x="2000" y="-641" width="60" height="30" as="geometry" />
        </mxCell>
        <mxCell id="eXHiG-xwAYl2vfAZOKIz-159" value="Service" style="text;html=1;align=center;verticalAlign=middle;resizable=0;points=[];autosize=1;strokeColor=#6c8ebf;fillColor=#dae8fc;" parent="1" vertex="1">
          <mxGeometry x="1880" y="-1123.5" width="60" height="30" as="geometry" />
        </mxCell>
        <mxCell id="eXHiG-xwAYl2vfAZOKIz-160" value="plm-core" style="text;html=1;align=center;verticalAlign=middle;resizable=0;points=[];autosize=1;strokeColor=#666666;fillColor=#f5f5f5;fontColor=#333333;" parent="1" vertex="1">
          <mxGeometry x="2210" y="-1262.5" width="70" height="30" as="geometry" />
        </mxCell>
        <mxCell id="eXHiG-xwAYl2vfAZOKIz-163" value="" style="shape=image;html=1;verticalAlign=top;verticalLabelPosition=bottom;labelBackgroundColor=#ffffff;imageAspect=0;aspect=fixed;image=https://cdn1.iconfinder.com/data/icons/hawcons/32/700036-icon-78-document-file-java-128.png" parent="1" vertex="1">
          <mxGeometry x="2000" y="-704" width="63" height="63" as="geometry" />
        </mxCell>
        <mxCell id="eXHiG-xwAYl2vfAZOKIz-165" value="Service" style="text;html=1;align=center;verticalAlign=middle;resizable=0;points=[];autosize=1;strokeColor=#6c8ebf;fillColor=#dae8fc;" parent="1" vertex="1">
          <mxGeometry x="1880" y="-671" width="60" height="30" as="geometry" />
        </mxCell>
        <mxCell id="eXHiG-xwAYl2vfAZOKIz-166" value="internal lib" style="text;html=1;align=center;verticalAlign=middle;resizable=0;points=[];autosize=1;strokeColor=#666666;fillColor=#f5f5f5;fontColor=#333333;" parent="1" vertex="1">
          <mxGeometry x="2205" y="-810" width="80" height="30" as="geometry" />
        </mxCell>
        <mxCell id="eXHiG-xwAYl2vfAZOKIz-167" value="" style="shape=flexArrow;endArrow=classic;html=1;rounded=0;" parent="1" edge="1">
          <mxGeometry width="50" height="50" relative="1" as="geometry">
            <mxPoint x="2070" y="-821" as="sourcePoint" />
            <mxPoint x="2070" y="-923" as="targetPoint" />
          </mxGeometry>
        </mxCell>
        <mxCell id="eXHiG-xwAYl2vfAZOKIz-168" value="" style="rounded=0;whiteSpace=wrap;html=1;" parent="1" vertex="1">
          <mxGeometry x="1840" y="-337" width="430" height="467" as="geometry" />
        </mxCell>
        <mxCell id="eXHiG-xwAYl2vfAZOKIz-169" value="" style="rounded=0;whiteSpace=wrap;html=1;" parent="1" vertex="1">
          <mxGeometry x="1900" y="-297" width="360" height="143" as="geometry" />
        </mxCell>
        <mxCell id="eXHiG-xwAYl2vfAZOKIz-170" value="" style="shape=image;html=1;verticalAlign=top;verticalLabelPosition=bottom;labelBackgroundColor=#ffffff;imageAspect=0;aspect=fixed;image=https://cdn1.iconfinder.com/data/icons/hawcons/32/700036-icon-78-document-file-java-128.png" parent="1" vertex="1">
          <mxGeometry x="1990" y="-264" width="63" height="63" as="geometry" />
        </mxCell>
        <mxCell id="eXHiG-xwAYl2vfAZOKIz-171" value="Pulic" style="text;html=1;align=center;verticalAlign=middle;resizable=0;points=[];autosize=1;strokeColor=none;fillColor=none;" parent="1" vertex="1">
          <mxGeometry x="1990" y="-201" width="50" height="30" as="geometry" />
        </mxCell>
        <mxCell id="eXHiG-xwAYl2vfAZOKIz-172" value="" style="shape=image;html=1;verticalAlign=top;verticalLabelPosition=bottom;labelBackgroundColor=#ffffff;imageAspect=0;aspect=fixed;image=https://cdn1.iconfinder.com/data/icons/hawcons/32/700036-icon-78-document-file-java-128.png" parent="1" vertex="1">
          <mxGeometry x="2120" y="-264" width="63" height="63" as="geometry" />
        </mxCell>
        <mxCell id="eXHiG-xwAYl2vfAZOKIz-173" value="Internal" style="text;html=1;align=center;verticalAlign=middle;resizable=0;points=[];autosize=1;strokeColor=none;fillColor=none;" parent="1" vertex="1">
          <mxGeometry x="2121.5" y="-201" width="60" height="30" as="geometry" />
        </mxCell>
        <mxCell id="eXHiG-xwAYl2vfAZOKIz-174" value="Controller" style="text;html=1;align=center;verticalAlign=middle;resizable=0;points=[];autosize=1;strokeColor=#6c8ebf;fillColor=#dae8fc;" parent="1" vertex="1">
          <mxGeometry x="1860" y="-231" width="80" height="30" as="geometry" />
        </mxCell>
        <mxCell id="eXHiG-xwAYl2vfAZOKIz-175" value="rest webapp" style="text;html=1;align=center;verticalAlign=middle;resizable=0;points=[];autosize=1;strokeColor=#666666;fillColor=#f5f5f5;fontColor=#333333;" parent="1" vertex="1">
          <mxGeometry x="2180" y="-337" width="90" height="30" as="geometry" />
        </mxCell>
        <mxCell id="eXHiG-xwAYl2vfAZOKIz-176" value="" style="rounded=0;whiteSpace=wrap;html=1;" parent="1" vertex="1">
          <mxGeometry x="1900" y="-107" width="360" height="143" as="geometry" />
        </mxCell>
        <mxCell id="eXHiG-xwAYl2vfAZOKIz-177" value="" style="shape=image;html=1;verticalAlign=top;verticalLabelPosition=bottom;labelBackgroundColor=#ffffff;imageAspect=0;aspect=fixed;image=https://cdn1.iconfinder.com/data/icons/hawcons/32/700036-icon-78-document-file-java-128.png" parent="1" vertex="1">
          <mxGeometry x="1990" y="-74" width="63" height="63" as="geometry" />
        </mxCell>
        <mxCell id="eXHiG-xwAYl2vfAZOKIz-178" value="Pulic" style="text;html=1;align=center;verticalAlign=middle;resizable=0;points=[];autosize=1;strokeColor=none;fillColor=none;" parent="1" vertex="1">
          <mxGeometry x="1990" y="-11" width="50" height="30" as="geometry" />
        </mxCell>
        <mxCell id="eXHiG-xwAYl2vfAZOKIz-179" value="" style="shape=image;html=1;verticalAlign=top;verticalLabelPosition=bottom;labelBackgroundColor=#ffffff;imageAspect=0;aspect=fixed;image=https://cdn1.iconfinder.com/data/icons/hawcons/32/700036-icon-78-document-file-java-128.png" parent="1" vertex="1">
          <mxGeometry x="2120" y="-74" width="63" height="63" as="geometry" />
        </mxCell>
        <mxCell id="eXHiG-xwAYl2vfAZOKIz-180" value="Internal" style="text;html=1;align=center;verticalAlign=middle;resizable=0;points=[];autosize=1;strokeColor=none;fillColor=none;" parent="1" vertex="1">
          <mxGeometry x="2121.5" y="-11" width="60" height="30" as="geometry" />
        </mxCell>
        <mxCell id="eXHiG-xwAYl2vfAZOKIz-181" value="Service" style="text;html=1;align=center;verticalAlign=middle;resizable=0;points=[];autosize=1;strokeColor=#6c8ebf;fillColor=#dae8fc;" parent="1" vertex="1">
          <mxGeometry x="1870" y="-41" width="60" height="30" as="geometry" />
        </mxCell>
        <mxCell id="eXHiG-xwAYl2vfAZOKIz-182" value="" style="shape=flexArrow;endArrow=classic;html=1;rounded=0;" parent="1" edge="1">
          <mxGeometry width="50" height="50" relative="1" as="geometry">
            <mxPoint x="2090" y="-367" as="sourcePoint" />
            <mxPoint x="2090" y="-469" as="targetPoint" />
          </mxGeometry>
        </mxCell>
        <mxCell id="eXHiG-xwAYl2vfAZOKIz-183" value="" style="shape=flexArrow;endArrow=classic;html=1;rounded=0;" parent="1" edge="1">
          <mxGeometry width="50" height="50" relative="1" as="geometry">
            <mxPoint x="2290" y="-240" as="sourcePoint" />
            <mxPoint x="2340" y="-920" as="targetPoint" />
            <Array as="points">
              <mxPoint x="2400" y="-620" />
            </Array>
          </mxGeometry>
        </mxCell>
        <mxCell id="eXHiG-xwAYl2vfAZOKIz-184" value="Option 1" style="text;html=1;align=center;verticalAlign=middle;resizable=0;points=[];autosize=1;strokeColor=#d6b656;fillColor=#fff2cc;" parent="1" vertex="1">
          <mxGeometry x="2035" y="-1352" width="70" height="30" as="geometry" />
        </mxCell>
        <mxCell id="eXHiG-xwAYl2vfAZOKIz-185" value="" style="rounded=0;whiteSpace=wrap;html=1;" parent="1" vertex="1">
          <mxGeometry x="3380" y="-790.5" width="430" height="325" as="geometry" />
        </mxCell>
        <mxCell id="eXHiG-xwAYl2vfAZOKIz-186" value="" style="rounded=0;whiteSpace=wrap;html=1;" parent="1" vertex="1">
          <mxGeometry x="3440" y="-720" width="350" height="150.5" as="geometry" />
        </mxCell>
        <mxCell id="eXHiG-xwAYl2vfAZOKIz-187" value="" style="rounded=0;whiteSpace=wrap;html=1;" parent="1" vertex="1">
          <mxGeometry x="2930" y="-1242.5" width="430" height="325" as="geometry" />
        </mxCell>
        <mxCell id="eXHiG-xwAYl2vfAZOKIz-188" value="" style="rounded=0;whiteSpace=wrap;html=1;" parent="1" vertex="1">
          <mxGeometry x="2990" y="-1169.5" width="350" height="150.5" as="geometry" />
        </mxCell>
        <mxCell id="eXHiG-xwAYl2vfAZOKIz-189" value="" style="shape=image;html=1;verticalAlign=top;verticalLabelPosition=bottom;labelBackgroundColor=#ffffff;imageAspect=0;aspect=fixed;image=https://cdn1.iconfinder.com/data/icons/hawcons/32/700036-icon-78-document-file-java-128.png" parent="1" vertex="1">
          <mxGeometry x="3080" y="-1136.5" width="63" height="63" as="geometry" />
        </mxCell>
        <mxCell id="eXHiG-xwAYl2vfAZOKIz-190" value="Pulic" style="text;html=1;align=center;verticalAlign=middle;resizable=0;points=[];autosize=1;strokeColor=none;fillColor=none;" parent="1" vertex="1">
          <mxGeometry x="3080" y="-1073.5" width="50" height="30" as="geometry" />
        </mxCell>
        <mxCell id="eXHiG-xwAYl2vfAZOKIz-191" value="Internal" style="text;html=1;align=center;verticalAlign=middle;resizable=0;points=[];autosize=1;strokeColor=none;fillColor=none;" parent="1" vertex="1">
          <mxGeometry x="3530" y="-621.5" width="60" height="30" as="geometry" />
        </mxCell>
        <mxCell id="eXHiG-xwAYl2vfAZOKIz-192" value="Service" style="text;html=1;align=center;verticalAlign=middle;resizable=0;points=[];autosize=1;strokeColor=#6c8ebf;fillColor=#dae8fc;" parent="1" vertex="1">
          <mxGeometry x="2960" y="-1103.5" width="60" height="30" as="geometry" />
        </mxCell>
        <mxCell id="eXHiG-xwAYl2vfAZOKIz-193" value="plm-core" style="text;html=1;align=center;verticalAlign=middle;resizable=0;points=[];autosize=1;strokeColor=#666666;fillColor=#f5f5f5;fontColor=#333333;" parent="1" vertex="1">
          <mxGeometry x="3290" y="-1242.5" width="70" height="30" as="geometry" />
        </mxCell>
        <mxCell id="eXHiG-xwAYl2vfAZOKIz-194" value="" style="shape=image;html=1;verticalAlign=top;verticalLabelPosition=bottom;labelBackgroundColor=#ffffff;imageAspect=0;aspect=fixed;image=https://cdn1.iconfinder.com/data/icons/hawcons/32/700036-icon-78-document-file-java-128.png" parent="1" vertex="1">
          <mxGeometry x="3530" y="-684.5" width="63" height="63" as="geometry" />
        </mxCell>
        <mxCell id="eXHiG-xwAYl2vfAZOKIz-195" value="Service" style="text;html=1;align=center;verticalAlign=middle;resizable=0;points=[];autosize=1;strokeColor=#6c8ebf;fillColor=#dae8fc;" parent="1" vertex="1">
          <mxGeometry x="3410" y="-651.5" width="60" height="30" as="geometry" />
        </mxCell>
        <mxCell id="eXHiG-xwAYl2vfAZOKIz-196" value="internal lib" style="text;html=1;align=center;verticalAlign=middle;resizable=0;points=[];autosize=1;strokeColor=#666666;fillColor=#f5f5f5;fontColor=#333333;" parent="1" vertex="1">
          <mxGeometry x="3735" y="-790.5" width="80" height="30" as="geometry" />
        </mxCell>
        <mxCell id="eXHiG-xwAYl2vfAZOKIz-197" value="" style="shape=flexArrow;endArrow=classic;html=1;rounded=0;" parent="1" edge="1">
          <mxGeometry width="50" height="50" relative="1" as="geometry">
            <mxPoint x="3580" y="-870" as="sourcePoint" />
            <mxPoint x="3430" y="-992" as="targetPoint" />
          </mxGeometry>
        </mxCell>
        <mxCell id="eXHiG-xwAYl2vfAZOKIz-198" value="" style="rounded=0;whiteSpace=wrap;html=1;" parent="1" vertex="1">
          <mxGeometry x="2920" y="-317" width="330" height="467" as="geometry" />
        </mxCell>
        <mxCell id="eXHiG-xwAYl2vfAZOKIz-199" value="" style="rounded=0;whiteSpace=wrap;html=1;" parent="1" vertex="1">
          <mxGeometry x="2980" y="-277" width="200" height="143" as="geometry" />
        </mxCell>
        <mxCell id="eXHiG-xwAYl2vfAZOKIz-200" value="" style="shape=image;html=1;verticalAlign=top;verticalLabelPosition=bottom;labelBackgroundColor=#ffffff;imageAspect=0;aspect=fixed;image=https://cdn1.iconfinder.com/data/icons/hawcons/32/700036-icon-78-document-file-java-128.png" parent="1" vertex="1">
          <mxGeometry x="3070" y="-244" width="63" height="63" as="geometry" />
        </mxCell>
        <mxCell id="eXHiG-xwAYl2vfAZOKIz-201" value="Pulic" style="text;html=1;align=center;verticalAlign=middle;resizable=0;points=[];autosize=1;strokeColor=none;fillColor=none;" parent="1" vertex="1">
          <mxGeometry x="3070" y="-181" width="50" height="30" as="geometry" />
        </mxCell>
        <mxCell id="eXHiG-xwAYl2vfAZOKIz-204" value="Controller" style="text;html=1;align=center;verticalAlign=middle;resizable=0;points=[];autosize=1;strokeColor=#6c8ebf;fillColor=#dae8fc;" parent="1" vertex="1">
          <mxGeometry x="2940" y="-211" width="80" height="30" as="geometry" />
        </mxCell>
        <mxCell id="eXHiG-xwAYl2vfAZOKIz-205" value="rest webapp" style="text;html=1;align=center;verticalAlign=middle;resizable=0;points=[];autosize=1;strokeColor=#666666;fillColor=#f5f5f5;fontColor=#333333;" parent="1" vertex="1">
          <mxGeometry x="3160" y="-317" width="90" height="30" as="geometry" />
        </mxCell>
        <mxCell id="eXHiG-xwAYl2vfAZOKIz-206" value="" style="rounded=0;whiteSpace=wrap;html=1;" parent="1" vertex="1">
          <mxGeometry x="2980" y="-87" width="200" height="143" as="geometry" />
        </mxCell>
        <mxCell id="eXHiG-xwAYl2vfAZOKIz-207" value="" style="shape=image;html=1;verticalAlign=top;verticalLabelPosition=bottom;labelBackgroundColor=#ffffff;imageAspect=0;aspect=fixed;image=https://cdn1.iconfinder.com/data/icons/hawcons/32/700036-icon-78-document-file-java-128.png" parent="1" vertex="1">
          <mxGeometry x="3070" y="-54" width="63" height="63" as="geometry" />
        </mxCell>
        <mxCell id="eXHiG-xwAYl2vfAZOKIz-208" value="Pulic" style="text;html=1;align=center;verticalAlign=middle;resizable=0;points=[];autosize=1;strokeColor=none;fillColor=none;" parent="1" vertex="1">
          <mxGeometry x="3070" y="9" width="50" height="30" as="geometry" />
        </mxCell>
        <mxCell id="eXHiG-xwAYl2vfAZOKIz-211" value="Service" style="text;html=1;align=center;verticalAlign=middle;resizable=0;points=[];autosize=1;strokeColor=#6c8ebf;fillColor=#dae8fc;" parent="1" vertex="1">
          <mxGeometry x="2950" y="-21" width="60" height="30" as="geometry" />
        </mxCell>
        <mxCell id="eXHiG-xwAYl2vfAZOKIz-212" value="" style="shape=flexArrow;endArrow=classic;html=1;rounded=0;" parent="1" edge="1">
          <mxGeometry width="50" height="50" relative="1" as="geometry">
            <mxPoint x="3079" y="-591.5" as="sourcePoint" />
            <mxPoint x="3079" y="-693.5" as="targetPoint" />
          </mxGeometry>
        </mxCell>
        <mxCell id="eXHiG-xwAYl2vfAZOKIz-214" value="Option 2" style="text;html=1;align=center;verticalAlign=middle;resizable=0;points=[];autosize=1;strokeColor=#d6b656;fillColor=#fff2cc;" parent="1" vertex="1">
          <mxGeometry x="3360" y="-1362" width="70" height="30" as="geometry" />
        </mxCell>
        <mxCell id="eXHiG-xwAYl2vfAZOKIz-215" value="" style="rounded=0;whiteSpace=wrap;html=1;" parent="1" vertex="1">
          <mxGeometry x="3460" y="-322" width="310" height="467" as="geometry" />
        </mxCell>
        <mxCell id="eXHiG-xwAYl2vfAZOKIz-216" value="" style="rounded=0;whiteSpace=wrap;html=1;" parent="1" vertex="1">
          <mxGeometry x="3520" y="-282" width="210" height="143" as="geometry" />
        </mxCell>
        <mxCell id="eXHiG-xwAYl2vfAZOKIz-219" value="" style="shape=image;html=1;verticalAlign=top;verticalLabelPosition=bottom;labelBackgroundColor=#ffffff;imageAspect=0;aspect=fixed;image=https://cdn1.iconfinder.com/data/icons/hawcons/32/700036-icon-78-document-file-java-128.png" parent="1" vertex="1">
          <mxGeometry x="3610" y="-253" width="63" height="63" as="geometry" />
        </mxCell>
        <mxCell id="eXHiG-xwAYl2vfAZOKIz-220" value="Internal" style="text;html=1;align=center;verticalAlign=middle;resizable=0;points=[];autosize=1;strokeColor=none;fillColor=none;" parent="1" vertex="1">
          <mxGeometry x="3611.5" y="-190" width="60" height="30" as="geometry" />
        </mxCell>
        <mxCell id="eXHiG-xwAYl2vfAZOKIz-221" value="Controller" style="text;html=1;align=center;verticalAlign=middle;resizable=0;points=[];autosize=1;strokeColor=#6c8ebf;fillColor=#dae8fc;" parent="1" vertex="1">
          <mxGeometry x="3480" y="-216" width="80" height="30" as="geometry" />
        </mxCell>
        <mxCell id="eXHiG-xwAYl2vfAZOKIz-222" value="internal rest webapp" style="text;html=1;align=center;verticalAlign=middle;resizable=0;points=[];autosize=1;strokeColor=#666666;fillColor=#f5f5f5;fontColor=#333333;" parent="1" vertex="1">
          <mxGeometry x="3640" y="-322" width="130" height="30" as="geometry" />
        </mxCell>
        <mxCell id="eXHiG-xwAYl2vfAZOKIz-223" value="" style="rounded=0;whiteSpace=wrap;html=1;" parent="1" vertex="1">
          <mxGeometry x="3520" y="-92" width="210" height="143" as="geometry" />
        </mxCell>
        <mxCell id="eXHiG-xwAYl2vfAZOKIz-226" value="" style="shape=image;html=1;verticalAlign=top;verticalLabelPosition=bottom;labelBackgroundColor=#ffffff;imageAspect=0;aspect=fixed;image=https://cdn1.iconfinder.com/data/icons/hawcons/32/700036-icon-78-document-file-java-128.png" parent="1" vertex="1">
          <mxGeometry x="3610" y="-63" width="63" height="63" as="geometry" />
        </mxCell>
        <mxCell id="eXHiG-xwAYl2vfAZOKIz-227" value="Internal" style="text;html=1;align=center;verticalAlign=middle;resizable=0;points=[];autosize=1;strokeColor=none;fillColor=none;" parent="1" vertex="1">
          <mxGeometry x="3611.5" width="60" height="30" as="geometry" />
        </mxCell>
        <mxCell id="eXHiG-xwAYl2vfAZOKIz-228" value="Service" style="text;html=1;align=center;verticalAlign=middle;resizable=0;points=[];autosize=1;strokeColor=#6c8ebf;fillColor=#dae8fc;" parent="1" vertex="1">
          <mxGeometry x="3490" y="-26" width="60" height="30" as="geometry" />
        </mxCell>
        <mxCell id="eXHiG-xwAYl2vfAZOKIz-229" value="" style="shape=flexArrow;endArrow=classic;html=1;rounded=0;" parent="1" edge="1">
          <mxGeometry width="50" height="50" relative="1" as="geometry">
            <mxPoint x="3614.5" y="-350" as="sourcePoint" />
            <mxPoint x="3614.5" y="-452" as="targetPoint" />
          </mxGeometry>
        </mxCell>
        <mxCell id="eXHiG-xwAYl2vfAZOKIz-231" value="" style="shape=flexArrow;endArrow=classic;html=1;rounded=0;" parent="1" edge="1">
          <mxGeometry width="50" height="50" relative="1" as="geometry">
            <mxPoint x="1580" y="-623.5" as="sourcePoint" />
            <mxPoint x="1740" y="-621" as="targetPoint" />
          </mxGeometry>
        </mxCell>
        <mxCell id="eXHiG-xwAYl2vfAZOKIz-232" value="" style="shape=cylinder3;whiteSpace=wrap;html=1;boundedLbl=1;backgroundOutline=1;size=15;rotation=90;" parent="1" vertex="1">
          <mxGeometry x="-425" y="-1905" width="80" height="590" as="geometry" />
        </mxCell>
        <mxCell id="eXHiG-xwAYl2vfAZOKIz-234" value="rocky&lt;div&gt;bulkModeId= 000001&lt;/div&gt;" style="text;html=1;align=center;verticalAlign=middle;resizable=0;points=[];autosize=1;strokeColor=none;fillColor=none;" parent="1" vertex="1">
          <mxGeometry x="-271.04" y="-1780" width="140" height="40" as="geometry" />
        </mxCell>
        <mxCell id="eXHiG-xwAYl2vfAZOKIz-235" value="" style="rounded=0;whiteSpace=wrap;html=1;fillColor=#f8cecc;strokeColor=#b85450;" parent="1" vertex="1">
          <mxGeometry x="-160.00000000000006" y="-1650" width="28.96" height="80" as="geometry" />
        </mxCell>
        <mxCell id="eXHiG-xwAYl2vfAZOKIz-236" value="" style="rounded=0;whiteSpace=wrap;html=1;fillColor=#d5e8d4;strokeColor=#82b366;" parent="1" vertex="1">
          <mxGeometry x="-188.96000000000006" y="-1650" width="28.96" height="80" as="geometry" />
        </mxCell>
        <mxCell id="eXHiG-xwAYl2vfAZOKIz-237" value="" style="rounded=0;whiteSpace=wrap;html=1;fillColor=#f8cecc;strokeColor=#b85450;" parent="1" vertex="1">
          <mxGeometry x="-217.92000000000004" y="-1650" width="28.96" height="80" as="geometry" />
        </mxCell>
        <mxCell id="eXHiG-xwAYl2vfAZOKIz-238" value="" style="rounded=0;whiteSpace=wrap;html=1;fillColor=#d5e8d4;strokeColor=#82b366;" parent="1" vertex="1">
          <mxGeometry x="-246.88000000000005" y="-1650" width="28.96" height="80" as="geometry" />
        </mxCell>
        <mxCell id="eXHiG-xwAYl2vfAZOKIz-239" value="" style="endArrow=classic;html=1;rounded=0;" parent="1" edge="1">
          <mxGeometry width="50" height="50" relative="1" as="geometry">
            <mxPoint x="-200" y="-1720" as="sourcePoint" />
            <mxPoint x="-240" y="-1650" as="targetPoint" />
          </mxGeometry>
        </mxCell>
        <mxCell id="eXHiG-xwAYl2vfAZOKIz-240" value="" style="endArrow=classic;html=1;rounded=0;entryX=0.5;entryY=0;entryDx=0;entryDy=0;" parent="1" target="eXHiG-xwAYl2vfAZOKIz-236" edge="1">
          <mxGeometry width="50" height="50" relative="1" as="geometry">
            <mxPoint x="-200" y="-1720" as="sourcePoint" />
            <mxPoint x="-230" y="-1640" as="targetPoint" />
          </mxGeometry>
        </mxCell>
        <mxCell id="eXHiG-xwAYl2vfAZOKIz-241" value="&lt;div&gt;elena&lt;/div&gt;&lt;div&gt;bulkModeId= 000002&lt;/div&gt;" style="text;html=1;align=center;verticalAlign=middle;resizable=0;points=[];autosize=1;strokeColor=none;fillColor=none;" parent="1" vertex="1">
          <mxGeometry x="-250" y="-1490" width="140" height="40" as="geometry" />
        </mxCell>
        <mxCell id="eXHiG-xwAYl2vfAZOKIz-242" value="" style="endArrow=classic;html=1;rounded=0;entryX=0.5;entryY=1;entryDx=0;entryDy=0;" parent="1" target="eXHiG-xwAYl2vfAZOKIz-237" edge="1">
          <mxGeometry width="50" height="50" relative="1" as="geometry">
            <mxPoint x="-180" y="-1490" as="sourcePoint" />
            <mxPoint x="-230" y="-1640" as="targetPoint" />
          </mxGeometry>
        </mxCell>
        <mxCell id="eXHiG-xwAYl2vfAZOKIz-243" value="" style="endArrow=classic;html=1;rounded=0;entryX=0.5;entryY=1;entryDx=0;entryDy=0;" parent="1" target="eXHiG-xwAYl2vfAZOKIz-235" edge="1">
          <mxGeometry width="50" height="50" relative="1" as="geometry">
            <mxPoint x="-180" y="-1490" as="sourcePoint" />
            <mxPoint x="-193" y="-1560" as="targetPoint" />
          </mxGeometry>
        </mxCell>
        <mxCell id="eXHiG-xwAYl2vfAZOKIz-244" value="..." style="text;html=1;align=center;verticalAlign=middle;resizable=0;points=[];autosize=1;strokeColor=none;fillColor=none;" parent="1" vertex="1">
          <mxGeometry x="-485" y="-1620" width="30" height="30" as="geometry" />
        </mxCell>
        <mxCell id="eXHiG-xwAYl2vfAZOKIz-245" value="Bulk mode transaction queue" style="text;html=1;align=center;verticalAlign=middle;resizable=0;points=[];autosize=1;strokeColor=none;fillColor=none;" parent="1" vertex="1">
          <mxGeometry x="-500" y="-1480" width="180" height="30" as="geometry" />
        </mxCell>
        <mxCell id="zBE7G29B3W7qB8N71hoa-13" style="edgeStyle=orthogonalEdgeStyle;rounded=0;orthogonalLoop=1;jettySize=auto;html=1;" edge="1" parent="1" source="zBE7G29B3W7qB8N71hoa-1" target="zBE7G29B3W7qB8N71hoa-5">
          <mxGeometry relative="1" as="geometry" />
        </mxCell>
        <mxCell id="zBE7G29B3W7qB8N71hoa-29" style="edgeStyle=orthogonalEdgeStyle;rounded=0;orthogonalLoop=1;jettySize=auto;html=1;exitX=1;exitY=0.25;exitDx=0;exitDy=0;entryX=0;entryY=0.5;entryDx=0;entryDy=0;startArrow=classic;startFill=1;" edge="1" parent="1" source="zBE7G29B3W7qB8N71hoa-1" target="zBE7G29B3W7qB8N71hoa-16">
          <mxGeometry relative="1" as="geometry" />
        </mxCell>
        <mxCell id="zBE7G29B3W7qB8N71hoa-1" value="" style="shape=process;whiteSpace=wrap;html=1;backgroundOutline=1;" vertex="1" parent="1">
          <mxGeometry x="805" y="-2440" width="120" height="60" as="geometry" />
        </mxCell>
        <mxCell id="zBE7G29B3W7qB8N71hoa-2" value="&lt;div style=&quot;background-color:#2b2b2b;color:#a9b7c6&quot;&gt;&lt;pre style=&quot;font-family:&#39;JetBrains Mono&#39;,monospace;font-size:15.0pt;&quot;&gt;&lt;br&gt;&lt;/pre&gt;&lt;/div&gt;" style="text;html=1;align=center;verticalAlign=middle;resizable=0;points=[];autosize=1;strokeColor=none;fillColor=none;" vertex="1" parent="1">
          <mxGeometry x="1095" y="-2450" width="20" height="80" as="geometry" />
        </mxCell>
        <mxCell id="zBE7G29B3W7qB8N71hoa-3" value="Set bulk mode context" style="text;html=1;align=center;verticalAlign=middle;resizable=0;points=[];autosize=1;strokeColor=#666666;fillColor=#f5f5f5;fontColor=#333333;" vertex="1" parent="1">
          <mxGeometry x="650" y="-2425" width="140" height="30" as="geometry" />
        </mxCell>
        <mxCell id="zBE7G29B3W7qB8N71hoa-4" value="Pooled database connections" style="text;html=1;align=center;verticalAlign=middle;resizable=0;points=[];autosize=1;strokeColor=#82b366;fillColor=#d5e8d4;" vertex="1" parent="1">
          <mxGeometry x="1285" y="-2800" width="180" height="30" as="geometry" />
        </mxCell>
        <mxCell id="zBE7G29B3W7qB8N71hoa-14" style="edgeStyle=orthogonalEdgeStyle;rounded=0;orthogonalLoop=1;jettySize=auto;html=1;" edge="1" parent="1" source="zBE7G29B3W7qB8N71hoa-5" target="zBE7G29B3W7qB8N71hoa-9">
          <mxGeometry relative="1" as="geometry" />
        </mxCell>
        <mxCell id="zBE7G29B3W7qB8N71hoa-32" style="edgeStyle=orthogonalEdgeStyle;rounded=0;orthogonalLoop=1;jettySize=auto;html=1;exitX=1;exitY=0.5;exitDx=0;exitDy=0;entryX=0;entryY=0.5;entryDx=0;entryDy=0;startArrow=classic;startFill=1;" edge="1" parent="1" source="zBE7G29B3W7qB8N71hoa-5" target="zBE7G29B3W7qB8N71hoa-16">
          <mxGeometry relative="1" as="geometry">
            <Array as="points">
              <mxPoint x="1060" y="-2310" />
              <mxPoint x="1060" y="-2665" />
            </Array>
          </mxGeometry>
        </mxCell>
        <mxCell id="zBE7G29B3W7qB8N71hoa-5" value="" style="shape=process;whiteSpace=wrap;html=1;backgroundOutline=1;" vertex="1" parent="1">
          <mxGeometry x="805" y="-2340" width="120" height="60" as="geometry" />
        </mxCell>
        <mxCell id="zBE7G29B3W7qB8N71hoa-7" value="Business statement" style="text;html=1;align=center;verticalAlign=middle;resizable=0;points=[];autosize=1;strokeColor=#666666;fillColor=#f5f5f5;fontColor=#333333;" vertex="1" parent="1">
          <mxGeometry x="655" y="-2325" width="130" height="30" as="geometry" />
        </mxCell>
        <mxCell id="zBE7G29B3W7qB8N71hoa-33" style="edgeStyle=orthogonalEdgeStyle;rounded=0;orthogonalLoop=1;jettySize=auto;html=1;exitX=1;exitY=0.5;exitDx=0;exitDy=0;entryX=0;entryY=0.5;entryDx=0;entryDy=0;startArrow=classic;startFill=1;" edge="1" parent="1" source="zBE7G29B3W7qB8N71hoa-9" target="zBE7G29B3W7qB8N71hoa-16">
          <mxGeometry relative="1" as="geometry">
            <mxPoint x="1170" y="-2670" as="targetPoint" />
            <Array as="points">
              <mxPoint x="1070" y="-2210" />
              <mxPoint x="1070" y="-2665" />
            </Array>
          </mxGeometry>
        </mxCell>
        <mxCell id="zBE7G29B3W7qB8N71hoa-9" value="" style="shape=process;whiteSpace=wrap;html=1;backgroundOutline=1;" vertex="1" parent="1">
          <mxGeometry x="805" y="-2240" width="120" height="60" as="geometry" />
        </mxCell>
        <mxCell id="zBE7G29B3W7qB8N71hoa-11" value="Clear bulk mode context" style="text;html=1;align=center;verticalAlign=middle;resizable=0;points=[];autosize=1;strokeColor=#666666;fillColor=#f5f5f5;fontColor=#333333;" vertex="1" parent="1">
          <mxGeometry x="635" y="-2214.5" width="150" height="30" as="geometry" />
        </mxCell>
        <mxCell id="zBE7G29B3W7qB8N71hoa-15" value="" style="endArrow=classic;html=1;rounded=0;entryX=0.5;entryY=0;entryDx=0;entryDy=0;" edge="1" parent="1" target="zBE7G29B3W7qB8N71hoa-1">
          <mxGeometry width="50" height="50" relative="1" as="geometry">
            <mxPoint x="865" y="-2500" as="sourcePoint" />
            <mxPoint x="825" y="-2540" as="targetPoint" />
          </mxGeometry>
        </mxCell>
        <mxCell id="zBE7G29B3W7qB8N71hoa-34" value="Yes" style="edgeLabel;html=1;align=center;verticalAlign=middle;resizable=0;points=[];" vertex="1" connectable="0" parent="zBE7G29B3W7qB8N71hoa-15">
          <mxGeometry x="-0.2476" y="3" relative="1" as="geometry">
            <mxPoint x="14" as="offset" />
          </mxGeometry>
        </mxCell>
        <mxCell id="zBE7G29B3W7qB8N71hoa-86" style="edgeStyle=orthogonalEdgeStyle;rounded=0;orthogonalLoop=1;jettySize=auto;html=1;exitX=1;exitY=0.5;exitDx=0;exitDy=0;entryX=0;entryY=0.75;entryDx=0;entryDy=0;" edge="1" parent="1" source="zBE7G29B3W7qB8N71hoa-16" target="zBE7G29B3W7qB8N71hoa-76">
          <mxGeometry relative="1" as="geometry">
            <Array as="points">
              <mxPoint x="1390" y="-2665" />
              <mxPoint x="1390" y="-2385" />
            </Array>
          </mxGeometry>
        </mxCell>
        <mxCell id="zBE7G29B3W7qB8N71hoa-16" value="" style="whiteSpace=wrap;html=1;aspect=fixed;" vertex="1" parent="1">
          <mxGeometry x="1170" y="-2730" width="130" height="130" as="geometry" />
        </mxCell>
        <mxCell id="zBE7G29B3W7qB8N71hoa-18" value="Database connection pool" style="text;html=1;align=center;verticalAlign=middle;resizable=0;points=[];autosize=1;strokeColor=#666666;fillColor=#f5f5f5;fontColor=#333333;" vertex="1" parent="1">
          <mxGeometry x="1160" y="-2580" width="160" height="30" as="geometry" />
        </mxCell>
        <mxCell id="zBE7G29B3W7qB8N71hoa-19" value="" style="image;sketch=0;aspect=fixed;html=1;points=[];align=center;fontSize=12;image=img/lib/mscae/Connection.svg;imageBackground=#99CCFF;" vertex="1" parent="1">
          <mxGeometry x="1180" y="-2720" width="50" height="31" as="geometry" />
        </mxCell>
        <mxCell id="zBE7G29B3W7qB8N71hoa-20" value="" style="image;sketch=0;aspect=fixed;html=1;points=[];align=center;fontSize=12;image=img/lib/mscae/Connection.svg;dashed=1;imageBackground=#CDA2BE;" vertex="1" parent="1">
          <mxGeometry x="1210" y="-2680.5" width="50" height="31" as="geometry" />
        </mxCell>
        <mxCell id="zBE7G29B3W7qB8N71hoa-21" value="" style="image;sketch=0;aspect=fixed;html=1;points=[];align=center;fontSize=12;image=img/lib/mscae/Connection.svg;imageBackground=#FFFFCC;" vertex="1" parent="1">
          <mxGeometry x="1240" y="-2641" width="50" height="31" as="geometry" />
        </mxCell>
        <mxCell id="zBE7G29B3W7qB8N71hoa-23" value="" style="endArrow=none;html=1;rounded=0;entryX=0.009;entryY=0.633;entryDx=0;entryDy=0;entryPerimeter=0;dashed=1;dashPattern=8 8;" edge="1" parent="1" source="zBE7G29B3W7qB8N71hoa-19" target="zBE7G29B3W7qB8N71hoa-4">
          <mxGeometry width="50" height="50" relative="1" as="geometry">
            <mxPoint x="1290" y="-2690" as="sourcePoint" />
            <mxPoint x="1340" y="-2740" as="targetPoint" />
          </mxGeometry>
        </mxCell>
        <mxCell id="zBE7G29B3W7qB8N71hoa-24" value="" style="image;sketch=0;aspect=fixed;html=1;points=[];align=center;fontSize=12;image=img/lib/mscae/Connection.svg;imageBackground=#99CCFF;" vertex="1" parent="1">
          <mxGeometry x="840" y="-2425" width="50" height="31" as="geometry" />
        </mxCell>
        <mxCell id="zBE7G29B3W7qB8N71hoa-26" value="" style="image;sketch=0;aspect=fixed;html=1;points=[];align=center;fontSize=12;image=img/lib/mscae/Connection.svg;imageBackground=#CDA2BE;" vertex="1" parent="1">
          <mxGeometry x="840" y="-2325" width="50" height="31" as="geometry" />
        </mxCell>
        <mxCell id="zBE7G29B3W7qB8N71hoa-27" value="" style="image;sketch=0;aspect=fixed;html=1;points=[];align=center;fontSize=12;image=img/lib/mscae/Connection.svg;imageBackground=#FFFFCC;" vertex="1" parent="1">
          <mxGeometry x="840" y="-2225" width="50" height="31" as="geometry" />
        </mxCell>
        <mxCell id="zBE7G29B3W7qB8N71hoa-28" value="bulk mode?" style="rhombus;whiteSpace=wrap;html=1;" vertex="1" parent="1">
          <mxGeometry x="825" y="-2580" width="80" height="80" as="geometry" />
        </mxCell>
        <mxCell id="zBE7G29B3W7qB8N71hoa-30" value="Get connection" style="text;html=1;align=center;verticalAlign=middle;resizable=0;points=[];autosize=1;strokeColor=#6c8ebf;fillColor=#dae8fc;" vertex="1" parent="1">
          <mxGeometry x="940" y="-2601" width="100" height="30" as="geometry" />
        </mxCell>
        <mxCell id="zBE7G29B3W7qB8N71hoa-31" value="Return connection" style="text;html=1;align=center;verticalAlign=middle;resizable=0;points=[];autosize=1;strokeColor=#6c8ebf;fillColor=#dae8fc;" vertex="1" parent="1">
          <mxGeometry x="1080" y="-2490" width="120" height="30" as="geometry" />
        </mxCell>
        <mxCell id="zBE7G29B3W7qB8N71hoa-35" value="Not in one transaction" style="text;html=1;align=center;verticalAlign=middle;resizable=0;points=[];autosize=1;strokeColor=#b85450;fillColor=#f8cecc;" vertex="1" parent="1">
          <mxGeometry x="1700" y="-2950" width="140" height="30" as="geometry" />
        </mxCell>
        <mxCell id="zBE7G29B3W7qB8N71hoa-36" style="edgeStyle=orthogonalEdgeStyle;rounded=0;orthogonalLoop=1;jettySize=auto;html=1;" edge="1" parent="1" source="zBE7G29B3W7qB8N71hoa-38" target="zBE7G29B3W7qB8N71hoa-44">
          <mxGeometry relative="1" as="geometry" />
        </mxCell>
        <mxCell id="zBE7G29B3W7qB8N71hoa-38" value="" style="shape=process;whiteSpace=wrap;html=1;backgroundOutline=1;" vertex="1" parent="1">
          <mxGeometry x="2205" y="-2400" width="120" height="60" as="geometry" />
        </mxCell>
        <mxCell id="zBE7G29B3W7qB8N71hoa-39" value="&lt;div style=&quot;background-color:#2b2b2b;color:#a9b7c6&quot;&gt;&lt;pre style=&quot;font-family:&#39;JetBrains Mono&#39;,monospace;font-size:15.0pt;&quot;&gt;&lt;br&gt;&lt;/pre&gt;&lt;/div&gt;" style="text;html=1;align=center;verticalAlign=middle;resizable=0;points=[];autosize=1;strokeColor=none;fillColor=none;" vertex="1" parent="1">
          <mxGeometry x="2495" y="-2410" width="20" height="80" as="geometry" />
        </mxCell>
        <mxCell id="zBE7G29B3W7qB8N71hoa-40" value="Set bulk mode context" style="text;html=1;align=center;verticalAlign=middle;resizable=0;points=[];autosize=1;strokeColor=none;fillColor=none;" vertex="1" parent="1">
          <mxGeometry x="2035" y="-2384" width="140" height="30" as="geometry" />
        </mxCell>
        <mxCell id="zBE7G29B3W7qB8N71hoa-41" value="database connection" style="text;html=1;align=center;verticalAlign=middle;resizable=0;points=[];autosize=1;strokeColor=#82b366;fillColor=#d5e8d4;" vertex="1" parent="1">
          <mxGeometry x="2710" y="-2760" width="130" height="30" as="geometry" />
        </mxCell>
        <mxCell id="zBE7G29B3W7qB8N71hoa-42" style="edgeStyle=orthogonalEdgeStyle;rounded=0;orthogonalLoop=1;jettySize=auto;html=1;" edge="1" parent="1" source="zBE7G29B3W7qB8N71hoa-44" target="zBE7G29B3W7qB8N71hoa-47">
          <mxGeometry relative="1" as="geometry" />
        </mxCell>
        <mxCell id="zBE7G29B3W7qB8N71hoa-44" value="" style="shape=process;whiteSpace=wrap;html=1;backgroundOutline=1;" vertex="1" parent="1">
          <mxGeometry x="2205" y="-2300" width="120" height="60" as="geometry" />
        </mxCell>
        <mxCell id="zBE7G29B3W7qB8N71hoa-45" value="Business statement" style="text;html=1;align=center;verticalAlign=middle;resizable=0;points=[];autosize=1;strokeColor=none;fillColor=none;" vertex="1" parent="1">
          <mxGeometry x="2030" y="-2284" width="130" height="30" as="geometry" />
        </mxCell>
        <mxCell id="zBE7G29B3W7qB8N71hoa-67" style="edgeStyle=orthogonalEdgeStyle;rounded=0;orthogonalLoop=1;jettySize=auto;html=1;exitX=0.5;exitY=1;exitDx=0;exitDy=0;entryX=0.5;entryY=1;entryDx=0;entryDy=0;" edge="1" parent="1" source="zBE7G29B3W7qB8N71hoa-47" target="zBE7G29B3W7qB8N71hoa-51">
          <mxGeometry relative="1" as="geometry" />
        </mxCell>
        <mxCell id="zBE7G29B3W7qB8N71hoa-47" value="" style="shape=process;whiteSpace=wrap;html=1;backgroundOutline=1;" vertex="1" parent="1">
          <mxGeometry x="2205" y="-2200" width="120" height="60" as="geometry" />
        </mxCell>
        <mxCell id="zBE7G29B3W7qB8N71hoa-48" value="Clear bulk mode context" style="text;html=1;align=center;verticalAlign=middle;resizable=0;points=[];autosize=1;strokeColor=none;fillColor=none;" vertex="1" parent="1">
          <mxGeometry x="2035" y="-2184.5" width="150" height="30" as="geometry" />
        </mxCell>
        <mxCell id="zBE7G29B3W7qB8N71hoa-49" value="" style="endArrow=classic;html=1;rounded=0;entryX=0.5;entryY=0;entryDx=0;entryDy=0;" edge="1" parent="1" target="zBE7G29B3W7qB8N71hoa-38">
          <mxGeometry width="50" height="50" relative="1" as="geometry">
            <mxPoint x="2265" y="-2460" as="sourcePoint" />
            <mxPoint x="2225" y="-2500" as="targetPoint" />
          </mxGeometry>
        </mxCell>
        <mxCell id="zBE7G29B3W7qB8N71hoa-50" value="Yes" style="edgeLabel;html=1;align=center;verticalAlign=middle;resizable=0;points=[];" vertex="1" connectable="0" parent="zBE7G29B3W7qB8N71hoa-49">
          <mxGeometry x="-0.2476" y="3" relative="1" as="geometry">
            <mxPoint x="14" as="offset" />
          </mxGeometry>
        </mxCell>
        <mxCell id="zBE7G29B3W7qB8N71hoa-65" style="edgeStyle=orthogonalEdgeStyle;rounded=0;orthogonalLoop=1;jettySize=auto;html=1;exitX=0;exitY=0.5;exitDx=0;exitDy=0;entryX=1;entryY=0.5;entryDx=0;entryDy=0;" edge="1" parent="1" source="zBE7G29B3W7qB8N71hoa-51" target="zBE7G29B3W7qB8N71hoa-38">
          <mxGeometry relative="1" as="geometry" />
        </mxCell>
        <mxCell id="zBE7G29B3W7qB8N71hoa-51" value="" style="whiteSpace=wrap;html=1;aspect=fixed;" vertex="1" parent="1">
          <mxGeometry x="2570" y="-2690" width="130" height="130" as="geometry" />
        </mxCell>
        <mxCell id="zBE7G29B3W7qB8N71hoa-52" value="Database connection pool" style="text;html=1;align=center;verticalAlign=middle;resizable=0;points=[];autosize=1;strokeColor=#666666;fillColor=#f5f5f5;fontColor=#333333;" vertex="1" parent="1">
          <mxGeometry x="2710" y="-2570" width="160" height="30" as="geometry" />
        </mxCell>
        <mxCell id="zBE7G29B3W7qB8N71hoa-53" value="" style="image;sketch=0;aspect=fixed;html=1;points=[];align=center;fontSize=12;image=img/lib/mscae/Connection.svg;" vertex="1" parent="1">
          <mxGeometry x="2580" y="-2680" width="50" height="31" as="geometry" />
        </mxCell>
        <mxCell id="zBE7G29B3W7qB8N71hoa-54" value="" style="image;sketch=0;aspect=fixed;html=1;points=[];align=center;fontSize=12;image=img/lib/mscae/Connection.svg;dashed=1;" vertex="1" parent="1">
          <mxGeometry x="2610" y="-2640.5" width="50" height="31" as="geometry" />
        </mxCell>
        <mxCell id="zBE7G29B3W7qB8N71hoa-55" value="" style="image;sketch=0;aspect=fixed;html=1;points=[];align=center;fontSize=12;image=img/lib/mscae/Connection.svg;" vertex="1" parent="1">
          <mxGeometry x="2640" y="-2601" width="50" height="31" as="geometry" />
        </mxCell>
        <mxCell id="zBE7G29B3W7qB8N71hoa-56" value="" style="endArrow=none;html=1;rounded=0;entryX=0.009;entryY=0.633;entryDx=0;entryDy=0;entryPerimeter=0;dashed=1;dashPattern=8 8;" edge="1" parent="1" source="zBE7G29B3W7qB8N71hoa-53" target="zBE7G29B3W7qB8N71hoa-41">
          <mxGeometry width="50" height="50" relative="1" as="geometry">
            <mxPoint x="2690" y="-2650" as="sourcePoint" />
            <mxPoint x="2740" y="-2700" as="targetPoint" />
          </mxGeometry>
        </mxCell>
        <mxCell id="zBE7G29B3W7qB8N71hoa-57" value="" style="image;sketch=0;aspect=fixed;html=1;points=[];align=center;fontSize=12;image=img/lib/mscae/Connection.svg;imageBackground=#99CCFF;fillStyle=auto;" vertex="1" parent="1">
          <mxGeometry x="2240" y="-2385" width="50" height="31" as="geometry" />
        </mxCell>
        <mxCell id="zBE7G29B3W7qB8N71hoa-58" value="" style="image;sketch=0;aspect=fixed;html=1;points=[];align=center;fontSize=12;image=img/lib/mscae/Connection.svg;imageBackground=#99CCFF;" vertex="1" parent="1">
          <mxGeometry x="2240" y="-2285" width="50" height="31" as="geometry" />
        </mxCell>
        <mxCell id="zBE7G29B3W7qB8N71hoa-59" value="" style="image;sketch=0;aspect=fixed;html=1;points=[];align=center;fontSize=12;image=img/lib/mscae/Connection.svg;imageBackground=#99CCFF;" vertex="1" parent="1">
          <mxGeometry x="2240" y="-2185" width="50" height="31" as="geometry" />
        </mxCell>
        <mxCell id="zBE7G29B3W7qB8N71hoa-60" value="bulk mode?" style="rhombus;whiteSpace=wrap;html=1;" vertex="1" parent="1">
          <mxGeometry x="2225" y="-2540" width="80" height="80" as="geometry" />
        </mxCell>
        <mxCell id="zBE7G29B3W7qB8N71hoa-61" value="Get connection" style="text;html=1;align=center;verticalAlign=middle;resizable=0;points=[];autosize=1;strokeColor=none;fillColor=none;" vertex="1" parent="1">
          <mxGeometry x="2340" y="-2550" width="100" height="30" as="geometry" />
        </mxCell>
        <mxCell id="zBE7G29B3W7qB8N71hoa-62" value="Return connection" style="text;html=1;align=center;verticalAlign=middle;resizable=0;points=[];autosize=1;strokeColor=none;fillColor=none;" vertex="1" parent="1">
          <mxGeometry x="2640" y="-2270" width="120" height="30" as="geometry" />
        </mxCell>
        <mxCell id="zBE7G29B3W7qB8N71hoa-63" value="Within one transaction" style="text;html=1;align=center;verticalAlign=middle;resizable=0;points=[];autosize=1;strokeColor=#82b366;fillColor=#d5e8d4;" vertex="1" parent="1">
          <mxGeometry x="2000" y="-2460" width="140" height="30" as="geometry" />
        </mxCell>
        <mxCell id="zBE7G29B3W7qB8N71hoa-68" value="" style="endArrow=classic;html=1;rounded=0;" edge="1" parent="1">
          <mxGeometry width="50" height="50" relative="1" as="geometry">
            <mxPoint x="865" y="-2680" as="sourcePoint" />
            <mxPoint x="864" y="-2580" as="targetPoint" />
          </mxGeometry>
        </mxCell>
        <mxCell id="zBE7G29B3W7qB8N71hoa-69" value="Connection with context" style="text;html=1;align=center;verticalAlign=middle;resizable=0;points=[];autosize=1;strokeColor=#d79b00;fillColor=#ffe6cc;" vertex="1" parent="1">
          <mxGeometry x="1190" y="-2430" width="150" height="30" as="geometry" />
        </mxCell>
        <mxCell id="zBE7G29B3W7qB8N71hoa-70" value="" style="endArrow=none;dashed=1;html=1;dashPattern=1 3;strokeWidth=2;rounded=0;" edge="1" parent="1" source="zBE7G29B3W7qB8N71hoa-24" target="zBE7G29B3W7qB8N71hoa-69">
          <mxGeometry width="50" height="50" relative="1" as="geometry">
            <mxPoint x="870" y="-2400" as="sourcePoint" />
            <mxPoint x="1340" y="-2450" as="targetPoint" />
          </mxGeometry>
        </mxCell>
        <mxCell id="zBE7G29B3W7qB8N71hoa-71" value="Connection without context" style="text;html=1;align=center;verticalAlign=middle;resizable=0;points=[];autosize=1;strokeColor=#d79b00;fillColor=#ffe6cc;" vertex="1" parent="1">
          <mxGeometry x="570" y="-2270" width="170" height="30" as="geometry" />
        </mxCell>
        <mxCell id="zBE7G29B3W7qB8N71hoa-72" value="" style="endArrow=none;dashed=1;html=1;dashPattern=1 3;strokeWidth=2;rounded=0;" edge="1" parent="1" source="zBE7G29B3W7qB8N71hoa-71" target="zBE7G29B3W7qB8N71hoa-26">
          <mxGeometry width="50" height="50" relative="1" as="geometry">
            <mxPoint x="730" y="-2310" as="sourcePoint" />
            <mxPoint x="780" y="-2360" as="targetPoint" />
          </mxGeometry>
        </mxCell>
        <mxCell id="zBE7G29B3W7qB8N71hoa-73" value="" style="endArrow=none;dashed=1;html=1;dashPattern=1 3;strokeWidth=2;rounded=0;exitX=0.99;exitY=0.371;exitDx=0;exitDy=0;exitPerimeter=0;" edge="1" parent="1" source="zBE7G29B3W7qB8N71hoa-71" target="zBE7G29B3W7qB8N71hoa-27">
          <mxGeometry width="50" height="50" relative="1" as="geometry">
            <mxPoint x="750" y="-2294" as="sourcePoint" />
            <mxPoint x="850" y="-2298" as="targetPoint" />
          </mxGeometry>
        </mxCell>
        <mxCell id="zBE7G29B3W7qB8N71hoa-77" style="edgeStyle=orthogonalEdgeStyle;rounded=0;orthogonalLoop=1;jettySize=auto;html=1;exitX=0.5;exitY=1;exitDx=0;exitDy=0;" edge="1" parent="1" source="zBE7G29B3W7qB8N71hoa-74" target="zBE7G29B3W7qB8N71hoa-76">
          <mxGeometry relative="1" as="geometry" />
        </mxCell>
        <mxCell id="zBE7G29B3W7qB8N71hoa-74" value="bulk mode?" style="rhombus;whiteSpace=wrap;html=1;" vertex="1" parent="1">
          <mxGeometry x="1470" y="-2609.5" width="80" height="80" as="geometry" />
        </mxCell>
        <mxCell id="zBE7G29B3W7qB8N71hoa-75" value="" style="endArrow=classic;html=1;rounded=0;" edge="1" parent="1">
          <mxGeometry width="50" height="50" relative="1" as="geometry">
            <mxPoint x="1510.5" y="-2710" as="sourcePoint" />
            <mxPoint x="1509.5" y="-2610" as="targetPoint" />
          </mxGeometry>
        </mxCell>
        <mxCell id="zBE7G29B3W7qB8N71hoa-76" value="" style="shape=process;whiteSpace=wrap;html=1;backgroundOutline=1;" vertex="1" parent="1">
          <mxGeometry x="1450" y="-2430" width="120" height="60" as="geometry" />
        </mxCell>
        <mxCell id="zBE7G29B3W7qB8N71hoa-78" value="No" style="text;html=1;align=center;verticalAlign=middle;resizable=0;points=[];autosize=1;strokeColor=none;fillColor=none;" vertex="1" parent="1">
          <mxGeometry x="1510" y="-2500" width="40" height="30" as="geometry" />
        </mxCell>
        <mxCell id="zBE7G29B3W7qB8N71hoa-79" value="Business statement" style="text;html=1;align=center;verticalAlign=middle;resizable=0;points=[];autosize=1;strokeColor=none;fillColor=none;" vertex="1" parent="1">
          <mxGeometry x="1570" y="-2414" width="130" height="30" as="geometry" />
        </mxCell>
        <mxCell id="zBE7G29B3W7qB8N71hoa-80" value="" style="image;sketch=0;aspect=fixed;html=1;points=[];align=center;fontSize=12;image=img/lib/mscae/Connection.svg;imageBackground=#99CCFF;" vertex="1" parent="1">
          <mxGeometry x="1485" y="-2415" width="50" height="31" as="geometry" />
        </mxCell>
        <mxCell id="zBE7G29B3W7qB8N71hoa-81" value="" style="endArrow=none;dashed=1;html=1;dashPattern=1 3;strokeWidth=2;rounded=0;" edge="1" parent="1" source="zBE7G29B3W7qB8N71hoa-69" target="zBE7G29B3W7qB8N71hoa-80">
          <mxGeometry width="50" height="50" relative="1" as="geometry">
            <mxPoint x="1071.5" y="-2336" as="sourcePoint" />
            <mxPoint x="1371.5" y="-2340" as="targetPoint" />
          </mxGeometry>
        </mxCell>
        <mxCell id="zBE7G29B3W7qB8N71hoa-82" value="" style="endArrow=none;html=1;rounded=0;entryX=0.009;entryY=0.633;entryDx=0;entryDy=0;entryPerimeter=0;dashed=1;dashPattern=8 8;" edge="1" parent="1" source="zBE7G29B3W7qB8N71hoa-20">
          <mxGeometry width="50" height="50" relative="1" as="geometry">
            <mxPoint x="1237" y="-2710" as="sourcePoint" />
            <mxPoint x="1321" y="-2771" as="targetPoint" />
          </mxGeometry>
        </mxCell>
        <mxCell id="zBE7G29B3W7qB8N71hoa-83" value="" style="endArrow=none;html=1;rounded=0;entryX=0.009;entryY=0.633;entryDx=0;entryDy=0;entryPerimeter=0;dashed=1;dashPattern=8 8;" edge="1" parent="1" source="zBE7G29B3W7qB8N71hoa-21">
          <mxGeometry width="50" height="50" relative="1" as="geometry">
            <mxPoint x="1247" y="-2700" as="sourcePoint" />
            <mxPoint x="1331" y="-2761" as="targetPoint" />
          </mxGeometry>
        </mxCell>
        <mxCell id="zBE7G29B3W7qB8N71hoa-84" value="Request from Dataload" style="text;html=1;align=center;verticalAlign=middle;resizable=0;points=[];autosize=1;strokeColor=#9673a6;fillColor=#e1d5e7;" vertex="1" parent="1">
          <mxGeometry x="700" y="-2679" width="150" height="30" as="geometry" />
        </mxCell>
        <mxCell id="zBE7G29B3W7qB8N71hoa-85" value="Request from customer" style="text;html=1;align=center;verticalAlign=middle;resizable=0;points=[];autosize=1;strokeColor=#9673a6;fillColor=#e1d5e7;" vertex="1" parent="1">
          <mxGeometry x="1520" y="-2710.5" width="150" height="30" as="geometry" />
        </mxCell>
        <mxCell id="zBE7G29B3W7qB8N71hoa-87" value="Get connection" style="text;html=1;align=center;verticalAlign=middle;resizable=0;points=[];autosize=1;strokeColor=#6c8ebf;fillColor=#dae8fc;" vertex="1" parent="1">
          <mxGeometry x="1350" y="-2552" width="100" height="30" as="geometry" />
        </mxCell>
      </root>
    </mxGraphModel>
  </diagram>
</mxfile>
