<mxfile host="app.diagrams.net" modified="2024-05-16T09:16:15.483Z" agent="Mozilla/5.0 (Macintosh; Intel Mac OS X 10_15_7) AppleWebKit/537.36 (KHTML, like Gecko) Chrome/124.0.0.0 Safari/537.36" etag="jLrv3drOgtmuD32uBnGn" version="24.4.2" type="gitlab">
  <diagram name="Page-1" id="u9oi7pwon-1BlbRwhy11">
    <mxGraphModel dx="3807" dy="1779" grid="1" gridSize="10" guides="1" tooltips="1" connect="1" arrows="1" fold="1" page="1" pageScale="1" pageWidth="850" pageHeight="1100" math="0" shadow="0">
      <root>
        <mxCell id="0" />
        <mxCell id="1" parent="0" />
        <mxCell id="Tl9PxRhG5Vz8yD-yXxrD-131" value="" style="rounded=0;whiteSpace=wrap;html=1;" parent="1" vertex="1">
          <mxGeometry x="-1075" y="2525" width="410" height="550" as="geometry" />
        </mxCell>
        <mxCell id="Tl9PxRhG5Vz8yD-yXxrD-27" value="" style="rounded=0;whiteSpace=wrap;html=1;" parent="1" vertex="1">
          <mxGeometry x="-2260" y="220" width="750" height="290" as="geometry" />
        </mxCell>
        <mxCell id="Tl9PxRhG5Vz8yD-yXxrD-26" value="" style="rounded=0;whiteSpace=wrap;html=1;" parent="1" vertex="1">
          <mxGeometry x="-2260" y="-110" width="750" height="310" as="geometry" />
        </mxCell>
        <mxCell id="kNTn4liTKgEESVAy0PK6-94" value="" style="rounded=0;whiteSpace=wrap;html=1;" parent="1" vertex="1">
          <mxGeometry x="710" y="137.5" width="450" height="475" as="geometry" />
        </mxCell>
        <mxCell id="kNTn4liTKgEESVAy0PK6-4" style="edgeStyle=orthogonalEdgeStyle;rounded=0;orthogonalLoop=1;jettySize=auto;html=1;exitX=0.5;exitY=1;exitDx=0;exitDy=0;exitPerimeter=0;entryX=0.5;entryY=0;entryDx=0;entryDy=0;" parent="1" source="kNTn4liTKgEESVAy0PK6-1" target="kNTn4liTKgEESVAy0PK6-2" edge="1">
          <mxGeometry relative="1" as="geometry" />
        </mxCell>
        <mxCell id="kNTn4liTKgEESVAy0PK6-1" value="Start" style="strokeWidth=2;html=1;shape=mxgraph.flowchart.start_2;whiteSpace=wrap;" parent="1" vertex="1">
          <mxGeometry x="325" y="250" width="65" height="60" as="geometry" />
        </mxCell>
        <mxCell id="kNTn4liTKgEESVAy0PK6-2" value="" style="verticalLabelPosition=bottom;verticalAlign=top;html=1;shape=process;whiteSpace=wrap;rounded=1;size=0.14;arcSize=6;" parent="1" vertex="1">
          <mxGeometry x="307.5" y="400" width="100" height="60" as="geometry" />
        </mxCell>
        <mxCell id="kNTn4liTKgEESVAy0PK6-3" value="Detect Modifications" style="text;html=1;align=center;verticalAlign=middle;resizable=0;points=[];autosize=1;strokeColor=none;fillColor=none;" parent="1" vertex="1">
          <mxGeometry x="170" y="415" width="130" height="30" as="geometry" />
        </mxCell>
        <mxCell id="kNTn4liTKgEESVAy0PK6-9" style="edgeStyle=orthogonalEdgeStyle;rounded=0;orthogonalLoop=1;jettySize=auto;html=1;" parent="1" source="kNTn4liTKgEESVAy0PK6-6" target="kNTn4liTKgEESVAy0PK6-8" edge="1">
          <mxGeometry relative="1" as="geometry" />
        </mxCell>
        <mxCell id="kNTn4liTKgEESVAy0PK6-10" value="Yes" style="edgeLabel;html=1;align=center;verticalAlign=middle;resizable=0;points=[];" parent="kNTn4liTKgEESVAy0PK6-9" vertex="1" connectable="0">
          <mxGeometry x="-0.1726" relative="1" as="geometry">
            <mxPoint y="-10" as="offset" />
          </mxGeometry>
        </mxCell>
        <mxCell id="kNTn4liTKgEESVAy0PK6-16" style="edgeStyle=orthogonalEdgeStyle;rounded=0;orthogonalLoop=1;jettySize=auto;html=1;" parent="1" source="kNTn4liTKgEESVAy0PK6-6" target="kNTn4liTKgEESVAy0PK6-15" edge="1">
          <mxGeometry relative="1" as="geometry" />
        </mxCell>
        <mxCell id="kNTn4liTKgEESVAy0PK6-20" value="No" style="edgeLabel;html=1;align=center;verticalAlign=middle;resizable=0;points=[];" parent="kNTn4liTKgEESVAy0PK6-16" vertex="1" connectable="0">
          <mxGeometry x="-0.72" y="2" relative="1" as="geometry">
            <mxPoint x="21" y="-1" as="offset" />
          </mxGeometry>
        </mxCell>
        <mxCell id="kNTn4liTKgEESVAy0PK6-6" value="Has &lt;br&gt;Modifications" style="strokeWidth=2;html=1;shape=mxgraph.flowchart.decision;whiteSpace=wrap;" parent="1" vertex="1">
          <mxGeometry x="307.5" y="550" width="100" height="100" as="geometry" />
        </mxCell>
        <mxCell id="kNTn4liTKgEESVAy0PK6-7" style="edgeStyle=orthogonalEdgeStyle;rounded=0;orthogonalLoop=1;jettySize=auto;html=1;entryX=0.5;entryY=0;entryDx=0;entryDy=0;entryPerimeter=0;" parent="1" source="kNTn4liTKgEESVAy0PK6-2" target="kNTn4liTKgEESVAy0PK6-6" edge="1">
          <mxGeometry relative="1" as="geometry" />
        </mxCell>
        <mxCell id="kNTn4liTKgEESVAy0PK6-19" style="edgeStyle=orthogonalEdgeStyle;rounded=0;orthogonalLoop=1;jettySize=auto;html=1;entryX=0.5;entryY=0;entryDx=0;entryDy=0;entryPerimeter=0;" parent="1" source="kNTn4liTKgEESVAy0PK6-8" target="kNTn4liTKgEESVAy0PK6-15" edge="1">
          <mxGeometry relative="1" as="geometry">
            <mxPoint x="460" y="720" as="targetPoint" />
            <Array as="points">
              <mxPoint x="358" y="700" />
            </Array>
          </mxGeometry>
        </mxCell>
        <mxCell id="kNTn4liTKgEESVAy0PK6-8" value="" style="shape=process;whiteSpace=wrap;html=1;backgroundOutline=1;" parent="1" vertex="1">
          <mxGeometry x="510" y="670" width="120" height="60" as="geometry" />
        </mxCell>
        <mxCell id="kNTn4liTKgEESVAy0PK6-15" value="End" style="strokeWidth=2;html=1;shape=mxgraph.flowchart.terminator;whiteSpace=wrap;" parent="1" vertex="1">
          <mxGeometry x="307.5" y="800" width="100" height="60" as="geometry" />
        </mxCell>
        <mxCell id="kNTn4liTKgEESVAy0PK6-18" value="Mark automation out-of-date" style="text;html=1;align=center;verticalAlign=middle;resizable=0;points=[];autosize=1;strokeColor=none;fillColor=none;" parent="1" vertex="1">
          <mxGeometry x="670" y="685" width="170" height="30" as="geometry" />
        </mxCell>
        <mxCell id="kNTn4liTKgEESVAy0PK6-22" value="Automation 1" style="ellipse;whiteSpace=wrap;html=1;" parent="1" vertex="1">
          <mxGeometry x="-580" width="100" height="60" as="geometry" />
        </mxCell>
        <mxCell id="kNTn4liTKgEESVAy0PK6-23" value="Automation 1" style="ellipse;whiteSpace=wrap;html=1;" parent="1" vertex="1">
          <mxGeometry x="-570" y="10" width="100" height="60" as="geometry" />
        </mxCell>
        <mxCell id="kNTn4liTKgEESVAy0PK6-24" value="Automation 1" style="ellipse;whiteSpace=wrap;html=1;" parent="1" vertex="1">
          <mxGeometry x="-560" y="20" width="100" height="60" as="geometry" />
        </mxCell>
        <mxCell id="kNTn4liTKgEESVAy0PK6-25" value="" style="ellipse;whiteSpace=wrap;html=1;" parent="1" vertex="1">
          <mxGeometry x="-550" y="30" width="100" height="60" as="geometry" />
        </mxCell>
        <mxCell id="kNTn4liTKgEESVAy0PK6-26" value="" style="whiteSpace=wrap;html=1;aspect=fixed;" parent="1" vertex="1">
          <mxGeometry x="-650" y="220" width="310" height="310" as="geometry" />
        </mxCell>
        <mxCell id="kNTn4liTKgEESVAy0PK6-28" value="Template&lt;br&gt;Modification&lt;br&gt;Detector" style="rounded=1;whiteSpace=wrap;html=1;absoluteArcSize=1;arcSize=14;strokeWidth=2;" parent="1" vertex="1">
          <mxGeometry x="-610" y="245" width="85" height="70" as="geometry" />
        </mxCell>
        <mxCell id="kNTn4liTKgEESVAy0PK6-29" value="Template Step&lt;br&gt;Modification&lt;br&gt;Detector" style="rounded=1;whiteSpace=wrap;html=1;absoluteArcSize=1;arcSize=14;strokeWidth=2;" parent="1" vertex="1">
          <mxGeometry x="-495" y="245" width="85" height="70" as="geometry" />
        </mxCell>
        <mxCell id="kNTn4liTKgEESVAy0PK6-30" value="Template Step&lt;br&gt;Attribute Modification&lt;br&gt;Detector" style="rounded=1;whiteSpace=wrap;html=1;absoluteArcSize=1;arcSize=14;strokeWidth=2;" parent="1" vertex="1">
          <mxGeometry x="-610" y="340" width="85" height="70" as="geometry" />
        </mxCell>
        <mxCell id="kNTn4liTKgEESVAy0PK6-31" value="Template Number Format&lt;br&gt;Modification&lt;br&gt;Detector" style="rounded=1;whiteSpace=wrap;html=1;absoluteArcSize=1;arcSize=14;strokeWidth=2;" parent="1" vertex="1">
          <mxGeometry x="-495" y="340" width="85" height="70" as="geometry" />
        </mxCell>
        <mxCell id="kNTn4liTKgEESVAy0PK6-32" value="User&lt;br&gt;Modification&lt;br&gt;Detector" style="rounded=1;whiteSpace=wrap;html=1;absoluteArcSize=1;arcSize=14;strokeWidth=2;" parent="1" vertex="1">
          <mxGeometry x="-610" y="430" width="85" height="70" as="geometry" />
        </mxCell>
        <mxCell id="kNTn4liTKgEESVAy0PK6-33" value="User Group&lt;br&gt;Modification&lt;br&gt;Detector" style="rounded=1;whiteSpace=wrap;html=1;absoluteArcSize=1;arcSize=14;strokeWidth=2;" parent="1" vertex="1">
          <mxGeometry x="-495" y="430" width="85" height="70" as="geometry" />
        </mxCell>
        <mxCell id="kNTn4liTKgEESVAy0PK6-34" value="" style="shape=flexArrow;endArrow=classic;html=1;rounded=0;" parent="1" edge="1">
          <mxGeometry width="50" height="50" relative="1" as="geometry">
            <mxPoint x="-510.5" y="120" as="sourcePoint" />
            <mxPoint x="-510.5" y="200" as="targetPoint" />
          </mxGeometry>
        </mxCell>
        <mxCell id="kNTn4liTKgEESVAy0PK6-35" value="" style="shape=flexArrow;endArrow=classic;html=1;rounded=0;" parent="1" edge="1">
          <mxGeometry width="50" height="50" relative="1" as="geometry">
            <mxPoint x="-540" y="560" as="sourcePoint" />
            <mxPoint x="-615" y="640" as="targetPoint" />
          </mxGeometry>
        </mxCell>
        <mxCell id="kNTn4liTKgEESVAy0PK6-36" value="" style="shape=flexArrow;endArrow=classic;html=1;rounded=0;" parent="1" edge="1">
          <mxGeometry width="50" height="50" relative="1" as="geometry">
            <mxPoint x="-455" y="560" as="sourcePoint" />
            <mxPoint x="-375" y="640" as="targetPoint" />
          </mxGeometry>
        </mxCell>
        <mxCell id="kNTn4liTKgEESVAy0PK6-41" value="Automations" style="text;html=1;align=center;verticalAlign=middle;resizable=0;points=[];autosize=1;strokeColor=none;fillColor=none;" parent="1" vertex="1">
          <mxGeometry x="-430" y="35" width="90" height="30" as="geometry" />
        </mxCell>
        <mxCell id="kNTn4liTKgEESVAy0PK6-42" value="Automation 1" style="ellipse;whiteSpace=wrap;html=1;" parent="1" vertex="1">
          <mxGeometry x="-685" y="655" width="100" height="60" as="geometry" />
        </mxCell>
        <mxCell id="kNTn4liTKgEESVAy0PK6-43" value="Automation 1" style="ellipse;whiteSpace=wrap;html=1;" parent="1" vertex="1">
          <mxGeometry x="-675" y="665" width="100" height="60" as="geometry" />
        </mxCell>
        <mxCell id="kNTn4liTKgEESVAy0PK6-44" value="Automation 1" style="ellipse;whiteSpace=wrap;html=1;" parent="1" vertex="1">
          <mxGeometry x="-665" y="675" width="100" height="60" as="geometry" />
        </mxCell>
        <mxCell id="kNTn4liTKgEESVAy0PK6-45" value="" style="ellipse;whiteSpace=wrap;html=1;" parent="1" vertex="1">
          <mxGeometry x="-655" y="685" width="100" height="60" as="geometry" />
        </mxCell>
        <mxCell id="kNTn4liTKgEESVAy0PK6-46" value="Up-to-date automations" style="text;html=1;align=center;verticalAlign=middle;resizable=0;points=[];autosize=1;strokeColor=none;fillColor=none;" parent="1" vertex="1">
          <mxGeometry x="-700" y="760" width="150" height="30" as="geometry" />
        </mxCell>
        <mxCell id="kNTn4liTKgEESVAy0PK6-47" value="Automation 1" style="ellipse;whiteSpace=wrap;html=1;" parent="1" vertex="1">
          <mxGeometry x="-395" y="655" width="100" height="60" as="geometry" />
        </mxCell>
        <mxCell id="kNTn4liTKgEESVAy0PK6-48" value="Automation 1" style="ellipse;whiteSpace=wrap;html=1;" parent="1" vertex="1">
          <mxGeometry x="-385" y="665" width="100" height="60" as="geometry" />
        </mxCell>
        <mxCell id="kNTn4liTKgEESVAy0PK6-49" value="Automation 1" style="ellipse;whiteSpace=wrap;html=1;" parent="1" vertex="1">
          <mxGeometry x="-375" y="675" width="100" height="60" as="geometry" />
        </mxCell>
        <mxCell id="kNTn4liTKgEESVAy0PK6-50" value="" style="ellipse;whiteSpace=wrap;html=1;" parent="1" vertex="1">
          <mxGeometry x="-365" y="685" width="100" height="60" as="geometry" />
        </mxCell>
        <mxCell id="kNTn4liTKgEESVAy0PK6-51" value="Out-of-date automations" style="text;html=1;align=center;verticalAlign=middle;resizable=0;points=[];autosize=1;strokeColor=none;fillColor=none;" parent="1" vertex="1">
          <mxGeometry x="-400" y="760" width="150" height="30" as="geometry" />
        </mxCell>
        <mxCell id="kNTn4liTKgEESVAy0PK6-52" value="Modification Detectors" style="text;html=1;align=center;verticalAlign=middle;resizable=0;points=[];autosize=1;strokeColor=none;fillColor=none;" parent="1" vertex="1">
          <mxGeometry x="-330" y="340" width="140" height="30" as="geometry" />
        </mxCell>
        <mxCell id="kNTn4liTKgEESVAy0PK6-53" value="«interface»&lt;br&gt;&lt;b&gt;ModificationDetector&lt;/b&gt;" style="html=1;whiteSpace=wrap;" parent="1" vertex="1">
          <mxGeometry x="-550" y="1130" width="145" height="60" as="geometry" />
        </mxCell>
        <mxCell id="kNTn4liTKgEESVAy0PK6-54" value="&lt;span style=&quot;font-weight: normal;&quot;&gt;TemplateModificationDetector&lt;/span&gt;" style="swimlane;fontStyle=1;align=center;verticalAlign=top;childLayout=stackLayout;horizontal=1;startSize=26;horizontalStack=0;resizeParent=1;resizeParentMax=0;resizeLast=0;collapsible=1;marginBottom=0;whiteSpace=wrap;html=1;" parent="1" vertex="1">
          <mxGeometry x="-885" y="1370" width="220" height="86" as="geometry" />
        </mxCell>
        <mxCell id="kNTn4liTKgEESVAy0PK6-55" value="+ field: type" style="text;strokeColor=none;fillColor=none;align=left;verticalAlign=top;spacingLeft=4;spacingRight=4;overflow=hidden;rotatable=0;points=[[0,0.5],[1,0.5]];portConstraint=eastwest;whiteSpace=wrap;html=1;" parent="kNTn4liTKgEESVAy0PK6-54" vertex="1">
          <mxGeometry y="26" width="220" height="26" as="geometry" />
        </mxCell>
        <mxCell id="kNTn4liTKgEESVAy0PK6-56" value="" style="line;strokeWidth=1;fillColor=none;align=left;verticalAlign=middle;spacingTop=-1;spacingLeft=3;spacingRight=3;rotatable=0;labelPosition=right;points=[];portConstraint=eastwest;strokeColor=inherit;" parent="kNTn4liTKgEESVAy0PK6-54" vertex="1">
          <mxGeometry y="52" width="220" height="8" as="geometry" />
        </mxCell>
        <mxCell id="kNTn4liTKgEESVAy0PK6-57" value="+ doDetect(type): type" style="text;strokeColor=none;fillColor=none;align=left;verticalAlign=top;spacingLeft=4;spacingRight=4;overflow=hidden;rotatable=0;points=[[0,0.5],[1,0.5]];portConstraint=eastwest;whiteSpace=wrap;html=1;" parent="kNTn4liTKgEESVAy0PK6-54" vertex="1">
          <mxGeometry y="60" width="220" height="26" as="geometry" />
        </mxCell>
        <mxCell id="kNTn4liTKgEESVAy0PK6-58" value="" style="endArrow=block;dashed=1;endFill=0;endSize=12;html=1;rounded=0;exitX=0.473;exitY=0.012;exitDx=0;exitDy=0;exitPerimeter=0;" parent="1" source="kNTn4liTKgEESVAy0PK6-54" edge="1">
          <mxGeometry width="160" relative="1" as="geometry">
            <mxPoint x="-570" y="1490" as="sourcePoint" />
            <mxPoint x="-510" y="1200" as="targetPoint" />
            <Array as="points">
              <mxPoint x="-780" y="1290" />
              <mxPoint x="-510" y="1290" />
              <mxPoint x="-510" y="1270" />
            </Array>
          </mxGeometry>
        </mxCell>
        <mxCell id="kNTn4liTKgEESVAy0PK6-59" value="TemplateStepModificationDetector" style="swimlane;fontStyle=1;align=center;verticalAlign=top;childLayout=stackLayout;horizontal=1;startSize=26;horizontalStack=0;resizeParent=1;resizeParentMax=0;resizeLast=0;collapsible=1;marginBottom=0;whiteSpace=wrap;html=1;" parent="1" vertex="1">
          <mxGeometry x="-580" y="1370" width="220" height="86" as="geometry" />
        </mxCell>
        <mxCell id="kNTn4liTKgEESVAy0PK6-60" value="+ field: type" style="text;strokeColor=none;fillColor=none;align=left;verticalAlign=top;spacingLeft=4;spacingRight=4;overflow=hidden;rotatable=0;points=[[0,0.5],[1,0.5]];portConstraint=eastwest;whiteSpace=wrap;html=1;" parent="kNTn4liTKgEESVAy0PK6-59" vertex="1">
          <mxGeometry y="26" width="220" height="26" as="geometry" />
        </mxCell>
        <mxCell id="kNTn4liTKgEESVAy0PK6-61" value="" style="line;strokeWidth=1;fillColor=none;align=left;verticalAlign=middle;spacingTop=-1;spacingLeft=3;spacingRight=3;rotatable=0;labelPosition=right;points=[];portConstraint=eastwest;strokeColor=inherit;" parent="kNTn4liTKgEESVAy0PK6-59" vertex="1">
          <mxGeometry y="52" width="220" height="8" as="geometry" />
        </mxCell>
        <mxCell id="kNTn4liTKgEESVAy0PK6-62" value="+ doDetect(type): type" style="text;strokeColor=none;fillColor=none;align=left;verticalAlign=top;spacingLeft=4;spacingRight=4;overflow=hidden;rotatable=0;points=[[0,0.5],[1,0.5]];portConstraint=eastwest;whiteSpace=wrap;html=1;" parent="kNTn4liTKgEESVAy0PK6-59" vertex="1">
          <mxGeometry y="60" width="220" height="26" as="geometry" />
        </mxCell>
        <mxCell id="kNTn4liTKgEESVAy0PK6-63" value="" style="endArrow=block;dashed=1;endFill=0;endSize=12;html=1;rounded=0;exitX=0.473;exitY=0.012;exitDx=0;exitDy=0;exitPerimeter=0;" parent="1" source="kNTn4liTKgEESVAy0PK6-59" edge="1">
          <mxGeometry width="160" relative="1" as="geometry">
            <mxPoint x="-275" y="1490" as="sourcePoint" />
            <mxPoint x="-476" y="1200" as="targetPoint" />
          </mxGeometry>
        </mxCell>
        <mxCell id="kNTn4liTKgEESVAy0PK6-64" value="TemplateStepAttributeModificationDetector" style="swimlane;fontStyle=1;align=center;verticalAlign=top;childLayout=stackLayout;horizontal=1;startSize=26;horizontalStack=0;resizeParent=1;resizeParentMax=0;resizeLast=0;collapsible=1;marginBottom=0;whiteSpace=wrap;html=1;" parent="1" vertex="1">
          <mxGeometry x="-260" y="1370" width="280" height="86" as="geometry" />
        </mxCell>
        <mxCell id="kNTn4liTKgEESVAy0PK6-65" value="+ field: type" style="text;strokeColor=none;fillColor=none;align=left;verticalAlign=top;spacingLeft=4;spacingRight=4;overflow=hidden;rotatable=0;points=[[0,0.5],[1,0.5]];portConstraint=eastwest;whiteSpace=wrap;html=1;" parent="kNTn4liTKgEESVAy0PK6-64" vertex="1">
          <mxGeometry y="26" width="280" height="26" as="geometry" />
        </mxCell>
        <mxCell id="kNTn4liTKgEESVAy0PK6-66" value="" style="line;strokeWidth=1;fillColor=none;align=left;verticalAlign=middle;spacingTop=-1;spacingLeft=3;spacingRight=3;rotatable=0;labelPosition=right;points=[];portConstraint=eastwest;strokeColor=inherit;" parent="kNTn4liTKgEESVAy0PK6-64" vertex="1">
          <mxGeometry y="52" width="280" height="8" as="geometry" />
        </mxCell>
        <mxCell id="kNTn4liTKgEESVAy0PK6-67" value="+ doDetect(type): type" style="text;strokeColor=none;fillColor=none;align=left;verticalAlign=top;spacingLeft=4;spacingRight=4;overflow=hidden;rotatable=0;points=[[0,0.5],[1,0.5]];portConstraint=eastwest;whiteSpace=wrap;html=1;" parent="kNTn4liTKgEESVAy0PK6-64" vertex="1">
          <mxGeometry y="60" width="280" height="26" as="geometry" />
        </mxCell>
        <mxCell id="kNTn4liTKgEESVAy0PK6-72" value="&lt;span style=&quot;font-weight: normal;&quot;&gt;TemplateNumberFormatModificationDetector&lt;/span&gt;" style="swimlane;fontStyle=1;align=center;verticalAlign=top;childLayout=stackLayout;horizontal=1;startSize=26;horizontalStack=0;resizeParent=1;resizeParentMax=0;resizeLast=0;collapsible=1;marginBottom=0;whiteSpace=wrap;html=1;" parent="1" vertex="1">
          <mxGeometry x="-790" y="1500" width="280" height="86" as="geometry" />
        </mxCell>
        <mxCell id="kNTn4liTKgEESVAy0PK6-73" value="+ field: type" style="text;strokeColor=none;fillColor=none;align=left;verticalAlign=top;spacingLeft=4;spacingRight=4;overflow=hidden;rotatable=0;points=[[0,0.5],[1,0.5]];portConstraint=eastwest;whiteSpace=wrap;html=1;" parent="kNTn4liTKgEESVAy0PK6-72" vertex="1">
          <mxGeometry y="26" width="280" height="26" as="geometry" />
        </mxCell>
        <mxCell id="kNTn4liTKgEESVAy0PK6-74" value="" style="line;strokeWidth=1;fillColor=none;align=left;verticalAlign=middle;spacingTop=-1;spacingLeft=3;spacingRight=3;rotatable=0;labelPosition=right;points=[];portConstraint=eastwest;strokeColor=inherit;" parent="kNTn4liTKgEESVAy0PK6-72" vertex="1">
          <mxGeometry y="52" width="280" height="8" as="geometry" />
        </mxCell>
        <mxCell id="kNTn4liTKgEESVAy0PK6-75" value="+ doDetect(type): type" style="text;strokeColor=none;fillColor=none;align=left;verticalAlign=top;spacingLeft=4;spacingRight=4;overflow=hidden;rotatable=0;points=[[0,0.5],[1,0.5]];portConstraint=eastwest;whiteSpace=wrap;html=1;" parent="kNTn4liTKgEESVAy0PK6-72" vertex="1">
          <mxGeometry y="60" width="280" height="26" as="geometry" />
        </mxCell>
        <mxCell id="kNTn4liTKgEESVAy0PK6-76" value="UserModificationDetector" style="swimlane;fontStyle=1;align=center;verticalAlign=top;childLayout=stackLayout;horizontal=1;startSize=26;horizontalStack=0;resizeParent=1;resizeParentMax=0;resizeLast=0;collapsible=1;marginBottom=0;whiteSpace=wrap;html=1;" parent="1" vertex="1">
          <mxGeometry x="-450" y="1500" width="280" height="86" as="geometry" />
        </mxCell>
        <mxCell id="kNTn4liTKgEESVAy0PK6-77" value="+ field: type" style="text;strokeColor=none;fillColor=none;align=left;verticalAlign=top;spacingLeft=4;spacingRight=4;overflow=hidden;rotatable=0;points=[[0,0.5],[1,0.5]];portConstraint=eastwest;whiteSpace=wrap;html=1;" parent="kNTn4liTKgEESVAy0PK6-76" vertex="1">
          <mxGeometry y="26" width="280" height="26" as="geometry" />
        </mxCell>
        <mxCell id="kNTn4liTKgEESVAy0PK6-78" value="" style="line;strokeWidth=1;fillColor=none;align=left;verticalAlign=middle;spacingTop=-1;spacingLeft=3;spacingRight=3;rotatable=0;labelPosition=right;points=[];portConstraint=eastwest;strokeColor=inherit;" parent="kNTn4liTKgEESVAy0PK6-76" vertex="1">
          <mxGeometry y="52" width="280" height="8" as="geometry" />
        </mxCell>
        <mxCell id="kNTn4liTKgEESVAy0PK6-79" value="+ doDetect(type): type" style="text;strokeColor=none;fillColor=none;align=left;verticalAlign=top;spacingLeft=4;spacingRight=4;overflow=hidden;rotatable=0;points=[[0,0.5],[1,0.5]];portConstraint=eastwest;whiteSpace=wrap;html=1;" parent="kNTn4liTKgEESVAy0PK6-76" vertex="1">
          <mxGeometry y="60" width="280" height="26" as="geometry" />
        </mxCell>
        <mxCell id="kNTn4liTKgEESVAy0PK6-80" value="UserGroupModificationDetector" style="swimlane;fontStyle=1;align=center;verticalAlign=top;childLayout=stackLayout;horizontal=1;startSize=26;horizontalStack=0;resizeParent=1;resizeParentMax=0;resizeLast=0;collapsible=1;marginBottom=0;whiteSpace=wrap;html=1;" parent="1" vertex="1">
          <mxGeometry x="-100" y="1500" width="280" height="86" as="geometry" />
        </mxCell>
        <mxCell id="kNTn4liTKgEESVAy0PK6-81" value="+ field: type" style="text;strokeColor=none;fillColor=none;align=left;verticalAlign=top;spacingLeft=4;spacingRight=4;overflow=hidden;rotatable=0;points=[[0,0.5],[1,0.5]];portConstraint=eastwest;whiteSpace=wrap;html=1;" parent="kNTn4liTKgEESVAy0PK6-80" vertex="1">
          <mxGeometry y="26" width="280" height="26" as="geometry" />
        </mxCell>
        <mxCell id="kNTn4liTKgEESVAy0PK6-82" value="" style="line;strokeWidth=1;fillColor=none;align=left;verticalAlign=middle;spacingTop=-1;spacingLeft=3;spacingRight=3;rotatable=0;labelPosition=right;points=[];portConstraint=eastwest;strokeColor=inherit;" parent="kNTn4liTKgEESVAy0PK6-80" vertex="1">
          <mxGeometry y="52" width="280" height="8" as="geometry" />
        </mxCell>
        <mxCell id="kNTn4liTKgEESVAy0PK6-83" value="+ doDetect(type): type" style="text;strokeColor=none;fillColor=none;align=left;verticalAlign=top;spacingLeft=4;spacingRight=4;overflow=hidden;rotatable=0;points=[[0,0.5],[1,0.5]];portConstraint=eastwest;whiteSpace=wrap;html=1;" parent="kNTn4liTKgEESVAy0PK6-80" vertex="1">
          <mxGeometry y="60" width="280" height="26" as="geometry" />
        </mxCell>
        <mxCell id="kNTn4liTKgEESVAy0PK6-84" value="" style="endArrow=block;dashed=1;endFill=0;endSize=12;html=1;rounded=0;exitX=0.5;exitY=0;exitDx=0;exitDy=0;" parent="1" source="kNTn4liTKgEESVAy0PK6-72" edge="1">
          <mxGeometry width="160" relative="1" as="geometry">
            <mxPoint x="-771" y="1381" as="sourcePoint" />
            <mxPoint x="-490" y="1200" as="targetPoint" />
            <Array as="points">
              <mxPoint x="-650" y="1320" />
              <mxPoint x="-490" y="1320" />
              <mxPoint x="-490" y="1260" />
              <mxPoint x="-490" y="1220" />
            </Array>
          </mxGeometry>
        </mxCell>
        <mxCell id="kNTn4liTKgEESVAy0PK6-86" value="" style="endArrow=block;dashed=1;endFill=0;endSize=12;html=1;rounded=0;exitX=0.5;exitY=0;exitDx=0;exitDy=0;" parent="1" source="kNTn4liTKgEESVAy0PK6-76" edge="1">
          <mxGeometry width="160" relative="1" as="geometry">
            <mxPoint x="-640" y="1510" as="sourcePoint" />
            <mxPoint x="-460" y="1200" as="targetPoint" />
            <Array as="points">
              <mxPoint x="-310" y="1330" />
              <mxPoint x="-460" y="1330" />
            </Array>
          </mxGeometry>
        </mxCell>
        <mxCell id="kNTn4liTKgEESVAy0PK6-87" value="" style="endArrow=block;dashed=1;endFill=0;endSize=12;html=1;rounded=0;exitX=0.5;exitY=0;exitDx=0;exitDy=0;" parent="1" source="kNTn4liTKgEESVAy0PK6-64" edge="1">
          <mxGeometry width="160" relative="1" as="geometry">
            <mxPoint x="-300" y="1510" as="sourcePoint" />
            <mxPoint x="-450" y="1200" as="targetPoint" />
            <Array as="points">
              <mxPoint x="-120" y="1320" />
              <mxPoint x="-450" y="1320" />
            </Array>
          </mxGeometry>
        </mxCell>
        <mxCell id="kNTn4liTKgEESVAy0PK6-88" value="" style="endArrow=block;dashed=1;endFill=0;endSize=12;html=1;rounded=0;exitX=0.5;exitY=0;exitDx=0;exitDy=0;" parent="1" source="kNTn4liTKgEESVAy0PK6-80" edge="1">
          <mxGeometry width="160" relative="1" as="geometry">
            <mxPoint x="-290" y="1520" as="sourcePoint" />
            <mxPoint x="-440" y="1200" as="targetPoint" />
            <Array as="points">
              <mxPoint x="40" y="1300" />
              <mxPoint x="-120" y="1300" />
              <mxPoint x="-290" y="1300" />
              <mxPoint x="-440" y="1300" />
            </Array>
          </mxGeometry>
        </mxCell>
        <mxCell id="kNTn4liTKgEESVAy0PK6-89" value="ModificationDetectManager" style="swimlane;fontStyle=1;align=center;verticalAlign=top;childLayout=stackLayout;horizontal=1;startSize=26;horizontalStack=0;resizeParent=1;resizeParentMax=0;resizeLast=0;collapsible=1;marginBottom=0;whiteSpace=wrap;html=1;" parent="1" vertex="1">
          <mxGeometry x="-160" y="1011" width="210" height="86" as="geometry" />
        </mxCell>
        <mxCell id="kNTn4liTKgEESVAy0PK6-90" value="+ detectors:&amp;nbsp;&lt;b style=&quot;border-color: var(--border-color); text-align: center;&quot;&gt;ModificationDetector&lt;/b&gt;" style="text;strokeColor=none;fillColor=none;align=left;verticalAlign=top;spacingLeft=4;spacingRight=4;overflow=hidden;rotatable=0;points=[[0,0.5],[1,0.5]];portConstraint=eastwest;whiteSpace=wrap;html=1;" parent="kNTn4liTKgEESVAy0PK6-89" vertex="1">
          <mxGeometry y="26" width="210" height="26" as="geometry" />
        </mxCell>
        <mxCell id="kNTn4liTKgEESVAy0PK6-91" value="" style="line;strokeWidth=1;fillColor=none;align=left;verticalAlign=middle;spacingTop=-1;spacingLeft=3;spacingRight=3;rotatable=0;labelPosition=right;points=[];portConstraint=eastwest;strokeColor=inherit;" parent="kNTn4liTKgEESVAy0PK6-89" vertex="1">
          <mxGeometry y="52" width="210" height="8" as="geometry" />
        </mxCell>
        <mxCell id="kNTn4liTKgEESVAy0PK6-92" value="+ detect(type): void" style="text;strokeColor=none;fillColor=none;align=left;verticalAlign=top;spacingLeft=4;spacingRight=4;overflow=hidden;rotatable=0;points=[[0,0.5],[1,0.5]];portConstraint=eastwest;whiteSpace=wrap;html=1;" parent="kNTn4liTKgEESVAy0PK6-89" vertex="1">
          <mxGeometry y="60" width="210" height="26" as="geometry" />
        </mxCell>
        <mxCell id="kNTn4liTKgEESVAy0PK6-93" value="1" style="endArrow=open;html=1;endSize=12;startArrow=diamondThin;startSize=14;startFill=0;edgeStyle=orthogonalEdgeStyle;align=left;verticalAlign=bottom;rounded=0;entryX=1;entryY=0.5;entryDx=0;entryDy=0;exitX=0;exitY=0.5;exitDx=0;exitDy=0;" parent="1" source="kNTn4liTKgEESVAy0PK6-90" target="kNTn4liTKgEESVAy0PK6-53" edge="1">
          <mxGeometry x="-1" y="3" relative="1" as="geometry">
            <mxPoint x="10" y="1140" as="sourcePoint" />
            <mxPoint x="170" y="1140" as="targetPoint" />
            <Array as="points">
              <mxPoint x="-180" y="1050" />
              <mxPoint x="-230" y="1050" />
              <mxPoint x="-230" y="1160" />
            </Array>
          </mxGeometry>
        </mxCell>
        <mxCell id="kNTn4liTKgEESVAy0PK6-97" style="edgeStyle=orthogonalEdgeStyle;rounded=0;orthogonalLoop=1;jettySize=auto;html=1;entryX=0.5;entryY=0;entryDx=0;entryDy=0;" parent="1" target="kNTn4liTKgEESVAy0PK6-95" edge="1">
          <mxGeometry relative="1" as="geometry">
            <mxPoint x="935" y="50" as="sourcePoint" />
            <Array as="points">
              <mxPoint x="935" y="50" />
            </Array>
          </mxGeometry>
        </mxCell>
        <mxCell id="kNTn4liTKgEESVAy0PK6-95" value="Get workflow task definitions" style="shape=process;whiteSpace=wrap;html=1;backgroundOutline=1;" parent="1" vertex="1">
          <mxGeometry x="875" y="170" width="120" height="60" as="geometry" />
        </mxCell>
        <mxCell id="kNTn4liTKgEESVAy0PK6-96" value="" style="endArrow=none;dashed=1;html=1;dashPattern=1 3;strokeWidth=2;rounded=0;entryX=0.005;entryY=0.182;entryDx=0;entryDy=0;entryPerimeter=0;" parent="1" target="kNTn4liTKgEESVAy0PK6-94" edge="1">
          <mxGeometry width="50" height="50" relative="1" as="geometry">
            <mxPoint x="410" y="430" as="sourcePoint" />
            <mxPoint x="460" y="380" as="targetPoint" />
          </mxGeometry>
        </mxCell>
        <mxCell id="Tl9PxRhG5Vz8yD-yXxrD-2" value="" style="ellipse;whiteSpace=wrap;html=1;aspect=fixed;" parent="1" vertex="1">
          <mxGeometry x="-2160" y="40" width="60" height="60" as="geometry" />
        </mxCell>
        <mxCell id="Tl9PxRhG5Vz8yD-yXxrD-3" value="Automation" style="text;html=1;align=center;verticalAlign=middle;resizable=0;points=[];autosize=1;strokeColor=none;fillColor=none;" parent="1" vertex="1">
          <mxGeometry x="-2220" y="100" width="80" height="30" as="geometry" />
        </mxCell>
        <mxCell id="Tl9PxRhG5Vz8yD-yXxrD-6" value="" style="ellipse;whiteSpace=wrap;html=1;aspect=fixed;" parent="1" vertex="1">
          <mxGeometry x="-1760" y="40" width="60" height="60" as="geometry" />
        </mxCell>
        <mxCell id="Tl9PxRhG5Vz8yD-yXxrD-7" value="Rest WebApp" style="text;html=1;align=center;verticalAlign=middle;resizable=0;points=[];autosize=1;strokeColor=none;fillColor=none;" parent="1" vertex="1">
          <mxGeometry x="-1710" y="90" width="100" height="30" as="geometry" />
        </mxCell>
        <mxCell id="Tl9PxRhG5Vz8yD-yXxrD-8" value="" style="endArrow=classic;html=1;rounded=0;" parent="1" source="Tl9PxRhG5Vz8yD-yXxrD-9" edge="1">
          <mxGeometry width="50" height="50" relative="1" as="geometry">
            <mxPoint x="-2070" y="60" as="sourcePoint" />
            <mxPoint x="-1860" y="60" as="targetPoint" />
          </mxGeometry>
        </mxCell>
        <mxCell id="Tl9PxRhG5Vz8yD-yXxrD-10" value="Network issue" style="text;html=1;align=center;verticalAlign=middle;resizable=0;points=[];autosize=1;strokeColor=none;fillColor=none;" parent="1" vertex="1">
          <mxGeometry x="-1990" y="130" width="100" height="30" as="geometry" />
        </mxCell>
        <mxCell id="Tl9PxRhG5Vz8yD-yXxrD-11" value="Network is not working at this time which results in&lt;br&gt;&amp;nbsp;request sent unsuccessfully" style="text;html=1;align=center;verticalAlign=middle;resizable=0;points=[];autosize=1;strokeColor=#d79b00;fillColor=#ffe6cc;" parent="1" vertex="1">
          <mxGeometry x="-2070" y="-40" width="290" height="40" as="geometry" />
        </mxCell>
        <mxCell id="Tl9PxRhG5Vz8yD-yXxrD-12" value="" style="ellipse;whiteSpace=wrap;html=1;aspect=fixed;" parent="1" vertex="1">
          <mxGeometry x="-2165" y="330" width="60" height="60" as="geometry" />
        </mxCell>
        <mxCell id="Tl9PxRhG5Vz8yD-yXxrD-13" value="Automation" style="text;html=1;align=center;verticalAlign=middle;resizable=0;points=[];autosize=1;strokeColor=none;fillColor=none;" parent="1" vertex="1">
          <mxGeometry x="-2230" y="385" width="80" height="30" as="geometry" />
        </mxCell>
        <mxCell id="Tl9PxRhG5Vz8yD-yXxrD-14" value="" style="ellipse;whiteSpace=wrap;html=1;aspect=fixed;" parent="1" vertex="1">
          <mxGeometry x="-1765" y="330" width="60" height="60" as="geometry" />
        </mxCell>
        <mxCell id="Tl9PxRhG5Vz8yD-yXxrD-15" value="Rest WebApp" style="text;html=1;align=center;verticalAlign=middle;resizable=0;points=[];autosize=1;strokeColor=none;fillColor=none;" parent="1" vertex="1">
          <mxGeometry x="-1690" y="410" width="100" height="30" as="geometry" />
        </mxCell>
        <mxCell id="Tl9PxRhG5Vz8yD-yXxrD-16" value="" style="endArrow=classic;html=1;rounded=0;" parent="1" edge="1">
          <mxGeometry width="50" height="50" relative="1" as="geometry">
            <mxPoint x="-2080" y="360" as="sourcePoint" />
            <mxPoint x="-1800" y="360" as="targetPoint" />
          </mxGeometry>
        </mxCell>
        <mxCell id="Tl9PxRhG5Vz8yD-yXxrD-18" value="Network issue" style="text;html=1;align=center;verticalAlign=middle;resizable=0;points=[];autosize=1;strokeColor=none;fillColor=none;" parent="1" vertex="1">
          <mxGeometry x="-2008.5" y="440" width="100" height="30" as="geometry" />
        </mxCell>
        <mxCell id="Tl9PxRhG5Vz8yD-yXxrD-19" value="Network is not working at this time. Request is successfully sent to Rest WebApp but the response is&lt;br&gt;not received successfully.&lt;br&gt;" style="text;html=1;align=center;verticalAlign=middle;resizable=0;points=[];autosize=1;strokeColor=#d79b00;fillColor=#ffe6cc;" parent="1" vertex="1">
          <mxGeometry x="-2210" y="250" width="560" height="40" as="geometry" />
        </mxCell>
        <mxCell id="Tl9PxRhG5Vz8yD-yXxrD-20" value="" style="endArrow=classic;html=1;rounded=0;" parent="1" source="Tl9PxRhG5Vz8yD-yXxrD-17" edge="1">
          <mxGeometry width="50" height="50" relative="1" as="geometry">
            <mxPoint x="-1800" y="390" as="sourcePoint" />
            <mxPoint x="-1960" y="390" as="targetPoint" />
          </mxGeometry>
        </mxCell>
        <mxCell id="Tl9PxRhG5Vz8yD-yXxrD-21" value="" style="endArrow=classic;html=1;rounded=0;" parent="1" edge="1">
          <mxGeometry width="50" height="50" relative="1" as="geometry">
            <mxPoint x="-1800" y="390" as="sourcePoint" />
            <mxPoint x="-1940" y="390" as="targetPoint" />
          </mxGeometry>
        </mxCell>
        <mxCell id="Tl9PxRhG5Vz8yD-yXxrD-17" value="" style="verticalLabelPosition=bottom;verticalAlign=top;html=1;shape=mxgraph.flowchart.or;fillColor=#f8cecc;strokeColor=#FF3333;" parent="1" vertex="1">
          <mxGeometry x="-1976" y="370" width="35" height="40" as="geometry" />
        </mxCell>
        <mxCell id="Tl9PxRhG5Vz8yD-yXxrD-22" value="" style="endArrow=classic;html=1;rounded=0;" parent="1" target="Tl9PxRhG5Vz8yD-yXxrD-9" edge="1">
          <mxGeometry width="50" height="50" relative="1" as="geometry">
            <mxPoint x="-2070" y="60" as="sourcePoint" />
            <mxPoint x="-1860" y="60" as="targetPoint" />
          </mxGeometry>
        </mxCell>
        <mxCell id="Tl9PxRhG5Vz8yD-yXxrD-9" value="" style="verticalLabelPosition=bottom;verticalAlign=top;html=1;shape=mxgraph.flowchart.or;fillColor=#f8cecc;strokeColor=#FF3333;" parent="1" vertex="1">
          <mxGeometry x="-1880" y="40" width="40" height="40" as="geometry" />
        </mxCell>
        <mxCell id="Tl9PxRhG5Vz8yD-yXxrD-24" style="edgeStyle=orthogonalEdgeStyle;rounded=0;orthogonalLoop=1;jettySize=auto;html=1;exitX=0.5;exitY=0;exitDx=0;exitDy=0;entryX=0.5;entryY=1;entryDx=0;entryDy=0;" parent="1" source="Tl9PxRhG5Vz8yD-yXxrD-14" target="Tl9PxRhG5Vz8yD-yXxrD-14" edge="1">
          <mxGeometry relative="1" as="geometry" />
        </mxCell>
        <mxCell id="Tl9PxRhG5Vz8yD-yXxrD-25" value="Business process is done" style="text;html=1;align=center;verticalAlign=middle;resizable=0;points=[];autosize=1;strokeColor=#d79b00;fillColor=#ffe6cc;" parent="1" vertex="1">
          <mxGeometry x="-1680" y="310" width="160" height="30" as="geometry" />
        </mxCell>
        <mxCell id="Tl9PxRhG5Vz8yD-yXxrD-29" value="" style="rounded=0;whiteSpace=wrap;html=1;" parent="1" vertex="1">
          <mxGeometry x="-2280" y="612.5" width="1030" height="660" as="geometry" />
        </mxCell>
        <mxCell id="Tl9PxRhG5Vz8yD-yXxrD-31" value="&lt;b&gt;Automation&lt;/b&gt;" style="text;html=1;align=center;verticalAlign=middle;resizable=0;points=[];autosize=1;strokeColor=none;fillColor=none;" parent="1" vertex="1">
          <mxGeometry x="-2195" y="650" width="90" height="30" as="geometry" />
        </mxCell>
        <mxCell id="Tl9PxRhG5Vz8yD-yXxrD-33" value="&lt;b&gt;Rest WebApp&lt;/b&gt;" style="text;html=1;align=center;verticalAlign=middle;resizable=0;points=[];autosize=1;strokeColor=none;fillColor=none;" parent="1" vertex="1">
          <mxGeometry x="-1620" y="650" width="100" height="30" as="geometry" />
        </mxCell>
        <mxCell id="Tl9PxRhG5Vz8yD-yXxrD-35" value="Network issue" style="text;html=1;align=center;verticalAlign=middle;resizable=0;points=[];autosize=1;strokeColor=#d79b00;fillColor=#ffe6cc;" parent="1" vertex="1">
          <mxGeometry x="-1890" y="695" width="100" height="30" as="geometry" />
        </mxCell>
        <mxCell id="Tl9PxRhG5Vz8yD-yXxrD-37" value="" style="endArrow=classic;html=1;rounded=0;" parent="1" edge="1">
          <mxGeometry width="50" height="50" relative="1" as="geometry">
            <mxPoint x="-2140" y="715" as="sourcePoint" />
            <mxPoint x="-1930" y="730" as="targetPoint" />
          </mxGeometry>
        </mxCell>
        <mxCell id="Tl9PxRhG5Vz8yD-yXxrD-42" value="Request (id=1)" style="edgeLabel;html=1;align=center;verticalAlign=middle;resizable=0;points=[];" parent="Tl9PxRhG5Vz8yD-yXxrD-37" vertex="1" connectable="0">
          <mxGeometry x="-0.3347" y="2" relative="1" as="geometry">
            <mxPoint x="10" y="-13" as="offset" />
          </mxGeometry>
        </mxCell>
        <mxCell id="Tl9PxRhG5Vz8yD-yXxrD-38" value="" style="verticalLabelPosition=bottom;verticalAlign=top;html=1;shape=mxgraph.flowchart.or;fillColor=#f8cecc;strokeColor=#FF3333;" parent="1" vertex="1">
          <mxGeometry x="-1800" y="910" width="40" height="40" as="geometry" />
        </mxCell>
        <mxCell id="Tl9PxRhG5Vz8yD-yXxrD-40" value="" style="shape=flexArrow;endArrow=classic;html=1;rounded=0;" parent="1" edge="1">
          <mxGeometry width="50" height="50" relative="1" as="geometry">
            <mxPoint x="-2151" y="680" as="sourcePoint" />
            <mxPoint x="-2150" y="1210" as="targetPoint" />
          </mxGeometry>
        </mxCell>
        <mxCell id="Tl9PxRhG5Vz8yD-yXxrD-41" value="" style="shape=flexArrow;endArrow=classic;html=1;rounded=0;" parent="1" edge="1">
          <mxGeometry width="50" height="50" relative="1" as="geometry">
            <mxPoint x="-1570" y="680" as="sourcePoint" />
            <mxPoint x="-1570" y="1200" as="targetPoint" />
          </mxGeometry>
        </mxCell>
        <mxCell id="Tl9PxRhG5Vz8yD-yXxrD-44" value="" style="endArrow=classic;html=1;rounded=0;" parent="1" edge="1">
          <mxGeometry width="50" height="50" relative="1" as="geometry">
            <mxPoint x="-2140" y="805" as="sourcePoint" />
            <mxPoint x="-1580" y="850" as="targetPoint" />
          </mxGeometry>
        </mxCell>
        <mxCell id="Tl9PxRhG5Vz8yD-yXxrD-45" value="Request (id=1)" style="edgeLabel;html=1;align=center;verticalAlign=middle;resizable=0;points=[];" parent="Tl9PxRhG5Vz8yD-yXxrD-44" vertex="1" connectable="0">
          <mxGeometry x="-0.3347" y="2" relative="1" as="geometry">
            <mxPoint x="10" y="-13" as="offset" />
          </mxGeometry>
        </mxCell>
        <mxCell id="Tl9PxRhG5Vz8yD-yXxrD-47" value="" style="endArrow=classic;html=1;rounded=0;entryX=1;entryY=0.5;entryDx=0;entryDy=0;entryPerimeter=0;" parent="1" target="Tl9PxRhG5Vz8yD-yXxrD-38" edge="1">
          <mxGeometry width="50" height="50" relative="1" as="geometry">
            <mxPoint x="-1590" y="910" as="sourcePoint" />
            <mxPoint x="-1730" y="950" as="targetPoint" />
          </mxGeometry>
        </mxCell>
        <mxCell id="Tl9PxRhG5Vz8yD-yXxrD-48" value="Response (id=1)" style="edgeLabel;html=1;align=center;verticalAlign=middle;resizable=0;points=[];" parent="Tl9PxRhG5Vz8yD-yXxrD-47" vertex="1" connectable="0">
          <mxGeometry x="-0.3347" y="2" relative="1" as="geometry">
            <mxPoint x="-34" y="-25" as="offset" />
          </mxGeometry>
        </mxCell>
        <mxCell id="Tl9PxRhG5Vz8yD-yXxrD-49" value="" style="endArrow=classic;html=1;rounded=0;" parent="1" edge="1">
          <mxGeometry width="50" height="50" relative="1" as="geometry">
            <mxPoint x="-1560" y="860" as="sourcePoint" />
            <mxPoint x="-1560" y="900" as="targetPoint" />
            <Array as="points">
              <mxPoint x="-1520" y="860" />
              <mxPoint x="-1520" y="880" />
              <mxPoint x="-1520" y="900" />
            </Array>
          </mxGeometry>
        </mxCell>
        <mxCell id="Tl9PxRhG5Vz8yD-yXxrD-50" value="Process request(id=1) and mark down history" style="edgeLabel;html=1;align=center;verticalAlign=middle;resizable=0;points=[];labelBackgroundColor=#FFF2CC;" parent="Tl9PxRhG5Vz8yD-yXxrD-49" vertex="1" connectable="0">
          <mxGeometry x="-0.05" y="1" relative="1" as="geometry">
            <mxPoint x="129" as="offset" />
          </mxGeometry>
        </mxCell>
        <mxCell id="Tl9PxRhG5Vz8yD-yXxrD-51" value="" style="verticalLabelPosition=bottom;verticalAlign=top;html=1;shape=mxgraph.flowchart.or;fillColor=#f8cecc;strokeColor=#FF3333;" parent="1" vertex="1">
          <mxGeometry x="-1930" y="715" width="40" height="40" as="geometry" />
        </mxCell>
        <mxCell id="Tl9PxRhG5Vz8yD-yXxrD-52" value="Retry" style="text;html=1;align=center;verticalAlign=middle;resizable=0;points=[];autosize=1;strokeColor=none;fillColor=none;" parent="1" vertex="1">
          <mxGeometry x="-2210" y="780" width="50" height="30" as="geometry" />
        </mxCell>
        <mxCell id="Tl9PxRhG5Vz8yD-yXxrD-53" value="" style="endArrow=classic;html=1;rounded=0;" parent="1" edge="1">
          <mxGeometry width="50" height="50" relative="1" as="geometry">
            <mxPoint x="-2140" y="966" as="sourcePoint" />
            <mxPoint x="-1580" y="1011" as="targetPoint" />
          </mxGeometry>
        </mxCell>
        <mxCell id="Tl9PxRhG5Vz8yD-yXxrD-54" value="Request (id=1)" style="edgeLabel;html=1;align=center;verticalAlign=middle;resizable=0;points=[];" parent="Tl9PxRhG5Vz8yD-yXxrD-53" vertex="1" connectable="0">
          <mxGeometry x="-0.3347" y="2" relative="1" as="geometry">
            <mxPoint x="10" y="-13" as="offset" />
          </mxGeometry>
        </mxCell>
        <mxCell id="Tl9PxRhG5Vz8yD-yXxrD-55" value="Retry" style="text;html=1;align=center;verticalAlign=middle;resizable=0;points=[];autosize=1;strokeColor=none;fillColor=none;" parent="1" vertex="1">
          <mxGeometry x="-2210" y="940" width="50" height="30" as="geometry" />
        </mxCell>
        <mxCell id="Tl9PxRhG5Vz8yD-yXxrD-56" value="" style="endArrow=classic;html=1;rounded=0;" parent="1" edge="1">
          <mxGeometry width="50" height="50" relative="1" as="geometry">
            <mxPoint x="-1560" y="1030" as="sourcePoint" />
            <mxPoint x="-1560" y="1070" as="targetPoint" />
            <Array as="points">
              <mxPoint x="-1520" y="1030" />
              <mxPoint x="-1520" y="1050" />
              <mxPoint x="-1520" y="1070" />
            </Array>
          </mxGeometry>
        </mxCell>
        <mxCell id="Tl9PxRhG5Vz8yD-yXxrD-57" value="Request(id=1) is already processed, return" style="edgeLabel;html=1;align=center;verticalAlign=middle;resizable=0;points=[];labelBackgroundColor=#FFF2CC;" parent="Tl9PxRhG5Vz8yD-yXxrD-56" vertex="1" connectable="0">
          <mxGeometry x="-0.05" y="1" relative="1" as="geometry">
            <mxPoint x="119" y="3" as="offset" />
          </mxGeometry>
        </mxCell>
        <mxCell id="Tl9PxRhG5Vz8yD-yXxrD-58" value="" style="endArrow=classic;html=1;rounded=0;" parent="1" edge="1">
          <mxGeometry width="50" height="50" relative="1" as="geometry">
            <mxPoint x="-1580" y="1090" as="sourcePoint" />
            <mxPoint x="-2140" y="1140" as="targetPoint" />
          </mxGeometry>
        </mxCell>
        <mxCell id="Tl9PxRhG5Vz8yD-yXxrD-59" value="Response (id=1)" style="edgeLabel;html=1;align=center;verticalAlign=middle;resizable=0;points=[];" parent="Tl9PxRhG5Vz8yD-yXxrD-58" vertex="1" connectable="0">
          <mxGeometry x="-0.3347" y="2" relative="1" as="geometry">
            <mxPoint x="-34" y="-25" as="offset" />
          </mxGeometry>
        </mxCell>
        <mxCell id="Tl9PxRhG5Vz8yD-yXxrD-60" value="Done" style="text;html=1;align=center;verticalAlign=middle;resizable=0;points=[];autosize=1;strokeColor=none;fillColor=none;" parent="1" vertex="1">
          <mxGeometry x="-2210" y="1120" width="50" height="30" as="geometry" />
        </mxCell>
        <mxCell id="Tl9PxRhG5Vz8yD-yXxrD-62" value="Start" style="text;html=1;align=center;verticalAlign=middle;resizable=0;points=[];autosize=1;strokeColor=none;fillColor=none;" parent="1" vertex="1">
          <mxGeometry x="-2210" y="700" width="50" height="30" as="geometry" />
        </mxCell>
        <mxCell id="Tl9PxRhG5Vz8yD-yXxrD-63" value="Network issue" style="text;html=1;align=center;verticalAlign=middle;resizable=0;points=[];autosize=1;strokeColor=#d79b00;fillColor=#ffe6cc;" parent="1" vertex="1">
          <mxGeometry x="-1900" y="880" width="100" height="30" as="geometry" />
        </mxCell>
        <mxCell id="Tl9PxRhG5Vz8yD-yXxrD-74" style="edgeStyle=orthogonalEdgeStyle;rounded=0;orthogonalLoop=1;jettySize=auto;html=1;exitX=0.5;exitY=1;exitDx=0;exitDy=0;" parent="1" source="Tl9PxRhG5Vz8yD-yXxrD-64" target="Tl9PxRhG5Vz8yD-yXxrD-73" edge="1">
          <mxGeometry relative="1" as="geometry" />
        </mxCell>
        <mxCell id="Tl9PxRhG5Vz8yD-yXxrD-64" value="" style="verticalLabelPosition=bottom;verticalAlign=top;html=1;shape=process;whiteSpace=wrap;rounded=1;size=0.14;arcSize=6;" parent="1" vertex="1">
          <mxGeometry x="-2023.5" y="1586" width="100" height="60" as="geometry" />
        </mxCell>
        <mxCell id="Tl9PxRhG5Vz8yD-yXxrD-70" style="edgeStyle=orthogonalEdgeStyle;rounded=0;orthogonalLoop=1;jettySize=auto;html=1;exitX=0.5;exitY=1;exitDx=0;exitDy=0;exitPerimeter=0;" parent="1" source="Tl9PxRhG5Vz8yD-yXxrD-68" target="Tl9PxRhG5Vz8yD-yXxrD-64" edge="1">
          <mxGeometry relative="1" as="geometry" />
        </mxCell>
        <mxCell id="Tl9PxRhG5Vz8yD-yXxrD-68" value="Start" style="strokeWidth=2;html=1;shape=mxgraph.flowchart.start_2;whiteSpace=wrap;" parent="1" vertex="1">
          <mxGeometry x="-2006" y="1460" width="65" height="60" as="geometry" />
        </mxCell>
        <mxCell id="Tl9PxRhG5Vz8yD-yXxrD-72" value="Send &lt;br&gt;Request" style="text;html=1;align=center;verticalAlign=middle;resizable=0;points=[];autosize=1;strokeColor=none;fillColor=none;" parent="1" vertex="1">
          <mxGeometry x="-2008.5" y="1596" width="70" height="40" as="geometry" />
        </mxCell>
        <mxCell id="Tl9PxRhG5Vz8yD-yXxrD-79" style="edgeStyle=orthogonalEdgeStyle;rounded=0;orthogonalLoop=1;jettySize=auto;html=1;entryX=0.5;entryY=0;entryDx=0;entryDy=0;entryPerimeter=0;" parent="1" source="Tl9PxRhG5Vz8yD-yXxrD-73" target="Tl9PxRhG5Vz8yD-yXxrD-81" edge="1">
          <mxGeometry relative="1" as="geometry">
            <mxPoint x="-1820" y="1850" as="targetPoint" />
          </mxGeometry>
        </mxCell>
        <mxCell id="Tl9PxRhG5Vz8yD-yXxrD-80" value="Yes" style="edgeLabel;html=1;align=center;verticalAlign=middle;resizable=0;points=[];" parent="Tl9PxRhG5Vz8yD-yXxrD-79" vertex="1" connectable="0">
          <mxGeometry x="-0.0811" y="1" relative="1" as="geometry">
            <mxPoint x="1" y="-9" as="offset" />
          </mxGeometry>
        </mxCell>
        <mxCell id="Tl9PxRhG5Vz8yD-yXxrD-73" value="Sent &lt;br&gt;Successfully" style="strokeWidth=2;html=1;shape=mxgraph.flowchart.decision;whiteSpace=wrap;" parent="1" vertex="1">
          <mxGeometry x="-2023.5" y="1710" width="100" height="100" as="geometry" />
        </mxCell>
        <mxCell id="Tl9PxRhG5Vz8yD-yXxrD-91" style="edgeStyle=orthogonalEdgeStyle;rounded=0;orthogonalLoop=1;jettySize=auto;html=1;entryX=0;entryY=0.5;entryDx=0;entryDy=0;" parent="1" source="Tl9PxRhG5Vz8yD-yXxrD-78" target="Tl9PxRhG5Vz8yD-yXxrD-64" edge="1">
          <mxGeometry relative="1" as="geometry">
            <Array as="points">
              <mxPoint x="-2260" y="1960" />
              <mxPoint x="-2260" y="1616" />
            </Array>
          </mxGeometry>
        </mxCell>
        <mxCell id="Tl9PxRhG5Vz8yD-yXxrD-92" value="Yes" style="edgeLabel;html=1;align=center;verticalAlign=middle;resizable=0;points=[];" parent="Tl9PxRhG5Vz8yD-yXxrD-91" vertex="1" connectable="0">
          <mxGeometry x="-0.3482" relative="1" as="geometry">
            <mxPoint as="offset" />
          </mxGeometry>
        </mxCell>
        <mxCell id="Tl9PxRhG5Vz8yD-yXxrD-93" value="No" style="edgeStyle=orthogonalEdgeStyle;rounded=0;orthogonalLoop=1;jettySize=auto;html=1;" parent="1" source="Tl9PxRhG5Vz8yD-yXxrD-78" target="Tl9PxRhG5Vz8yD-yXxrD-85" edge="1">
          <mxGeometry relative="1" as="geometry">
            <Array as="points">
              <mxPoint x="-2140" y="2110" />
              <mxPoint x="-1973" y="2110" />
            </Array>
          </mxGeometry>
        </mxCell>
        <mxCell id="Tl9PxRhG5Vz8yD-yXxrD-78" value="Retry?" style="strokeWidth=2;html=1;shape=mxgraph.flowchart.decision;whiteSpace=wrap;" parent="1" vertex="1">
          <mxGeometry x="-2190" y="1910" width="100" height="100" as="geometry" />
        </mxCell>
        <mxCell id="Tl9PxRhG5Vz8yD-yXxrD-83" style="edgeStyle=orthogonalEdgeStyle;rounded=0;orthogonalLoop=1;jettySize=auto;html=1;exitX=1;exitY=0.5;exitDx=0;exitDy=0;exitPerimeter=0;" parent="1" source="Tl9PxRhG5Vz8yD-yXxrD-81" target="Tl9PxRhG5Vz8yD-yXxrD-82" edge="1">
          <mxGeometry relative="1" as="geometry" />
        </mxCell>
        <mxCell id="Tl9PxRhG5Vz8yD-yXxrD-95" value="Yes" style="edgeLabel;html=1;align=center;verticalAlign=middle;resizable=0;points=[];" parent="Tl9PxRhG5Vz8yD-yXxrD-83" vertex="1" connectable="0">
          <mxGeometry x="-0.0545" y="-3" relative="1" as="geometry">
            <mxPoint x="12" y="-13" as="offset" />
          </mxGeometry>
        </mxCell>
        <mxCell id="Tl9PxRhG5Vz8yD-yXxrD-81" value="Receive&lt;br&gt;Response?" style="strokeWidth=2;html=1;shape=mxgraph.flowchart.decision;whiteSpace=wrap;" parent="1" vertex="1">
          <mxGeometry x="-1840" y="1820" width="100" height="100" as="geometry" />
        </mxCell>
        <mxCell id="Tl9PxRhG5Vz8yD-yXxrD-94" style="edgeStyle=orthogonalEdgeStyle;rounded=0;orthogonalLoop=1;jettySize=auto;html=1;" parent="1" source="Tl9PxRhG5Vz8yD-yXxrD-82" target="Tl9PxRhG5Vz8yD-yXxrD-85" edge="1">
          <mxGeometry relative="1" as="geometry">
            <Array as="points">
              <mxPoint x="-1655" y="2110" />
              <mxPoint x="-1973" y="2110" />
            </Array>
          </mxGeometry>
        </mxCell>
        <mxCell id="Tl9PxRhG5Vz8yD-yXxrD-82" value="" style="verticalLabelPosition=bottom;verticalAlign=top;html=1;shape=process;whiteSpace=wrap;rounded=1;size=0.14;arcSize=6;" parent="1" vertex="1">
          <mxGeometry x="-1705" y="1950" width="100" height="60" as="geometry" />
        </mxCell>
        <mxCell id="Tl9PxRhG5Vz8yD-yXxrD-84" value="Process response" style="text;html=1;align=center;verticalAlign=middle;resizable=0;points=[];autosize=1;strokeColor=none;fillColor=none;" parent="1" vertex="1">
          <mxGeometry x="-1590" y="1968" width="120" height="30" as="geometry" />
        </mxCell>
        <mxCell id="Tl9PxRhG5Vz8yD-yXxrD-85" value="End" style="strokeWidth=2;html=1;shape=mxgraph.flowchart.terminator;whiteSpace=wrap;" parent="1" vertex="1">
          <mxGeometry x="-2023" y="2230" width="100" height="60" as="geometry" />
        </mxCell>
        <mxCell id="Tl9PxRhG5Vz8yD-yXxrD-87" style="edgeStyle=orthogonalEdgeStyle;rounded=0;orthogonalLoop=1;jettySize=auto;html=1;entryX=0.5;entryY=0;entryDx=0;entryDy=0;entryPerimeter=0;" parent="1" source="Tl9PxRhG5Vz8yD-yXxrD-73" target="Tl9PxRhG5Vz8yD-yXxrD-78" edge="1">
          <mxGeometry relative="1" as="geometry" />
        </mxCell>
        <mxCell id="Tl9PxRhG5Vz8yD-yXxrD-88" value="No" style="edgeLabel;html=1;align=center;verticalAlign=middle;resizable=0;points=[];" parent="Tl9PxRhG5Vz8yD-yXxrD-87" vertex="1" connectable="0">
          <mxGeometry x="-0.2554" relative="1" as="geometry">
            <mxPoint x="-6" y="-10" as="offset" />
          </mxGeometry>
        </mxCell>
        <mxCell id="Tl9PxRhG5Vz8yD-yXxrD-89" style="edgeStyle=orthogonalEdgeStyle;rounded=0;orthogonalLoop=1;jettySize=auto;html=1;entryX=1;entryY=0.5;entryDx=0;entryDy=0;entryPerimeter=0;" parent="1" source="Tl9PxRhG5Vz8yD-yXxrD-81" target="Tl9PxRhG5Vz8yD-yXxrD-78" edge="1">
          <mxGeometry relative="1" as="geometry" />
        </mxCell>
        <mxCell id="Tl9PxRhG5Vz8yD-yXxrD-90" value="No" style="edgeLabel;html=1;align=center;verticalAlign=middle;resizable=0;points=[];" parent="Tl9PxRhG5Vz8yD-yXxrD-89" vertex="1" connectable="0">
          <mxGeometry x="-0.1176" y="3" relative="1" as="geometry">
            <mxPoint as="offset" />
          </mxGeometry>
        </mxCell>
        <mxCell id="Tl9PxRhG5Vz8yD-yXxrD-98" style="edgeStyle=orthogonalEdgeStyle;rounded=0;orthogonalLoop=1;jettySize=auto;html=1;" parent="1" source="Tl9PxRhG5Vz8yD-yXxrD-96" target="Tl9PxRhG5Vz8yD-yXxrD-97" edge="1">
          <mxGeometry relative="1" as="geometry" />
        </mxCell>
        <mxCell id="Tl9PxRhG5Vz8yD-yXxrD-96" value="Start" style="strokeWidth=2;html=1;shape=mxgraph.flowchart.start_2;whiteSpace=wrap;" parent="1" vertex="1">
          <mxGeometry x="-2080" y="2480" width="80" height="80" as="geometry" />
        </mxCell>
        <mxCell id="Tl9PxRhG5Vz8yD-yXxrD-101" style="edgeStyle=orthogonalEdgeStyle;rounded=0;orthogonalLoop=1;jettySize=auto;html=1;" parent="1" source="Tl9PxRhG5Vz8yD-yXxrD-97" target="Tl9PxRhG5Vz8yD-yXxrD-100" edge="1">
          <mxGeometry relative="1" as="geometry" />
        </mxCell>
        <mxCell id="Tl9PxRhG5Vz8yD-yXxrD-97" value="Receive Request" style="shape=process;whiteSpace=wrap;html=1;backgroundOutline=1;" parent="1" vertex="1">
          <mxGeometry x="-2100" y="2620" width="120" height="60" as="geometry" />
        </mxCell>
        <mxCell id="Tl9PxRhG5Vz8yD-yXxrD-103" style="edgeStyle=orthogonalEdgeStyle;rounded=0;orthogonalLoop=1;jettySize=auto;html=1;entryX=0.5;entryY=0;entryDx=0;entryDy=0;" parent="1" source="Tl9PxRhG5Vz8yD-yXxrD-100" target="Tl9PxRhG5Vz8yD-yXxrD-102" edge="1">
          <mxGeometry relative="1" as="geometry" />
        </mxCell>
        <mxCell id="Tl9PxRhG5Vz8yD-yXxrD-104" value="No" style="edgeLabel;html=1;align=center;verticalAlign=middle;resizable=0;points=[];" parent="Tl9PxRhG5Vz8yD-yXxrD-103" vertex="1" connectable="0">
          <mxGeometry x="-0.3026" y="-4" relative="1" as="geometry">
            <mxPoint as="offset" />
          </mxGeometry>
        </mxCell>
        <mxCell id="Tl9PxRhG5Vz8yD-yXxrD-111" style="edgeStyle=orthogonalEdgeStyle;rounded=0;orthogonalLoop=1;jettySize=auto;html=1;entryX=0.5;entryY=0;entryDx=0;entryDy=0;exitX=0;exitY=0.5;exitDx=0;exitDy=0;exitPerimeter=0;" parent="1" source="Tl9PxRhG5Vz8yD-yXxrD-100" target="Tl9PxRhG5Vz8yD-yXxrD-107" edge="1">
          <mxGeometry relative="1" as="geometry">
            <Array as="points">
              <mxPoint x="-2160" y="2800" />
              <mxPoint x="-2160" y="3110" />
              <mxPoint x="-2050" y="3110" />
              <mxPoint x="-2050" y="3160" />
            </Array>
          </mxGeometry>
        </mxCell>
        <mxCell id="Tl9PxRhG5Vz8yD-yXxrD-112" value="Yes" style="edgeLabel;html=1;align=center;verticalAlign=middle;resizable=0;points=[];" parent="Tl9PxRhG5Vz8yD-yXxrD-111" vertex="1" connectable="0">
          <mxGeometry x="-0.5" y="-4" relative="1" as="geometry">
            <mxPoint as="offset" />
          </mxGeometry>
        </mxCell>
        <mxCell id="Tl9PxRhG5Vz8yD-yXxrD-100" value="Request is&lt;br&gt;Processed?" style="strokeWidth=2;html=1;shape=mxgraph.flowchart.decision;whiteSpace=wrap;" parent="1" vertex="1">
          <mxGeometry x="-2090" y="2750" width="100" height="100" as="geometry" />
        </mxCell>
        <mxCell id="Tl9PxRhG5Vz8yD-yXxrD-106" style="edgeStyle=orthogonalEdgeStyle;rounded=0;orthogonalLoop=1;jettySize=auto;html=1;entryX=0.5;entryY=0;entryDx=0;entryDy=0;" parent="1" source="Tl9PxRhG5Vz8yD-yXxrD-102" target="Tl9PxRhG5Vz8yD-yXxrD-105" edge="1">
          <mxGeometry relative="1" as="geometry" />
        </mxCell>
        <mxCell id="Tl9PxRhG5Vz8yD-yXxrD-102" value="Generate process record" style="shape=process;whiteSpace=wrap;html=1;backgroundOutline=1;" parent="1" vertex="1">
          <mxGeometry x="-1941" y="2850" width="120" height="60" as="geometry" />
        </mxCell>
        <mxCell id="Tl9PxRhG5Vz8yD-yXxrD-108" style="edgeStyle=orthogonalEdgeStyle;rounded=0;orthogonalLoop=1;jettySize=auto;html=1;exitX=0.5;exitY=1;exitDx=0;exitDy=0;entryX=0.5;entryY=0;entryDx=0;entryDy=0;" parent="1" source="Tl9PxRhG5Vz8yD-yXxrD-113" target="Tl9PxRhG5Vz8yD-yXxrD-107" edge="1">
          <mxGeometry relative="1" as="geometry">
            <Array as="points">
              <mxPoint x="-1885" y="3110" />
              <mxPoint x="-2050" y="3110" />
              <mxPoint x="-2050" y="3160" />
            </Array>
          </mxGeometry>
        </mxCell>
        <mxCell id="Tl9PxRhG5Vz8yD-yXxrD-105" value="Business process" style="shape=process;whiteSpace=wrap;html=1;backgroundOutline=1;" parent="1" vertex="1">
          <mxGeometry x="-1941" y="2940" width="120" height="60" as="geometry" />
        </mxCell>
        <mxCell id="Tl9PxRhG5Vz8yD-yXxrD-107" value="Response" style="shape=process;whiteSpace=wrap;html=1;backgroundOutline=1;" parent="1" vertex="1">
          <mxGeometry x="-2110" y="3170" width="120" height="60" as="geometry" />
        </mxCell>
        <mxCell id="Tl9PxRhG5Vz8yD-yXxrD-109" value="End" style="strokeWidth=2;html=1;shape=mxgraph.flowchart.terminator;whiteSpace=wrap;" parent="1" vertex="1">
          <mxGeometry x="-2100" y="3290" width="100" height="60" as="geometry" />
        </mxCell>
        <mxCell id="Tl9PxRhG5Vz8yD-yXxrD-110" style="edgeStyle=orthogonalEdgeStyle;rounded=0;orthogonalLoop=1;jettySize=auto;html=1;exitX=0.5;exitY=1;exitDx=0;exitDy=0;entryX=0.5;entryY=0;entryDx=0;entryDy=0;entryPerimeter=0;" parent="1" source="Tl9PxRhG5Vz8yD-yXxrD-107" target="Tl9PxRhG5Vz8yD-yXxrD-109" edge="1">
          <mxGeometry relative="1" as="geometry">
            <mxPoint x="-1938.5" y="3250" as="sourcePoint" />
            <mxPoint x="-2053" y="3460" as="targetPoint" />
          </mxGeometry>
        </mxCell>
        <mxCell id="Tl9PxRhG5Vz8yD-yXxrD-114" value="" style="edgeStyle=orthogonalEdgeStyle;rounded=0;orthogonalLoop=1;jettySize=auto;html=1;exitX=0.5;exitY=1;exitDx=0;exitDy=0;entryX=0.5;entryY=0;entryDx=0;entryDy=0;" parent="1" source="Tl9PxRhG5Vz8yD-yXxrD-105" target="Tl9PxRhG5Vz8yD-yXxrD-113" edge="1">
          <mxGeometry relative="1" as="geometry">
            <mxPoint x="-1881" y="3020" as="sourcePoint" />
            <mxPoint x="-2050" y="3170" as="targetPoint" />
            <Array as="points" />
          </mxGeometry>
        </mxCell>
        <mxCell id="Tl9PxRhG5Vz8yD-yXxrD-113" value="Update process result" style="shape=process;whiteSpace=wrap;html=1;backgroundOutline=1;" parent="1" vertex="1">
          <mxGeometry x="-1941" y="3040" width="120" height="60" as="geometry" />
        </mxCell>
        <mxCell id="Tl9PxRhG5Vz8yD-yXxrD-115" value="" style="ellipse;whiteSpace=wrap;html=1;aspect=fixed;" parent="1" vertex="1">
          <mxGeometry x="-1660" y="2700" width="80" height="80" as="geometry" />
        </mxCell>
        <mxCell id="Tl9PxRhG5Vz8yD-yXxrD-116" value="" style="ellipse;whiteSpace=wrap;html=1;aspect=fixed;fillColor=#f8cecc;strokeColor=#b85450;" parent="1" vertex="1">
          <mxGeometry x="-990" y="2620" width="70" height="70" as="geometry" />
        </mxCell>
        <mxCell id="Tl9PxRhG5Vz8yD-yXxrD-123" style="edgeStyle=orthogonalEdgeStyle;rounded=0;orthogonalLoop=1;jettySize=auto;html=1;exitX=0.875;exitY=0.5;exitDx=0;exitDy=0;exitPerimeter=0;entryX=0;entryY=0.5;entryDx=0;entryDy=0;" parent="1" source="Tl9PxRhG5Vz8yD-yXxrD-117" target="Tl9PxRhG5Vz8yD-yXxrD-122" edge="1">
          <mxGeometry relative="1" as="geometry" />
        </mxCell>
        <mxCell id="Tl9PxRhG5Vz8yD-yXxrD-117" value="" style="ellipse;shape=cloud;whiteSpace=wrap;html=1;" parent="1" vertex="1">
          <mxGeometry x="-1390" y="2740" width="120" height="80" as="geometry" />
        </mxCell>
        <mxCell id="Tl9PxRhG5Vz8yD-yXxrD-118" style="edgeStyle=orthogonalEdgeStyle;rounded=0;orthogonalLoop=1;jettySize=auto;html=1;" parent="1" source="Tl9PxRhG5Vz8yD-yXxrD-115" target="Tl9PxRhG5Vz8yD-yXxrD-117" edge="1">
          <mxGeometry relative="1" as="geometry" />
        </mxCell>
        <mxCell id="Tl9PxRhG5Vz8yD-yXxrD-119" value="" style="ellipse;whiteSpace=wrap;html=1;aspect=fixed;" parent="1" vertex="1">
          <mxGeometry x="-990" y="2885" width="80" height="80" as="geometry" />
        </mxCell>
        <mxCell id="Tl9PxRhG5Vz8yD-yXxrD-120" value="&lt;b&gt;Rest WebApp 1&lt;/b&gt;" style="text;html=1;align=center;verticalAlign=middle;resizable=0;points=[];autosize=1;strokeColor=none;fillColor=none;" parent="1" vertex="1">
          <mxGeometry x="-900" y="2630" width="110" height="30" as="geometry" />
        </mxCell>
        <mxCell id="Tl9PxRhG5Vz8yD-yXxrD-121" value="&lt;b&gt;Rest WebApp 10&lt;/b&gt;" style="text;html=1;align=center;verticalAlign=middle;resizable=0;points=[];autosize=1;strokeColor=none;fillColor=none;" parent="1" vertex="1">
          <mxGeometry x="-900" y="2910" width="120" height="30" as="geometry" />
        </mxCell>
        <mxCell id="Tl9PxRhG5Vz8yD-yXxrD-129" style="edgeStyle=orthogonalEdgeStyle;rounded=0;orthogonalLoop=1;jettySize=auto;html=1;entryX=0;entryY=0.5;entryDx=0;entryDy=0;" parent="1" source="Tl9PxRhG5Vz8yD-yXxrD-122" target="Tl9PxRhG5Vz8yD-yXxrD-116" edge="1">
          <mxGeometry relative="1" as="geometry" />
        </mxCell>
        <mxCell id="Tl9PxRhG5Vz8yD-yXxrD-122" value="Load &lt;br&gt;Balance" style="whiteSpace=wrap;html=1;aspect=fixed;" parent="1" vertex="1">
          <mxGeometry x="-1170" y="2745" width="70" height="70" as="geometry" />
        </mxCell>
        <mxCell id="Tl9PxRhG5Vz8yD-yXxrD-124" value="" style="ellipse;whiteSpace=wrap;html=1;aspect=fixed;" parent="1" vertex="1">
          <mxGeometry x="-1000" y="2730" width="70" height="70" as="geometry" />
        </mxCell>
        <mxCell id="Tl9PxRhG5Vz8yD-yXxrD-125" value="" style="ellipse;whiteSpace=wrap;html=1;aspect=fixed;" parent="1" vertex="1">
          <mxGeometry x="-985" y="2745" width="70" height="70" as="geometry" />
        </mxCell>
        <mxCell id="Tl9PxRhG5Vz8yD-yXxrD-126" value="" style="ellipse;whiteSpace=wrap;html=1;aspect=fixed;" parent="1" vertex="1">
          <mxGeometry x="-970" y="2760" width="70" height="70" as="geometry" />
        </mxCell>
        <mxCell id="Tl9PxRhG5Vz8yD-yXxrD-127" value="" style="ellipse;whiteSpace=wrap;html=1;aspect=fixed;" parent="1" vertex="1">
          <mxGeometry x="-950" y="2780" width="70" height="70" as="geometry" />
        </mxCell>
        <mxCell id="Tl9PxRhG5Vz8yD-yXxrD-128" value="&lt;b&gt;Automation&lt;/b&gt;" style="text;html=1;align=center;verticalAlign=middle;resizable=0;points=[];autosize=1;strokeColor=none;fillColor=none;" parent="1" vertex="1">
          <mxGeometry x="-1720" y="2680" width="90" height="30" as="geometry" />
        </mxCell>
        <mxCell id="Tl9PxRhG5Vz8yD-yXxrD-130" value="Service is Down" style="text;html=1;align=center;verticalAlign=middle;resizable=0;points=[];autosize=1;strokeColor=#d79b00;fillColor=#ffe6cc;" parent="1" vertex="1">
          <mxGeometry x="-950" y="2670" width="110" height="30" as="geometry" />
        </mxCell>
        <mxCell id="Tl9PxRhG5Vz8yD-yXxrD-132" value="&lt;b&gt;Rest WebApp&lt;/b&gt;" style="text;html=1;align=center;verticalAlign=middle;resizable=0;points=[];autosize=1;strokeColor=none;fillColor=none;" parent="1" vertex="1">
          <mxGeometry x="-860" y="2785" width="100" height="30" as="geometry" />
        </mxCell>
        <mxCell id="Tl9PxRhG5Vz8yD-yXxrD-133" value="Sticky Session" style="text;html=1;align=center;verticalAlign=middle;resizable=0;points=[];autosize=1;strokeColor=#d79b00;fillColor=#ffe6cc;" parent="1" vertex="1">
          <mxGeometry x="-1240" y="2800" width="100" height="30" as="geometry" />
        </mxCell>
        <mxCell id="Tl9PxRhG5Vz8yD-yXxrD-134" value="Monitor status of Rest WebApp" style="text;html=1;align=center;verticalAlign=middle;resizable=0;points=[];autosize=1;strokeColor=#d79b00;fillColor=#ffe6cc;" parent="1" vertex="1">
          <mxGeometry x="-1610" y="2680" width="190" height="30" as="geometry" />
        </mxCell>
        <mxCell id="Tl9PxRhG5Vz8yD-yXxrD-140" style="edgeStyle=orthogonalEdgeStyle;rounded=0;orthogonalLoop=1;jettySize=auto;html=1;" parent="1" source="Tl9PxRhG5Vz8yD-yXxrD-137" target="Tl9PxRhG5Vz8yD-yXxrD-138" edge="1">
          <mxGeometry relative="1" as="geometry" />
        </mxCell>
        <mxCell id="Tl9PxRhG5Vz8yD-yXxrD-137" value="Start" style="strokeWidth=2;html=1;shape=mxgraph.flowchart.start_2;whiteSpace=wrap;" parent="1" vertex="1">
          <mxGeometry x="-2080" y="3440" width="80" height="80" as="geometry" />
        </mxCell>
        <mxCell id="Tl9PxRhG5Vz8yD-yXxrD-142" style="edgeStyle=orthogonalEdgeStyle;rounded=0;orthogonalLoop=1;jettySize=auto;html=1;exitX=0.5;exitY=1;exitDx=0;exitDy=0;" parent="1" source="Tl9PxRhG5Vz8yD-yXxrD-138" target="Tl9PxRhG5Vz8yD-yXxrD-141" edge="1">
          <mxGeometry relative="1" as="geometry" />
        </mxCell>
        <mxCell id="Tl9PxRhG5Vz8yD-yXxrD-138" value="" style="verticalLabelPosition=bottom;verticalAlign=top;html=1;shape=process;whiteSpace=wrap;rounded=1;size=0.14;arcSize=6;" parent="1" vertex="1">
          <mxGeometry x="-2090" y="3590" width="100" height="60" as="geometry" />
        </mxCell>
        <mxCell id="Tl9PxRhG5Vz8yD-yXxrD-139" value="Detect" style="text;html=1;align=center;verticalAlign=middle;resizable=0;points=[];autosize=1;strokeColor=none;fillColor=none;" parent="1" vertex="1">
          <mxGeometry x="-2070" y="3608" width="60" height="30" as="geometry" />
        </mxCell>
        <mxCell id="Tl9PxRhG5Vz8yD-yXxrD-143" style="edgeStyle=orthogonalEdgeStyle;rounded=0;orthogonalLoop=1;jettySize=auto;html=1;" parent="1" source="Tl9PxRhG5Vz8yD-yXxrD-141" edge="1">
          <mxGeometry relative="1" as="geometry">
            <mxPoint x="-1930" y="3890" as="targetPoint" />
          </mxGeometry>
        </mxCell>
        <mxCell id="Tl9PxRhG5Vz8yD-yXxrD-145" value="Yes" style="edgeLabel;html=1;align=center;verticalAlign=middle;resizable=0;points=[];" parent="Tl9PxRhG5Vz8yD-yXxrD-143" vertex="1" connectable="0">
          <mxGeometry x="-0.3684" y="-1" relative="1" as="geometry">
            <mxPoint as="offset" />
          </mxGeometry>
        </mxCell>
        <mxCell id="Tl9PxRhG5Vz8yD-yXxrD-157" value="No" style="edgeStyle=orthogonalEdgeStyle;rounded=0;orthogonalLoop=1;jettySize=auto;html=1;exitX=0;exitY=0.5;exitDx=0;exitDy=0;exitPerimeter=0;entryX=0.5;entryY=0;entryDx=0;entryDy=0;" parent="1" source="Tl9PxRhG5Vz8yD-yXxrD-141" target="Tl9PxRhG5Vz8yD-yXxrD-156" edge="1">
          <mxGeometry relative="1" as="geometry" />
        </mxCell>
        <mxCell id="Tl9PxRhG5Vz8yD-yXxrD-141" value="Available?" style="strokeWidth=2;html=1;shape=mxgraph.flowchart.decision;whiteSpace=wrap;" parent="1" vertex="1">
          <mxGeometry x="-2090" y="3720" width="100" height="100" as="geometry" />
        </mxCell>
        <mxCell id="Tl9PxRhG5Vz8yD-yXxrD-149" style="edgeStyle=orthogonalEdgeStyle;rounded=0;orthogonalLoop=1;jettySize=auto;html=1;" parent="1" source="Tl9PxRhG5Vz8yD-yXxrD-147" edge="1">
          <mxGeometry relative="1" as="geometry">
            <mxPoint x="-1830" y="4030" as="targetPoint" />
          </mxGeometry>
        </mxCell>
        <mxCell id="Tl9PxRhG5Vz8yD-yXxrD-150" value="Yes" style="edgeLabel;html=1;align=center;verticalAlign=middle;resizable=0;points=[];" parent="Tl9PxRhG5Vz8yD-yXxrD-149" vertex="1" connectable="0">
          <mxGeometry x="-0.3879" y="1" relative="1" as="geometry">
            <mxPoint as="offset" />
          </mxGeometry>
        </mxCell>
        <mxCell id="Tl9PxRhG5Vz8yD-yXxrD-147" value="PAUSE?" style="strokeWidth=2;html=1;shape=mxgraph.flowchart.decision;whiteSpace=wrap;" parent="1" vertex="1">
          <mxGeometry x="-1980" y="3890" width="100" height="100" as="geometry" />
        </mxCell>
        <mxCell id="Tl9PxRhG5Vz8yD-yXxrD-153" style="edgeStyle=orthogonalEdgeStyle;rounded=0;orthogonalLoop=1;jettySize=auto;html=1;exitX=0.5;exitY=1;exitDx=0;exitDy=0;" parent="1" source="Tl9PxRhG5Vz8yD-yXxrD-148" target="Tl9PxRhG5Vz8yD-yXxrD-152" edge="1">
          <mxGeometry relative="1" as="geometry">
            <Array as="points">
              <mxPoint x="-1830" y="4200" />
              <mxPoint x="-2050" y="4200" />
            </Array>
          </mxGeometry>
        </mxCell>
        <mxCell id="Tl9PxRhG5Vz8yD-yXxrD-148" value="" style="verticalLabelPosition=bottom;verticalAlign=top;html=1;shape=process;whiteSpace=wrap;rounded=1;size=0.14;arcSize=6;" parent="1" vertex="1">
          <mxGeometry x="-1880" y="4030" width="100" height="60" as="geometry" />
        </mxCell>
        <mxCell id="Tl9PxRhG5Vz8yD-yXxrD-151" value="Switch to RUN" style="text;html=1;align=center;verticalAlign=middle;resizable=0;points=[];autosize=1;strokeColor=none;fillColor=none;" parent="1" vertex="1">
          <mxGeometry x="-1785" y="4048" width="100" height="30" as="geometry" />
        </mxCell>
        <mxCell id="Tl9PxRhG5Vz8yD-yXxrD-152" value="End" style="strokeWidth=2;html=1;shape=mxgraph.flowchart.terminator;whiteSpace=wrap;" parent="1" vertex="1">
          <mxGeometry x="-2100" y="4260" width="100" height="60" as="geometry" />
        </mxCell>
        <mxCell id="Tl9PxRhG5Vz8yD-yXxrD-154" style="edgeStyle=orthogonalEdgeStyle;rounded=0;orthogonalLoop=1;jettySize=auto;html=1;entryX=0.5;entryY=0;entryDx=0;entryDy=0;entryPerimeter=0;" parent="1" source="Tl9PxRhG5Vz8yD-yXxrD-147" target="Tl9PxRhG5Vz8yD-yXxrD-152" edge="1">
          <mxGeometry relative="1" as="geometry" />
        </mxCell>
        <mxCell id="Tl9PxRhG5Vz8yD-yXxrD-155" value="No" style="edgeLabel;html=1;align=center;verticalAlign=middle;resizable=0;points=[];" parent="Tl9PxRhG5Vz8yD-yXxrD-154" vertex="1" connectable="0">
          <mxGeometry x="-0.2588" y="-1" relative="1" as="geometry">
            <mxPoint x="11" y="34" as="offset" />
          </mxGeometry>
        </mxCell>
        <mxCell id="Tl9PxRhG5Vz8yD-yXxrD-161" style="edgeStyle=orthogonalEdgeStyle;rounded=0;orthogonalLoop=1;jettySize=auto;html=1;" parent="1" source="Tl9PxRhG5Vz8yD-yXxrD-156" target="Tl9PxRhG5Vz8yD-yXxrD-160" edge="1">
          <mxGeometry relative="1" as="geometry" />
        </mxCell>
        <mxCell id="Tl9PxRhG5Vz8yD-yXxrD-156" value="" style="verticalLabelPosition=bottom;verticalAlign=top;html=1;shape=process;whiteSpace=wrap;rounded=1;size=0.14;arcSize=6;" parent="1" vertex="1">
          <mxGeometry x="-2265" y="3840" width="100" height="60" as="geometry" />
        </mxCell>
        <mxCell id="Tl9PxRhG5Vz8yD-yXxrD-158" value="Double check" style="text;html=1;align=center;verticalAlign=middle;resizable=0;points=[];autosize=1;strokeColor=none;fillColor=none;" parent="1" vertex="1">
          <mxGeometry x="-2380" y="3870" width="100" height="30" as="geometry" />
        </mxCell>
        <mxCell id="Tl9PxRhG5Vz8yD-yXxrD-165" style="edgeStyle=orthogonalEdgeStyle;rounded=0;orthogonalLoop=1;jettySize=auto;html=1;entryX=0.5;entryY=0;entryDx=0;entryDy=0;" parent="1" source="Tl9PxRhG5Vz8yD-yXxrD-160" target="Tl9PxRhG5Vz8yD-yXxrD-164" edge="1">
          <mxGeometry relative="1" as="geometry" />
        </mxCell>
        <mxCell id="Tl9PxRhG5Vz8yD-yXxrD-166" value="No" style="edgeLabel;html=1;align=center;verticalAlign=middle;resizable=0;points=[];" parent="Tl9PxRhG5Vz8yD-yXxrD-165" vertex="1" connectable="0">
          <mxGeometry x="-0.3931" y="-3" relative="1" as="geometry">
            <mxPoint as="offset" />
          </mxGeometry>
        </mxCell>
        <mxCell id="Tl9PxRhG5Vz8yD-yXxrD-160" value="Available?" style="strokeWidth=2;html=1;shape=mxgraph.flowchart.decision;whiteSpace=wrap;" parent="1" vertex="1">
          <mxGeometry x="-2265" y="3948" width="100" height="100" as="geometry" />
        </mxCell>
        <mxCell id="Tl9PxRhG5Vz8yD-yXxrD-168" style="edgeStyle=orthogonalEdgeStyle;rounded=0;orthogonalLoop=1;jettySize=auto;html=1;" parent="1" source="Tl9PxRhG5Vz8yD-yXxrD-164" target="Tl9PxRhG5Vz8yD-yXxrD-152" edge="1">
          <mxGeometry relative="1" as="geometry">
            <Array as="points">
              <mxPoint x="-2330" y="4200" />
              <mxPoint x="-2050" y="4200" />
            </Array>
          </mxGeometry>
        </mxCell>
        <mxCell id="Tl9PxRhG5Vz8yD-yXxrD-164" value="" style="verticalLabelPosition=bottom;verticalAlign=top;html=1;shape=process;whiteSpace=wrap;rounded=1;size=0.14;arcSize=6;" parent="1" vertex="1">
          <mxGeometry x="-2380" y="4100" width="100" height="60" as="geometry" />
        </mxCell>
        <mxCell id="Tl9PxRhG5Vz8yD-yXxrD-167" value="Switch to PAUSE" style="text;html=1;align=center;verticalAlign=middle;resizable=0;points=[];autosize=1;strokeColor=none;fillColor=none;" parent="1" vertex="1">
          <mxGeometry x="-2500" y="4115" width="120" height="30" as="geometry" />
        </mxCell>
      </root>
    </mxGraphModel>
  </diagram>
</mxfile>
